<?xml version="1.0" encoding="utf-8" standalone="no"?>
<!DOCTYPE svg PUBLIC "-//W3C//DTD SVG 1.1//EN"
  "http://www.w3.org/Graphics/SVG/1.1/DTD/svg11.dtd">
<svg xmlns:xlink="http://www.w3.org/1999/xlink" width="413.58pt" height="318.516375pt" viewBox="0 0 413.58 318.516375" xmlns="http://www.w3.org/2000/svg" version="1.1">
 <metadata>
  <rdf:RDF xmlns:dc="http://purl.org/dc/elements/1.1/" xmlns:cc="http://creativecommons.org/ns#" xmlns:rdf="http://www.w3.org/1999/02/22-rdf-syntax-ns#">
   <cc:Work>
    <dc:type rdf:resource="http://purl.org/dc/dcmitype/StillImage"/>
    <dc:date>2024-04-15T09:37:26.100422</dc:date>
    <dc:format>image/svg+xml</dc:format>
    <dc:creator>
     <cc:Agent>
      <dc:title>Matplotlib v3.8.3, https://matplotlib.org/</dc:title>
     </cc:Agent>
    </dc:creator>
   </cc:Work>
  </rdf:RDF>
 </metadata>
 <defs>
  <style type="text/css">*{stroke-linejoin: round; stroke-linecap: butt}</style>
 </defs>
 <g id="figure_1">
  <g id="patch_1">
   <path d="M 0 318.516375 
L 413.58 318.516375 
L 413.58 0 
L 0 0 
z
" style="fill: #ffffff"/>
  </g>
  <g id="axes_1">
   <g id="patch_2">
    <path d="M 49.26 273.312 
L 406.38 273.312 
L 406.38 7.2 
L 49.26 7.2 
z
" style="fill: #ffffff"/>
   </g>
   <g id="matplotlib.axis_1">
    <g id="xtick_1">
     <g id="line2d_1">
      <defs>
       <path id="m3ba8f4c644" d="M 0 0 
L 0 4 
" style="stroke: #000000; stroke-width: 0.8"/>
      </defs>
      <g>
       <use xlink:href="#m3ba8f4c644" x="80.496841" y="273.312" style="stroke: #000000; stroke-width: 0.8"/>
      </g>
     </g>
     <g id="text_1">
      <!-- $\mathdefault{10^{0}}$ -->
      <g transform="translate(69.436841 289.949813) scale(0.14 -0.14)">
       <defs>
        <path id="OpenSans-31" d="M 2234 0 
L 1728 0 
L 1728 3256 
Q 1728 3663 1753 4025 
Q 1688 3959 1606 3887 
Q 1525 3816 863 3278 
L 588 3634 
L 1797 4569 
L 2234 4569 
L 2234 0 
z
" transform="scale(0.015625)"/>
        <path id="OpenSans-30" d="M 3341 2291 
Q 3341 1106 2967 521 
Q 2594 -63 1825 -63 
Q 1088 -63 703 535 
Q 319 1134 319 2291 
Q 319 3484 691 4062 
Q 1063 4641 1825 4641 
Q 2569 4641 2955 4037 
Q 3341 3434 3341 2291 
z
M 844 2291 
Q 844 1294 1078 839 
Q 1313 384 1825 384 
Q 2344 384 2576 845 
Q 2809 1306 2809 2291 
Q 2809 3275 2576 3733 
Q 2344 4191 1825 4191 
Q 1313 4191 1078 3739 
Q 844 3288 844 2291 
z
" transform="scale(0.015625)"/>
       </defs>
       <use xlink:href="#OpenSans-31" transform="translate(0 0.778125)"/>
       <use xlink:href="#OpenSans-30" transform="translate(57.177734 0.778125)"/>
       <use xlink:href="#OpenSans-30" transform="translate(115.291992 38.239063) scale(0.7)"/>
      </g>
     </g>
    </g>
    <g id="xtick_2">
     <g id="line2d_2">
      <g>
       <use xlink:href="#m3ba8f4c644" x="235.322057" y="273.312" style="stroke: #000000; stroke-width: 0.8"/>
      </g>
     </g>
     <g id="text_2">
      <!-- $\mathdefault{10^{1}}$ -->
      <g transform="translate(224.262057 289.949813) scale(0.14 -0.14)">
       <use xlink:href="#OpenSans-31" transform="translate(0 0.565625)"/>
       <use xlink:href="#OpenSans-30" transform="translate(57.177734 0.565625)"/>
       <use xlink:href="#OpenSans-31" transform="translate(115.291992 38.026563) scale(0.7)"/>
      </g>
     </g>
    </g>
    <g id="xtick_3">
     <g id="line2d_3">
      <g>
       <use xlink:href="#m3ba8f4c644" x="390.147273" y="273.312" style="stroke: #000000; stroke-width: 0.8"/>
      </g>
     </g>
     <g id="text_3">
      <!-- $\mathdefault{10^{2}}$ -->
      <g transform="translate(379.087273 289.949813) scale(0.14 -0.14)">
       <defs>
        <path id="OpenSans-32" d="M 3316 0 
L 313 0 
L 313 447 
L 1516 1656 
Q 2066 2213 2241 2450 
Q 2416 2688 2503 2913 
Q 2591 3138 2591 3397 
Q 2591 3763 2369 3977 
Q 2147 4191 1753 4191 
Q 1469 4191 1214 4097 
Q 959 4003 647 3756 
L 372 4109 
Q 1003 4634 1747 4634 
Q 2391 4634 2756 4304 
Q 3122 3975 3122 3419 
Q 3122 2984 2878 2559 
Q 2634 2134 1966 1484 
L 966 506 
L 966 481 
L 3316 481 
L 3316 0 
z
" transform="scale(0.015625)"/>
       </defs>
       <use xlink:href="#OpenSans-31" transform="translate(0 0.854688)"/>
       <use xlink:href="#OpenSans-30" transform="translate(57.177734 0.854688)"/>
       <use xlink:href="#OpenSans-32" transform="translate(115.291992 38.315625) scale(0.7)"/>
      </g>
     </g>
    </g>
    <g id="xtick_4">
     <g id="line2d_4">
      <defs>
       <path id="mbc6ce71018" d="M 0 0 
L 0 2 
" style="stroke: #000000; stroke-width: 0.6"/>
      </defs>
      <g>
       <use xlink:href="#mbc6ce71018" x="56.514112" y="273.312" style="stroke: #000000; stroke-width: 0.6"/>
      </g>
     </g>
    </g>
    <g id="xtick_5">
     <g id="line2d_5">
      <g>
       <use xlink:href="#mbc6ce71018" x="65.492727" y="273.312" style="stroke: #000000; stroke-width: 0.6"/>
      </g>
     </g>
    </g>
    <g id="xtick_6">
     <g id="line2d_6">
      <g>
       <use xlink:href="#mbc6ce71018" x="73.412428" y="273.312" style="stroke: #000000; stroke-width: 0.6"/>
      </g>
     </g>
    </g>
    <g id="xtick_7">
     <g id="line2d_7">
      <g>
       <use xlink:href="#mbc6ce71018" x="127.103875" y="273.312" style="stroke: #000000; stroke-width: 0.6"/>
      </g>
     </g>
    </g>
    <g id="xtick_8">
     <g id="line2d_8">
      <g>
       <use xlink:href="#mbc6ce71018" x="154.367242" y="273.312" style="stroke: #000000; stroke-width: 0.6"/>
      </g>
     </g>
    </g>
    <g id="xtick_9">
     <g id="line2d_9">
      <g>
       <use xlink:href="#mbc6ce71018" x="173.710909" y="273.312" style="stroke: #000000; stroke-width: 0.6"/>
      </g>
     </g>
    </g>
    <g id="xtick_10">
     <g id="line2d_10">
      <g>
       <use xlink:href="#mbc6ce71018" x="188.715023" y="273.312" style="stroke: #000000; stroke-width: 0.6"/>
      </g>
     </g>
    </g>
    <g id="xtick_11">
     <g id="line2d_11">
      <g>
       <use xlink:href="#mbc6ce71018" x="200.974276" y="273.312" style="stroke: #000000; stroke-width: 0.6"/>
      </g>
     </g>
    </g>
    <g id="xtick_12">
     <g id="line2d_12">
      <g>
       <use xlink:href="#mbc6ce71018" x="211.339327" y="273.312" style="stroke: #000000; stroke-width: 0.6"/>
      </g>
     </g>
    </g>
    <g id="xtick_13">
     <g id="line2d_13">
      <g>
       <use xlink:href="#mbc6ce71018" x="220.317943" y="273.312" style="stroke: #000000; stroke-width: 0.6"/>
      </g>
     </g>
    </g>
    <g id="xtick_14">
     <g id="line2d_14">
      <g>
       <use xlink:href="#mbc6ce71018" x="228.237643" y="273.312" style="stroke: #000000; stroke-width: 0.6"/>
      </g>
     </g>
    </g>
    <g id="xtick_15">
     <g id="line2d_15">
      <g>
       <use xlink:href="#mbc6ce71018" x="281.929091" y="273.312" style="stroke: #000000; stroke-width: 0.6"/>
      </g>
     </g>
    </g>
    <g id="xtick_16">
     <g id="line2d_16">
      <g>
       <use xlink:href="#mbc6ce71018" x="309.192458" y="273.312" style="stroke: #000000; stroke-width: 0.6"/>
      </g>
     </g>
    </g>
    <g id="xtick_17">
     <g id="line2d_17">
      <g>
       <use xlink:href="#mbc6ce71018" x="328.536125" y="273.312" style="stroke: #000000; stroke-width: 0.6"/>
      </g>
     </g>
    </g>
    <g id="xtick_18">
     <g id="line2d_18">
      <g>
       <use xlink:href="#mbc6ce71018" x="343.540239" y="273.312" style="stroke: #000000; stroke-width: 0.6"/>
      </g>
     </g>
    </g>
    <g id="xtick_19">
     <g id="line2d_19">
      <g>
       <use xlink:href="#mbc6ce71018" x="355.799492" y="273.312" style="stroke: #000000; stroke-width: 0.6"/>
      </g>
     </g>
    </g>
    <g id="xtick_20">
     <g id="line2d_20">
      <g>
       <use xlink:href="#mbc6ce71018" x="366.164543" y="273.312" style="stroke: #000000; stroke-width: 0.6"/>
      </g>
     </g>
    </g>
    <g id="xtick_21">
     <g id="line2d_21">
      <g>
       <use xlink:href="#mbc6ce71018" x="375.143159" y="273.312" style="stroke: #000000; stroke-width: 0.6"/>
      </g>
     </g>
    </g>
    <g id="xtick_22">
     <g id="line2d_22">
      <g>
       <use xlink:href="#mbc6ce71018" x="383.062859" y="273.312" style="stroke: #000000; stroke-width: 0.6"/>
      </g>
     </g>
    </g>
    <g id="text_4">
     <!-- $\tilde{T}$ -->
     <g transform="translate(223.9 307.952) scale(0.14 -0.14)">
      <defs>
       <path id="OpenSans-303" d="M -1482 3884 
Q -1616 3884 -1744 3942 
Q -1872 4000 -1995 4070 
Q -2119 4141 -2233 4198 
Q -2347 4256 -2453 4256 
Q -2610 4256 -2689 4162 
Q -2769 4069 -2813 3878 
L -3119 3878 
Q -3078 4256 -2898 4470 
Q -2719 4684 -2435 4684 
Q -2291 4684 -2156 4626 
Q -2022 4569 -1900 4498 
Q -1778 4428 -1665 4370 
Q -1553 4313 -1453 4313 
Q -1300 4313 -1225 4405 
Q -1150 4497 -1103 4691 
L -794 4691 
Q -835 4313 -1011 4098 
Q -1188 3884 -1482 3884 
z
" transform="scale(0.015625)"/>
       <path id="OpenSans-54" d="M 2034 0 
L 1503 0 
L 1503 4097 
L 56 4097 
L 56 4569 
L 3481 4569 
L 3481 4097 
L 2034 4097 
L 2034 0 
z
" transform="scale(0.015625)"/>
      </defs>
      <use xlink:href="#OpenSans-303" transform="translate(65.564941 23.703125)"/>
      <use xlink:href="#OpenSans-54" transform="translate(0 0.40625)"/>
     </g>
    </g>
   </g>
   <g id="matplotlib.axis_2">
    <g id="ytick_1">
     <g id="line2d_23">
      <defs>
       <path id="ma17e260500" d="M 0 0 
L -4 0 
" style="stroke: #000000; stroke-width: 0.8"/>
      </defs>
      <g>
       <use xlink:href="#ma17e260500" x="49.26" y="256.9203" style="stroke: #000000; stroke-width: 0.8"/>
      </g>
     </g>
     <g id="text_5">
      <!-- $\mathdefault{-8}$ -->
      <g transform="translate(27.16 262.239206) scale(0.14 -0.14)">
       <defs>
        <path id="OpenSans-2212" d="M 325 2041 
L 325 2472 
L 3328 2472 
L 3328 2041 
L 325 2041 
z
" transform="scale(0.015625)"/>
        <path id="OpenSans-38" d="M 1825 4634 
Q 2450 4634 2815 4343 
Q 3181 4053 3181 3541 
Q 3181 3203 2972 2925 
Q 2763 2647 2303 2419 
Q 2859 2153 3093 1861 
Q 3328 1569 3328 1184 
Q 3328 616 2931 276 
Q 2534 -63 1844 -63 
Q 1113 -63 719 257 
Q 325 578 325 1166 
Q 325 1950 1281 2388 
Q 850 2631 662 2914 
Q 475 3197 475 3547 
Q 475 4044 842 4339 
Q 1209 4634 1825 4634 
z
M 838 1153 
Q 838 778 1098 568 
Q 1359 359 1831 359 
Q 2297 359 2556 578 
Q 2816 797 2816 1178 
Q 2816 1481 2572 1717 
Q 2328 1953 1722 2175 
Q 1256 1975 1047 1733 
Q 838 1491 838 1153 
z
M 1819 4213 
Q 1428 4213 1206 4025 
Q 984 3838 984 3525 
Q 984 3238 1168 3031 
Q 1353 2825 1850 2619 
Q 2297 2806 2483 3022 
Q 2669 3238 2669 3525 
Q 2669 3841 2442 4027 
Q 2216 4213 1819 4213 
z
" transform="scale(0.015625)"/>
       </defs>
       <use xlink:href="#OpenSans-2212" transform="translate(0 0.59375)"/>
       <use xlink:href="#OpenSans-38" transform="translate(57.177734 0.59375)"/>
      </g>
     </g>
    </g>
    <g id="ytick_2">
     <g id="line2d_24">
      <g>
       <use xlink:href="#ma17e260500" x="49.26" y="204.734385" style="stroke: #000000; stroke-width: 0.8"/>
      </g>
     </g>
     <g id="text_6">
      <!-- $\mathdefault{-6}$ -->
      <g transform="translate(27.16 210.053291) scale(0.14 -0.14)">
       <defs>
        <path id="OpenSans-36" d="M 366 1953 
Q 366 3300 889 3967 
Q 1413 4634 2438 4634 
Q 2791 4634 2994 4575 
L 2994 4128 
Q 2753 4206 2444 4206 
Q 1709 4206 1321 3748 
Q 934 3291 897 2309 
L 934 2309 
Q 1278 2847 2022 2847 
Q 2638 2847 2992 2475 
Q 3347 2103 3347 1466 
Q 3347 753 2958 345 
Q 2569 -63 1906 -63 
Q 1197 -63 781 470 
Q 366 1003 366 1953 
z
M 1900 378 
Q 2344 378 2589 658 
Q 2834 938 2834 1466 
Q 2834 1919 2606 2178 
Q 2378 2438 1925 2438 
Q 1644 2438 1409 2322 
Q 1175 2206 1036 2003 
Q 897 1800 897 1581 
Q 897 1259 1022 981 
Q 1147 703 1376 540 
Q 1606 378 1900 378 
z
" transform="scale(0.015625)"/>
       </defs>
       <use xlink:href="#OpenSans-2212" transform="translate(0 0.59375)"/>
       <use xlink:href="#OpenSans-36" transform="translate(57.177734 0.59375)"/>
      </g>
     </g>
    </g>
    <g id="ytick_3">
     <g id="line2d_25">
      <g>
       <use xlink:href="#ma17e260500" x="49.26" y="152.54847" style="stroke: #000000; stroke-width: 0.8"/>
      </g>
     </g>
     <g id="text_7">
      <!-- $\mathdefault{-4}$ -->
      <g transform="translate(27.16 157.867376) scale(0.14 -0.14)">
       <defs>
        <path id="OpenSans-34" d="M 3531 1050 
L 2853 1050 
L 2853 0 
L 2356 0 
L 2356 1050 
L 134 1050 
L 134 1503 
L 2303 4594 
L 2853 4594 
L 2853 1522 
L 3531 1522 
L 3531 1050 
z
M 2356 1522 
L 2356 3041 
Q 2356 3488 2388 4050 
L 2363 4050 
Q 2213 3750 2081 3553 
L 653 1522 
L 2356 1522 
z
" transform="scale(0.015625)"/>
       </defs>
       <use xlink:href="#OpenSans-2212" transform="translate(0 0.21875)"/>
       <use xlink:href="#OpenSans-34" transform="translate(57.177734 0.21875)"/>
      </g>
     </g>
    </g>
    <g id="ytick_4">
     <g id="line2d_26">
      <g>
       <use xlink:href="#ma17e260500" x="49.26" y="100.362555" style="stroke: #000000; stroke-width: 0.8"/>
      </g>
     </g>
     <g id="text_8">
      <!-- $\mathdefault{-2}$ -->
      <g transform="translate(27.16 105.681461) scale(0.14 -0.14)">
       <use xlink:href="#OpenSans-2212" transform="translate(0 0.59375)"/>
       <use xlink:href="#OpenSans-32" transform="translate(57.177734 0.59375)"/>
      </g>
     </g>
    </g>
    <g id="ytick_5">
     <g id="line2d_27">
      <g>
       <use xlink:href="#ma17e260500" x="49.26" y="48.176639" style="stroke: #000000; stroke-width: 0.8"/>
      </g>
     </g>
     <g id="text_9">
      <!-- $\mathdefault{0}$ -->
      <g transform="translate(35.14 53.495546) scale(0.14 -0.14)">
       <use xlink:href="#OpenSans-30" transform="translate(0 0.484375)"/>
      </g>
     </g>
    </g>
    <g id="text_10">
     <!-- $\tilde{B}_2$ -->
     <g transform="translate(19.795625 147.886) rotate(-90) scale(0.14 -0.14)">
      <defs>
       <path id="OpenSans-42" d="M 628 4569 
L 1919 4569 
Q 2828 4569 3234 4297 
Q 3641 4025 3641 3438 
Q 3641 3031 3414 2767 
Q 3188 2503 2753 2425 
L 2753 2394 
Q 3794 2216 3794 1300 
Q 3794 688 3380 344 
Q 2966 0 2222 0 
L 628 0 
L 628 4569 
z
M 1159 2613 
L 2034 2613 
Q 2597 2613 2844 2789 
Q 3091 2966 3091 3384 
Q 3091 3769 2816 3939 
Q 2541 4109 1941 4109 
L 1159 4109 
L 1159 2613 
z
M 1159 2163 
L 1159 453 
L 2113 453 
Q 2666 453 2945 667 
Q 3225 881 3225 1338 
Q 3225 1763 2939 1963 
Q 2653 2163 2069 2163 
L 1159 2163 
z
" transform="scale(0.015625)"/>
      </defs>
      <use xlink:href="#OpenSans-303" transform="translate(70.933105 23.703125)"/>
      <use xlink:href="#OpenSans-42" transform="translate(0 0.40625)"/>
      <use xlink:href="#OpenSans-32" transform="translate(65.731445 -15.648438) scale(0.7)"/>
     </g>
    </g>
   </g>
   <g id="line2d_28">
    <path d="M 65.492727 252.248181 
L 78.478909 194.321425 
L 84.972 171.59762 
L 91.465091 152.062309 
L 97.958182 135.180746 
L 104.451273 120.527195 
L 110.944364 107.758987 
L 117.437455 96.597517 
L 123.930545 86.814147 
L 130.423636 78.219618 
L 136.916727 70.656008 
L 143.409818 63.990578 
L 149.902909 58.110987 
L 156.396 52.921562 
L 162.889091 48.340348 
L 169.382182 44.296768 
L 175.875273 40.729735 
L 182.368364 37.586145 
L 188.861455 34.81963 
L 195.354545 32.389549 
L 201.847636 30.260154 
L 208.340727 28.399898 
L 214.833818 26.780854 
L 221.326909 25.37823 
L 227.82 24.169964 
L 234.313091 23.136374 
L 240.806182 22.259862 
L 247.299273 21.524664 
L 253.792364 20.916633 
L 260.285455 20.423048 
L 266.778545 20.032459 
L 273.271636 19.73454 
L 279.764727 19.519967 
L 286.257818 19.380316 
L 292.750909 19.307961 
L 299.244 19.296 
L 305.737091 19.338173 
L 312.230182 19.428803 
L 318.723273 19.562737 
L 325.216364 19.735296 
L 331.709455 19.942228 
L 338.202545 20.179666 
L 344.695636 20.444096 
L 351.188727 20.732323 
L 357.681818 21.041439 
L 364.174909 21.3688 
L 370.668 21.711999 
L 377.161091 22.068849 
L 383.654182 22.437361 
L 390.147273 22.815724 
" clip-path="url(#p25208a8f6d)" style="fill: none; stroke: #333333; stroke-width: 1.5; stroke-linecap: square"/>
   </g>
   <g id="line2d_29">
    <defs>
     <path id="mc1fd4d982c" d="M 0 3 
C 0.795609 3 1.55874 2.683901 2.12132 2.12132 
C 2.683901 1.55874 3 0.795609 3 0 
C 3 -0.795609 2.683901 -1.55874 2.12132 -2.12132 
C 1.55874 -2.683901 0.795609 -3 0 -3 
C -0.795609 -3 -1.55874 -2.683901 -2.12132 -2.12132 
C -2.683901 -1.55874 -3 -0.795609 -3 0 
C -3 0.795609 -2.683901 1.55874 -2.12132 2.12132 
C -1.55874 2.683901 -0.795609 3 0 3 
z
" style="stroke: #333333"/>
    </defs>
    <g clip-path="url(#p25208a8f6d)">
     <use xlink:href="#mc1fd4d982c" x="82.089159" y="182.578884" style="fill: #333333; stroke: #333333"/>
     <use xlink:href="#mc1fd4d982c" x="128.696193" y="77.662671" style="fill: #333333; stroke: #333333"/>
     <use xlink:href="#mc1fd4d982c" x="155.95956" y="51.602844" style="fill: #333333; stroke: #333333"/>
     <use xlink:href="#mc1fd4d982c" x="190.30734" y="33.810749" style="fill: #333333; stroke: #333333"/>
     <use xlink:href="#mc1fd4d982c" x="212.931645" y="27.476759" style="fill: #333333; stroke: #333333"/>
     <use xlink:href="#mc1fd4d982c" x="229.829961" y="24.528621" style="fill: #333333; stroke: #333333"/>
     <use xlink:href="#mc1fd4d982c" x="249.173628" y="22.341242" style="fill: #333333; stroke: #333333"/>
     <use xlink:href="#mc1fd4d982c" x="264.177742" y="21.48151" style="fill: #333333; stroke: #333333"/>
    </g>
   </g>
   <g id="line2d_30">
    <defs>
     <path id="m1062d84fc5" d="M 0 3 
C 0.795609 3 1.55874 2.683901 2.12132 2.12132 
C 2.683901 1.55874 3 0.795609 3 0 
C 3 -0.795609 2.683901 -1.55874 2.12132 -2.12132 
C 1.55874 -2.683901 0.795609 -3 0 -3 
C -0.795609 -3 -1.55874 -2.683901 -2.12132 -2.12132 
C -2.683901 -1.55874 -3 -0.795609 -3 0 
C -3 0.795609 -2.683901 1.55874 -2.12132 2.12132 
C -1.55874 2.683901 -0.795609 3 0 3 
z
" style="stroke: #1f77b4"/>
    </defs>
    <g clip-path="url(#p25208a8f6d)">
     <use xlink:href="#m1062d84fc5" x="67.455843" y="244.040533" style="fill: #1f77b4; stroke: #1f77b4"/>
     <use xlink:href="#m1062d84fc5" x="114.062877" y="98.094218" style="fill: #1f77b4; stroke: #1f77b4"/>
     <use xlink:href="#m1062d84fc5" x="141.326244" y="63.641978" style="fill: #1f77b4; stroke: #1f77b4"/>
     <use xlink:href="#m1062d84fc5" x="175.674024" y="40.268829" style="fill: #1f77b4; stroke: #1f77b4"/>
     <use xlink:href="#m1062d84fc5" x="198.298329" y="31.833163" style="fill: #1f77b4; stroke: #1f77b4"/>
     <use xlink:href="#m1062d84fc5" x="215.196645" y="27.723078" style="fill: #1f77b4; stroke: #1f77b4"/>
     <use xlink:href="#m1062d84fc5" x="234.540312" y="24.31447" style="fill: #1f77b4; stroke: #1f77b4"/>
     <use xlink:href="#m1062d84fc5" x="249.544426" y="22.553538" style="fill: #1f77b4; stroke: #1f77b4"/>
    </g>
   </g>
   <g id="line2d_31">
    <defs>
     <path id="m13e9a20c97" d="M 0 3 
C 0.795609 3 1.55874 2.683901 2.12132 2.12132 
C 2.683901 1.55874 3 0.795609 3 0 
C 3 -0.795609 2.683901 -1.55874 2.12132 -2.12132 
C 1.55874 -2.683901 0.795609 -3 0 -3 
C -0.795609 -3 -1.55874 -2.683901 -2.12132 -2.12132 
C -2.683901 -1.55874 -3 -0.795609 -3 0 
C -3 0.795609 -2.683901 1.55874 -2.12132 2.12132 
C -1.55874 2.683901 -0.795609 3 0 3 
z
" style="stroke: #d62728"/>
    </defs>
    <g clip-path="url(#p25208a8f6d)">
     <use xlink:href="#m13e9a20c97" x="68.09765" y="243.643972" style="fill: #d62728; stroke: #d62728"/>
     <use xlink:href="#m13e9a20c97" x="83.101764" y="175.567756" style="fill: #d62728; stroke: #d62728"/>
     <use xlink:href="#m13e9a20c97" x="91.517701" y="149.234759" style="fill: #d62728; stroke: #d62728"/>
     <use xlink:href="#m13e9a20c97" x="102.445431" y="122.234595" style="fill: #d62728; stroke: #d62728"/>
     <use xlink:href="#m13e9a20c97" x="129.708798" y="77.690128" style="fill: #d62728; stroke: #d62728"/>
     <use xlink:href="#m13e9a20c97" x="149.052465" y="58.984439" style="fill: #d62728; stroke: #d62728"/>
     <use xlink:href="#m13e9a20c97" x="164.056579" y="48.596905" style="fill: #d62728; stroke: #d62728"/>
     <use xlink:href="#m13e9a20c97" x="176.315832" y="42.188589" style="fill: #d62728; stroke: #d62728"/>
    </g>
   </g>
   <g id="line2d_32">
    <defs>
     <path id="m7522d1cfaf" d="M 0 3 
C 0.795609 3 1.55874 2.683901 2.12132 2.12132 
C 2.683901 1.55874 3 0.795609 3 0 
C 3 -0.795609 2.683901 -1.55874 2.12132 -2.12132 
C 1.55874 -2.683901 0.795609 -3 0 -3 
C -0.795609 -3 -1.55874 -2.683901 -2.12132 -2.12132 
C -2.683901 -1.55874 -3 -0.795609 -3 0 
C -3 0.795609 -2.683901 1.55874 -2.12132 2.12132 
C -1.55874 2.683901 -0.795609 3 0 3 
z
" style="stroke: #ff7f0e"/>
    </defs>
    <g clip-path="url(#p25208a8f6d)">
     <use xlink:href="#m7522d1cfaf" x="105.373878" y="118.17143" style="fill: #ff7f0e; stroke: #ff7f0e"/>
     <use xlink:href="#m7522d1cfaf" x="122.444714" y="88.526191" style="fill: #ff7f0e; stroke: #ff7f0e"/>
     <use xlink:href="#m7522d1cfaf" x="136.047314" y="72.414886" style="fill: #ff7f0e; stroke: #ff7f0e"/>
     <use xlink:href="#m7522d1cfaf" x="141.938974" y="65.790496" style="fill: #ff7f0e; stroke: #ff7f0e"/>
     <use xlink:href="#m7522d1cfaf" x="147.355729" y="60.427373" style="fill: #ff7f0e; stroke: #ff7f0e"/>
     <use xlink:href="#m7522d1cfaf" x="152.368462" y="56.259711" style="fill: #ff7f0e; stroke: #ff7f0e"/>
     <use xlink:href="#m7522d1cfaf" x="157.033282" y="52.717198" style="fill: #ff7f0e; stroke: #ff7f0e"/>
     <use xlink:href="#m7522d1cfaf" x="161.395364" y="49.229523" style="fill: #ff7f0e; stroke: #ff7f0e"/>
     <use xlink:href="#m7522d1cfaf" x="165.491621" y="46.57538" style="fill: #ff7f0e; stroke: #ff7f0e"/>
     <use xlink:href="#m7522d1cfaf" x="173.00386" y="42.703841" style="fill: #ff7f0e; stroke: #ff7f0e"/>
     <use xlink:href="#m7522d1cfaf" x="185.899791" y="36.364607" style="fill: #ff7f0e; stroke: #ff7f0e"/>
     <use xlink:href="#m7522d1cfaf" x="196.715949" y="30.935679" style="fill: #ff7f0e; stroke: #ff7f0e"/>
     <use xlink:href="#m7522d1cfaf" x="206.03092" y="28.698302" style="fill: #ff7f0e; stroke: #ff7f0e"/>
     <use xlink:href="#m7522d1cfaf" x="214.211072" y="26.811887" style="fill: #ff7f0e; stroke: #ff7f0e"/>
    </g>
   </g>
   <g id="line2d_33">
    <defs>
     <path id="md11c5b840f" d="M 0 3 
C 0.795609 3 1.55874 2.683901 2.12132 2.12132 
C 2.683901 1.55874 3 0.795609 3 0 
C 3 -0.795609 2.683901 -1.55874 2.12132 -2.12132 
C 1.55874 -2.683901 0.795609 -3 0 -3 
C -0.795609 -3 -1.55874 -2.683901 -2.12132 -2.12132 
C -2.683901 -1.55874 -3 -0.795609 -3 0 
C -3 0.795609 -2.683901 1.55874 -2.12132 2.12132 
C -1.55874 2.683901 -0.795609 3 0 3 
z
" style="stroke: #e8cf36"/>
    </defs>
    <g clip-path="url(#p25208a8f6d)">
     <use xlink:href="#md11c5b840f" x="86.715781" y="261.216" style="fill: #e8cf36; stroke: #e8cf36"/>
     <use xlink:href="#md11c5b840f" x="100.208826" y="172.203625" style="fill: #e8cf36; stroke: #e8cf36"/>
     <use xlink:href="#md11c5b840f" x="111.441499" y="132.47245" style="fill: #e8cf36; stroke: #e8cf36"/>
     <use xlink:href="#md11c5b840f" x="121.063562" y="114.495156" style="fill: #e8cf36; stroke: #e8cf36"/>
     <use xlink:href="#md11c5b840f" x="129.479499" y="98.621134" style="fill: #e8cf36; stroke: #e8cf36"/>
     <use xlink:href="#md11c5b840f" x="136.958281" y="85.98915" style="fill: #e8cf36; stroke: #e8cf36"/>
     <use xlink:href="#md11c5b840f" x="143.687866" y="75.920987" style="fill: #e8cf36; stroke: #e8cf36"/>
     <use xlink:href="#md11c5b840f" x="149.804785" y="67.74266" style="fill: #e8cf36; stroke: #e8cf36"/>
     <use xlink:href="#md11c5b840f" x="155.411342" y="60.969048" style="fill: #e8cf36; stroke: #e8cf36"/>
     <use xlink:href="#md11c5b840f" x="160.586182" y="55.376136" style="fill: #e8cf36; stroke: #e8cf36"/>
    </g>
   </g>
   <g id="line2d_34">
    <path d="M 49.26 48.176639 
L 406.38 48.176639 
" clip-path="url(#p25208a8f6d)" style="fill: none; stroke-dasharray: 5.55,2.4; stroke-dashoffset: 0; stroke: #333333; stroke-width: 1.5"/>
   </g>
   <g id="patch_3">
    <path d="M 49.26 273.312 
L 49.26 7.2 
" style="fill: none; stroke: #000000; stroke-width: 0.8; stroke-linejoin: miter; stroke-linecap: square"/>
   </g>
   <g id="patch_4">
    <path d="M 49.26 273.312 
L 406.38 273.312 
" style="fill: none; stroke: #000000; stroke-width: 0.8; stroke-linejoin: miter; stroke-linecap: square"/>
   </g>
   <g id="legend_1">
    <g id="line2d_35">
     <path d="M 260.646563 147.436687 
L 274.646563 147.436687 
L 288.646563 147.436687 
" style="fill: none; stroke: #333333; stroke-width: 1.5; stroke-linecap: square"/>
    </g>
    <g id="text_11">
     <!-- Lennard-Jones -->
     <g transform="translate(299.846563 152.336687) scale(0.14 -0.14)">
      <defs>
       <path id="OpenSans-4c" d="M 628 0 
L 628 4569 
L 1159 4569 
L 1159 481 
L 3175 481 
L 3175 0 
L 628 0 
z
" transform="scale(0.015625)"/>
       <path id="OpenSans-65" d="M 1997 -63 
Q 1238 -63 798 400 
Q 359 863 359 1684 
Q 359 2513 767 3000 
Q 1175 3488 1863 3488 
Q 2506 3488 2881 3064 
Q 3256 2641 3256 1947 
L 3256 1619 
L 897 1619 
Q 913 1016 1202 703 
Q 1491 391 2016 391 
Q 2569 391 3109 622 
L 3109 159 
Q 2834 41 2589 -11 
Q 2344 -63 1997 -63 
z
M 1856 3053 
Q 1444 3053 1198 2784 
Q 953 2516 909 2041 
L 2700 2041 
Q 2700 2531 2481 2792 
Q 2263 3053 1856 3053 
z
" transform="scale(0.015625)"/>
       <path id="OpenSans-6e" d="M 2894 0 
L 2894 2216 
Q 2894 2634 2703 2840 
Q 2513 3047 2106 3047 
Q 1569 3047 1319 2756 
Q 1069 2466 1069 1797 
L 1069 0 
L 550 0 
L 550 3425 
L 972 3425 
L 1056 2956 
L 1081 2956 
Q 1241 3209 1528 3348 
Q 1816 3488 2169 3488 
Q 2788 3488 3100 3189 
Q 3413 2891 3413 2234 
L 3413 0 
L 2894 0 
z
" transform="scale(0.015625)"/>
       <path id="OpenSans-61" d="M 2656 0 
L 2553 488 
L 2528 488 
Q 2272 166 2017 51 
Q 1763 -63 1381 -63 
Q 872 -63 583 200 
Q 294 463 294 947 
Q 294 1984 1953 2034 
L 2534 2053 
L 2534 2266 
Q 2534 2669 2361 2861 
Q 2188 3053 1806 3053 
Q 1378 3053 838 2791 
L 678 3188 
Q 931 3325 1232 3403 
Q 1534 3481 1838 3481 
Q 2450 3481 2745 3209 
Q 3041 2938 3041 2338 
L 3041 0 
L 2656 0 
z
M 1484 366 
Q 1969 366 2245 631 
Q 2522 897 2522 1375 
L 2522 1684 
L 2003 1663 
Q 1384 1641 1111 1470 
Q 838 1300 838 941 
Q 838 659 1008 512 
Q 1178 366 1484 366 
z
" transform="scale(0.015625)"/>
       <path id="OpenSans-72" d="M 2113 3488 
Q 2341 3488 2522 3450 
L 2450 2969 
Q 2238 3016 2075 3016 
Q 1659 3016 1364 2678 
Q 1069 2341 1069 1838 
L 1069 0 
L 550 0 
L 550 3425 
L 978 3425 
L 1038 2791 
L 1063 2791 
Q 1253 3125 1522 3306 
Q 1791 3488 2113 3488 
z
" transform="scale(0.015625)"/>
       <path id="OpenSans-64" d="M 2881 459 
L 2853 459 
Q 2494 -63 1778 -63 
Q 1106 -63 732 396 
Q 359 856 359 1703 
Q 359 2550 734 3019 
Q 1109 3488 1778 3488 
Q 2475 3488 2847 2981 
L 2888 2981 
L 2866 3228 
L 2853 3469 
L 2853 4863 
L 3372 4863 
L 3372 0 
L 2950 0 
L 2881 459 
z
M 1844 372 
Q 2375 372 2614 661 
Q 2853 950 2853 1594 
L 2853 1703 
Q 2853 2431 2611 2742 
Q 2369 3053 1838 3053 
Q 1381 3053 1139 2698 
Q 897 2344 897 1697 
Q 897 1041 1137 706 
Q 1378 372 1844 372 
z
" transform="scale(0.015625)"/>
       <path id="OpenSans-2d" d="M 263 1478 
L 263 1953 
L 1797 1953 
L 1797 1478 
L 263 1478 
z
" transform="scale(0.015625)"/>
       <path id="OpenSans-4a" d="M -38 -1203 
Q -331 -1203 -500 -1119 
L -500 -666 
Q -278 -728 -38 -728 
Q 272 -728 433 -540 
Q 594 -353 594 0 
L 594 4569 
L 1125 4569 
L 1125 44 
Q 1125 -550 825 -876 
Q 525 -1203 -38 -1203 
z
" transform="scale(0.015625)"/>
       <path id="OpenSans-6f" d="M 3506 1716 
Q 3506 878 3084 407 
Q 2663 -63 1919 -63 
Q 1459 -63 1103 153 
Q 747 369 553 772 
Q 359 1175 359 1716 
Q 359 2553 778 3020 
Q 1197 3488 1941 3488 
Q 2659 3488 3082 3009 
Q 3506 2531 3506 1716 
z
M 897 1716 
Q 897 1059 1159 715 
Q 1422 372 1931 372 
Q 2441 372 2705 714 
Q 2969 1056 2969 1716 
Q 2969 2369 2705 2708 
Q 2441 3047 1925 3047 
Q 1416 3047 1156 2712 
Q 897 2378 897 1716 
z
" transform="scale(0.015625)"/>
       <path id="OpenSans-73" d="M 2759 934 
Q 2759 456 2403 196 
Q 2047 -63 1403 -63 
Q 722 -63 341 153 
L 341 634 
Q 588 509 870 437 
Q 1153 366 1416 366 
Q 1822 366 2040 495 
Q 2259 625 2259 891 
Q 2259 1091 2086 1233 
Q 1913 1375 1409 1569 
Q 931 1747 729 1880 
Q 528 2013 429 2181 
Q 331 2350 331 2584 
Q 331 3003 672 3245 
Q 1013 3488 1606 3488 
Q 2159 3488 2688 3263 
L 2503 2841 
Q 1988 3053 1569 3053 
Q 1200 3053 1012 2937 
Q 825 2822 825 2619 
Q 825 2481 895 2384 
Q 966 2288 1122 2200 
Q 1278 2113 1722 1947 
Q 2331 1725 2545 1500 
Q 2759 1275 2759 934 
z
" transform="scale(0.015625)"/>
      </defs>
      <use xlink:href="#OpenSans-4c"/>
      <use xlink:href="#OpenSans-65" x="51.904297"/>
      <use xlink:href="#OpenSans-6e" x="108.007812"/>
      <use xlink:href="#OpenSans-6e" x="169.384766"/>
      <use xlink:href="#OpenSans-61" x="230.761719"/>
      <use xlink:href="#OpenSans-72" x="286.376953"/>
      <use xlink:href="#OpenSans-64" x="325.197266"/>
      <use xlink:href="#OpenSans-2d" x="386.476562"/>
      <use xlink:href="#OpenSans-4a" x="418.654297"/>
      <use xlink:href="#OpenSans-6f" x="445.363281"/>
      <use xlink:href="#OpenSans-6e" x="505.763672"/>
      <use xlink:href="#OpenSans-65" x="567.140625"/>
      <use xlink:href="#OpenSans-73" x="623.244141"/>
     </g>
    </g>
    <g id="line2d_36">
     <g>
      <use xlink:href="#mc1fd4d982c" x="274.646563" y="168.438875" style="fill: #333333; stroke: #333333"/>
     </g>
    </g>
    <g id="text_12">
     <!-- $N_2$ -->
     <g transform="translate(299.846563 173.338875) scale(0.14 -0.14)">
      <defs>
       <path id="OpenSans-4e" d="M 4197 0 
L 3591 0 
L 1094 3834 
L 1069 3834 
Q 1119 3159 1119 2597 
L 1119 0 
L 628 0 
L 628 4569 
L 1228 4569 
L 3719 750 
L 3744 750 
Q 3738 834 3716 1292 
Q 3694 1750 3700 1947 
L 3700 4569 
L 4197 4569 
L 4197 0 
z
" transform="scale(0.015625)"/>
      </defs>
      <use xlink:href="#OpenSans-4e" transform="translate(0 0.609375)"/>
      <use xlink:href="#OpenSans-32" transform="translate(76.327148 -15.445312) scale(0.7)"/>
     </g>
    </g>
    <g id="line2d_37">
     <g>
      <use xlink:href="#m1062d84fc5" x="274.646563" y="189.441062" style="fill: #1f77b4; stroke: #1f77b4"/>
     </g>
    </g>
    <g id="text_13">
     <!-- $O_2$ -->
     <g transform="translate(299.846563 194.341062) scale(0.14 -0.14)">
      <defs>
       <path id="OpenSans-4f" d="M 4594 2291 
Q 4594 1194 4039 565 
Q 3484 -63 2497 -63 
Q 1488 -63 939 554 
Q 391 1172 391 2297 
Q 391 3413 941 4027 
Q 1491 4641 2503 4641 
Q 3488 4641 4041 4016 
Q 4594 3391 4594 2291 
z
M 953 2291 
Q 953 1363 1348 883 
Q 1744 403 2497 403 
Q 3256 403 3643 881 
Q 4031 1359 4031 2291 
Q 4031 3213 3645 3689 
Q 3259 4166 2503 4166 
Q 1744 4166 1348 3686 
Q 953 3206 953 2291 
z
" transform="scale(0.015625)"/>
      </defs>
      <use xlink:href="#OpenSans-4f" transform="translate(0 0.484375)"/>
      <use xlink:href="#OpenSans-32" transform="translate(78.817383 -15.570312) scale(0.7)"/>
     </g>
    </g>
    <g id="line2d_38">
     <g>
      <use xlink:href="#m13e9a20c97" x="274.646563" y="210.44325" style="fill: #d62728; stroke: #d62728"/>
     </g>
    </g>
    <g id="text_14">
     <!-- $CH_4$ -->
     <g transform="translate(299.846563 215.34325) scale(0.14 -0.14)">
      <defs>
       <path id="OpenSans-43" d="M 2584 4159 
Q 1831 4159 1395 3657 
Q 959 3156 959 2284 
Q 959 1388 1379 898 
Q 1800 409 2578 409 
Q 3056 409 3669 581 
L 3669 116 
Q 3194 -63 2497 -63 
Q 1488 -63 939 550 
Q 391 1163 391 2291 
Q 391 2997 655 3528 
Q 919 4059 1417 4346 
Q 1916 4634 2591 4634 
Q 3309 4634 3847 4372 
L 3622 3916 
Q 3103 4159 2584 4159 
z
" transform="scale(0.015625)"/>
       <path id="OpenSans-48" d="M 4097 0 
L 3566 0 
L 3566 2150 
L 1159 2150 
L 1159 0 
L 628 0 
L 628 4569 
L 1159 4569 
L 1159 2625 
L 3566 2625 
L 3566 4569 
L 4097 4569 
L 4097 0 
z
" transform="scale(0.015625)"/>
      </defs>
      <use xlink:href="#OpenSans-43" transform="translate(0 0.59375)"/>
      <use xlink:href="#OpenSans-48" transform="translate(63.085938 0.59375)"/>
      <use xlink:href="#OpenSans-34" transform="translate(137.801758 -15.460938) scale(0.7)"/>
     </g>
    </g>
    <g id="line2d_39">
     <g>
      <use xlink:href="#m7522d1cfaf" x="274.646563" y="231.445437" style="fill: #ff7f0e; stroke: #ff7f0e"/>
     </g>
    </g>
    <g id="text_15">
     <!-- $Ar$ -->
     <g transform="translate(299.846563 236.345437) scale(0.14 -0.14)">
      <defs>
       <path id="OpenSans-41" d="M 3500 0 
L 2931 1453 
L 1100 1453 
L 538 0 
L 0 0 
L 1806 4588 
L 2253 4588 
L 4050 0 
L 3500 0 
z
M 2766 1931 
L 2234 3347 
Q 2131 3616 2022 4006 
Q 1953 3706 1825 3347 
L 1288 1931 
L 2766 1931 
z
" transform="scale(0.015625)"/>
      </defs>
      <use xlink:href="#OpenSans-41" transform="translate(0 0.3125)"/>
      <use xlink:href="#OpenSans-72" transform="translate(63.28125 0.3125)"/>
     </g>
    </g>
    <g id="line2d_40">
     <g>
      <use xlink:href="#md11c5b840f" x="274.646563" y="252.447625" style="fill: #e8cf36; stroke: #e8cf36"/>
     </g>
    </g>
    <g id="text_16">
     <!-- $Xe$ -->
     <g transform="translate(299.846563 257.347625) scale(0.14 -0.14)">
      <defs>
       <path id="OpenSans-58" d="M 3669 0 
L 3066 0 
L 1838 2009 
L 588 0 
L 25 0 
L 1544 2388 
L 128 4569 
L 716 4569 
L 1850 2759 
L 2994 4569 
L 3559 4569 
L 2144 2406 
L 3669 0 
z
" transform="scale(0.015625)"/>
      </defs>
      <use xlink:href="#OpenSans-58" transform="translate(0 0.609375)"/>
      <use xlink:href="#OpenSans-65" transform="translate(57.714844 0.609375)"/>
     </g>
    </g>
   </g>
  </g>
 </g>
 <defs>
  <clipPath id="p25208a8f6d">
   <rect x="49.26" y="7.2" width="357.12" height="266.112"/>
  </clipPath>
 </defs>
</svg>
