<?xml version="1.0" encoding="utf-8" standalone="no"?>
<!DOCTYPE svg PUBLIC "-//W3C//DTD SVG 1.1//EN"
  "http://www.w3.org/Graphics/SVG/1.1/DTD/svg11.dtd">
<svg xmlns:xlink="http://www.w3.org/1999/xlink" width="515.11pt" height="365.804375pt" viewBox="0 0 515.11 365.804375" xmlns="http://www.w3.org/2000/svg" version="1.1">
 <metadata>
  <rdf:RDF xmlns:dc="http://purl.org/dc/elements/1.1/" xmlns:cc="http://creativecommons.org/ns#" xmlns:rdf="http://www.w3.org/1999/02/22-rdf-syntax-ns#">
   <cc:Work>
    <dc:type rdf:resource="http://purl.org/dc/dcmitype/StillImage"/>
    <dc:date>2024-03-25T23:11:26.257725</dc:date>
    <dc:format>image/svg+xml</dc:format>
    <dc:creator>
     <cc:Agent>
      <dc:title>Matplotlib v3.8.3, https://matplotlib.org/</dc:title>
     </cc:Agent>
    </dc:creator>
   </cc:Work>
  </rdf:RDF>
 </metadata>
 <defs>
  <style type="text/css">*{stroke-linejoin: round; stroke-linecap: butt}</style>
 </defs>
 <g id="figure_1">
  <g id="patch_1">
   <path d="M 0 365.804375 
L 515.11 365.804375 
L 515.11 0 
L 0 0 
z
" style="fill: #ffffff"/>
  </g>
  <g id="axes_1">
   <g id="patch_2">
    <path d="M 47.58 169.4 
L 250.489091 169.4 
L 250.489091 43.4 
L 47.58 43.4 
z
" style="fill: #ffffff"/>
   </g>
   <g id="matplotlib.axis_1">
    <g id="xtick_1">
     <g id="line2d_1">
      <defs>
       <path id="m5e992d5838" d="M 0 0 
L 0 4 
" style="stroke: #000000; stroke-width: 0.8"/>
      </defs>
      <g>
       <use xlink:href="#m5e992d5838" x="47.58" y="169.4" style="stroke: #000000; stroke-width: 0.8"/>
      </g>
     </g>
     <g id="text_1">
      <!-- $\mathdefault{0.0}$ -->
      <g transform="translate(37.71 186.037813) scale(0.14 -0.14)">
       <defs>
        <path id="OpenSans-30" d="M 3341 2291 
Q 3341 1106 2967 521 
Q 2594 -63 1825 -63 
Q 1088 -63 703 535 
Q 319 1134 319 2291 
Q 319 3484 691 4062 
Q 1063 4641 1825 4641 
Q 2569 4641 2955 4037 
Q 3341 3434 3341 2291 
z
M 844 2291 
Q 844 1294 1078 839 
Q 1313 384 1825 384 
Q 2344 384 2576 845 
Q 2809 1306 2809 2291 
Q 2809 3275 2576 3733 
Q 2344 4191 1825 4191 
Q 1313 4191 1078 3739 
Q 844 3288 844 2291 
z
" transform="scale(0.015625)"/>
        <path id="OpenSans-2e" d="M 475 331 
Q 475 541 570 648 
Q 666 756 844 756 
Q 1025 756 1126 648 
Q 1228 541 1228 331 
Q 1228 128 1125 18 
Q 1022 -91 844 -91 
Q 684 -91 579 7 
Q 475 106 475 331 
z
" transform="scale(0.015625)"/>
       </defs>
       <use xlink:href="#OpenSans-30" transform="translate(0 0.484375)"/>
       <use xlink:href="#OpenSans-2e" transform="translate(57.177734 0.484375)"/>
       <use xlink:href="#OpenSans-30" transform="translate(83.789062 0.484375)"/>
      </g>
     </g>
    </g>
    <g id="xtick_2">
     <g id="line2d_2">
      <g>
       <use xlink:href="#m5e992d5838" x="115.216364" y="169.4" style="stroke: #000000; stroke-width: 0.8"/>
      </g>
     </g>
     <g id="text_2">
      <!-- $\mathdefault{0.2}$ -->
      <g transform="translate(105.486364 186.037813) scale(0.14 -0.14)">
       <defs>
        <path id="OpenSans-32" d="M 3316 0 
L 313 0 
L 313 447 
L 1516 1656 
Q 2066 2213 2241 2450 
Q 2416 2688 2503 2913 
Q 2591 3138 2591 3397 
Q 2591 3763 2369 3977 
Q 2147 4191 1753 4191 
Q 1469 4191 1214 4097 
Q 959 4003 647 3756 
L 372 4109 
Q 1003 4634 1747 4634 
Q 2391 4634 2756 4304 
Q 3122 3975 3122 3419 
Q 3122 2984 2878 2559 
Q 2634 2134 1966 1484 
L 966 506 
L 966 481 
L 3316 481 
L 3316 0 
z
" transform="scale(0.015625)"/>
       </defs>
       <use xlink:href="#OpenSans-30" transform="translate(0 0.484375)"/>
       <use xlink:href="#OpenSans-2e" transform="translate(57.177734 0.484375)"/>
       <use xlink:href="#OpenSans-32" transform="translate(81.789062 0.484375)"/>
      </g>
     </g>
    </g>
    <g id="xtick_3">
     <g id="line2d_3">
      <g>
       <use xlink:href="#m5e992d5838" x="182.852727" y="169.4" style="stroke: #000000; stroke-width: 0.8"/>
      </g>
     </g>
     <g id="text_3">
      <!-- $\mathdefault{0.4}$ -->
      <g transform="translate(173.122727 186.037813) scale(0.14 -0.14)">
       <defs>
        <path id="OpenSans-34" d="M 3531 1050 
L 2853 1050 
L 2853 0 
L 2356 0 
L 2356 1050 
L 134 1050 
L 134 1503 
L 2303 4594 
L 2853 4594 
L 2853 1522 
L 3531 1522 
L 3531 1050 
z
M 2356 1522 
L 2356 3041 
Q 2356 3488 2388 4050 
L 2363 4050 
Q 2213 3750 2081 3553 
L 653 1522 
L 2356 1522 
z
" transform="scale(0.015625)"/>
       </defs>
       <use xlink:href="#OpenSans-30" transform="translate(0 0.484375)"/>
       <use xlink:href="#OpenSans-2e" transform="translate(57.177734 0.484375)"/>
       <use xlink:href="#OpenSans-34" transform="translate(81.789062 0.484375)"/>
      </g>
     </g>
    </g>
    <g id="xtick_4">
     <g id="line2d_4">
      <g>
       <use xlink:href="#m5e992d5838" x="250.489091" y="169.4" style="stroke: #000000; stroke-width: 0.8"/>
      </g>
     </g>
     <g id="text_4">
      <!-- $\mathdefault{0.6}$ -->
      <g transform="translate(240.619091 186.037813) scale(0.14 -0.14)">
       <defs>
        <path id="OpenSans-36" d="M 366 1953 
Q 366 3300 889 3967 
Q 1413 4634 2438 4634 
Q 2791 4634 2994 4575 
L 2994 4128 
Q 2753 4206 2444 4206 
Q 1709 4206 1321 3748 
Q 934 3291 897 2309 
L 934 2309 
Q 1278 2847 2022 2847 
Q 2638 2847 2992 2475 
Q 3347 2103 3347 1466 
Q 3347 753 2958 345 
Q 2569 -63 1906 -63 
Q 1197 -63 781 470 
Q 366 1003 366 1953 
z
M 1900 378 
Q 2344 378 2589 658 
Q 2834 938 2834 1466 
Q 2834 1919 2606 2178 
Q 2378 2438 1925 2438 
Q 1644 2438 1409 2322 
Q 1175 2206 1036 2003 
Q 897 1800 897 1581 
Q 897 1259 1022 981 
Q 1147 703 1376 540 
Q 1606 378 1900 378 
z
" transform="scale(0.015625)"/>
       </defs>
       <use xlink:href="#OpenSans-30" transform="translate(0 0.484375)"/>
       <use xlink:href="#OpenSans-2e" transform="translate(57.177734 0.484375)"/>
       <use xlink:href="#OpenSans-36" transform="translate(83.789062 0.484375)"/>
      </g>
     </g>
    </g>
   </g>
   <g id="matplotlib.axis_2">
    <g id="ytick_1">
     <g id="line2d_5">
      <defs>
       <path id="mf1c8c133fc" d="M 0 0 
L -4 0 
" style="stroke: #000000; stroke-width: 0.8"/>
      </defs>
      <g>
       <use xlink:href="#mf1c8c133fc" x="47.58" y="169.4" style="stroke: #000000; stroke-width: 0.8"/>
      </g>
     </g>
     <g id="text_5">
      <!-- $\mathdefault{0}$ -->
      <g transform="translate(33.46 174.718906) scale(0.14 -0.14)">
       <use xlink:href="#OpenSans-30" transform="translate(0 0.484375)"/>
      </g>
     </g>
    </g>
    <g id="ytick_2">
     <g id="line2d_6">
      <g>
       <use xlink:href="#mf1c8c133fc" x="47.58" y="127.4" style="stroke: #000000; stroke-width: 0.8"/>
      </g>
     </g>
     <g id="text_6">
      <!-- $\mathdefault{5}$ -->
      <g transform="translate(33.46 132.718906) scale(0.14 -0.14)">
       <defs>
        <path id="OpenSans-35" d="M 1741 2791 
Q 2463 2791 2877 2433 
Q 3291 2075 3291 1453 
Q 3291 744 2839 340 
Q 2388 -63 1594 -63 
Q 822 -63 416 184 
L 416 684 
Q 634 544 959 464 
Q 1284 384 1600 384 
Q 2150 384 2454 643 
Q 2759 903 2759 1394 
Q 2759 2350 1588 2350 
Q 1291 2350 794 2259 
L 525 2431 
L 697 4569 
L 2969 4569 
L 2969 4091 
L 1141 4091 
L 1025 2719 
Q 1384 2791 1741 2791 
z
" transform="scale(0.015625)"/>
       </defs>
       <use xlink:href="#OpenSans-35" transform="translate(0 0.609375)"/>
      </g>
     </g>
    </g>
    <g id="ytick_3">
     <g id="line2d_7">
      <g>
       <use xlink:href="#mf1c8c133fc" x="47.58" y="85.4" style="stroke: #000000; stroke-width: 0.8"/>
      </g>
     </g>
     <g id="text_7">
      <!-- $\mathdefault{10}$ -->
      <g transform="translate(25.48 90.718906) scale(0.14 -0.14)">
       <defs>
        <path id="OpenSans-31" d="M 2234 0 
L 1728 0 
L 1728 3256 
Q 1728 3663 1753 4025 
Q 1688 3959 1606 3887 
Q 1525 3816 863 3278 
L 588 3634 
L 1797 4569 
L 2234 4569 
L 2234 0 
z
" transform="scale(0.015625)"/>
       </defs>
       <use xlink:href="#OpenSans-31" transform="translate(0 0.484375)"/>
       <use xlink:href="#OpenSans-30" transform="translate(57.177734 0.484375)"/>
      </g>
     </g>
    </g>
    <g id="ytick_4">
     <g id="line2d_8">
      <g>
       <use xlink:href="#mf1c8c133fc" x="47.58" y="43.4" style="stroke: #000000; stroke-width: 0.8"/>
      </g>
     </g>
     <g id="text_8">
      <!-- $\mathdefault{15}$ -->
      <g transform="translate(25.48 48.718906) scale(0.14 -0.14)">
       <use xlink:href="#OpenSans-31" transform="translate(0 0.609375)"/>
       <use xlink:href="#OpenSans-35" transform="translate(57.177734 0.609375)"/>
      </g>
     </g>
    </g>
    <g id="text_9">
     <!-- $\beta$P/$\rho$ -->
     <g transform="translate(17.98 121.87) rotate(-90) scale(0.14 -0.14)">
      <defs>
       <path id="OpenSans-3b2" d="M 2059 4897 
Q 2747 4897 3136 4572 
Q 3525 4247 3525 3675 
Q 3525 2756 2547 2597 
L 2547 2572 
Q 3725 2441 3725 1294 
Q 3725 641 3312 289 
Q 2900 -63 2156 -63 
Q 1816 -63 1566 -14 
Q 1316 34 1069 153 
L 1069 -1538 
L 550 -1538 
L 550 3425 
Q 550 4128 945 4512 
Q 1341 4897 2059 4897 
z
M 2053 4459 
Q 1559 4459 1314 4190 
Q 1069 3922 1069 3406 
L 1069 634 
Q 1359 481 1611 423 
Q 1863 366 2131 366 
Q 2666 366 2936 600 
Q 3206 834 3206 1325 
Q 3206 1816 2909 2072 
Q 2613 2328 2059 2328 
L 1709 2328 
L 1709 2772 
L 1997 2772 
Q 2481 2772 2734 3001 
Q 2988 3231 2988 3659 
Q 2988 4044 2744 4251 
Q 2500 4459 2053 4459 
z
" transform="scale(0.015625)"/>
       <path id="OpenSans-50" d="M 3525 3238 
Q 3525 2544 3051 2170 
Q 2578 1797 1697 1797 
L 1159 1797 
L 1159 0 
L 628 0 
L 628 4569 
L 1813 4569 
Q 3525 4569 3525 3238 
z
M 1159 2253 
L 1638 2253 
Q 2344 2253 2659 2481 
Q 2975 2709 2975 3213 
Q 2975 3666 2678 3887 
Q 2381 4109 1753 4109 
L 1159 4109 
L 1159 2253 
z
" transform="scale(0.015625)"/>
       <path id="OpenSans-2f" d="M 2284 4569 
L 581 0 
L 63 0 
L 1766 4569 
L 2284 4569 
z
" transform="scale(0.015625)"/>
       <path id="OpenSans-3c1" d="M 3506 1716 
Q 3506 869 3106 403 
Q 2706 -63 1978 -63 
Q 1419 -63 1044 231 
L 1019 231 
Q 1044 41 1044 -622 
L 1044 -1538 
L 519 -1538 
L 519 1759 
Q 519 2591 911 3039 
Q 1303 3488 2034 3488 
Q 2719 3488 3112 3014 
Q 3506 2541 3506 1716 
z
M 2009 3047 
Q 1516 3047 1280 2723 
Q 1044 2400 1044 1747 
L 1044 691 
Q 1425 372 1997 372 
Q 2494 372 2731 697 
Q 2969 1022 2969 1716 
Q 2969 2384 2744 2715 
Q 2519 3047 2009 3047 
z
" transform="scale(0.015625)"/>
      </defs>
      <use xlink:href="#OpenSans-3b2" transform="translate(0 0.484375)"/>
      <use xlink:href="#OpenSans-50" transform="translate(62.792969 0.484375)"/>
      <use xlink:href="#OpenSans-2f" transform="translate(122.998047 0.484375)"/>
      <use xlink:href="#OpenSans-3c1" transform="translate(159.716797 0.484375)"/>
     </g>
    </g>
   </g>
   <g id="line2d_9">
    <defs>
     <path id="m2fc204c11a" d="M 0 3 
C 0.795609 3 1.55874 2.683901 2.12132 2.12132 
C 2.683901 1.55874 3 0.795609 3 0 
C 3 -0.795609 2.683901 -1.55874 2.12132 -2.12132 
C 1.55874 -2.683901 0.795609 -3 0 -3 
C -0.795609 -3 -1.55874 -2.683901 -2.12132 -2.12132 
C -2.683901 -1.55874 -3 -0.795609 -3 0 
C -3 0.795609 -2.683901 1.55874 -2.12132 2.12132 
C -1.55874 2.683901 -0.795609 3 0 3 
z
" style="stroke: #333333"/>
    </defs>
    <g clip-path="url(#p1fd96d52c3)">
     <use xlink:href="#m2fc204c11a" x="118.408634" y="145.979165" style="fill: #333333; stroke: #333333"/>
     <use xlink:href="#m2fc204c11a" x="122.948931" y="148.239586" style="fill: #333333; stroke: #333333"/>
     <use xlink:href="#m2fc204c11a" x="127.489229" y="146.124998" style="fill: #333333; stroke: #333333"/>
     <use xlink:href="#m2fc204c11a" x="132.029526" y="144.447912" style="fill: #333333; stroke: #333333"/>
     <use xlink:href="#m2fc204c11a" x="136.569823" y="139.781249" style="fill: #333333; stroke: #333333"/>
     <use xlink:href="#m2fc204c11a" x="141.11012" y="140.510412" style="fill: #333333; stroke: #333333"/>
     <use xlink:href="#m2fc204c11a" x="145.650417" y="139.416668" style="fill: #333333; stroke: #333333"/>
     <use xlink:href="#m2fc204c11a" x="150.190714" y="136.208331" style="fill: #333333; stroke: #333333"/>
     <use xlink:href="#m2fc204c11a" x="154.731011" y="133.802081" style="fill: #333333; stroke: #333333"/>
     <use xlink:href="#m2fc204c11a" x="159.271308" y="131.177085" style="fill: #333333; stroke: #333333"/>
     <use xlink:href="#m2fc204c11a" x="163.811605" y="129.427086" style="fill: #333333; stroke: #333333"/>
     <use xlink:href="#m2fc204c11a" x="168.351902" y="124.614581" style="fill: #333333; stroke: #333333"/>
     <use xlink:href="#m2fc204c11a" x="172.892199" y="120.020833" style="fill: #333333; stroke: #333333"/>
     <use xlink:href="#m2fc204c11a" x="177.432496" y="114.989576" style="fill: #333333; stroke: #333333"/>
     <use xlink:href="#m2fc204c11a" x="181.972793" y="113.239579" style="fill: #333333; stroke: #333333"/>
     <use xlink:href="#m2fc204c11a" x="186.51309" y="110.760413" style="fill: #333333; stroke: #333333"/>
     <use xlink:href="#m2fc204c11a" x="191.053388" y="104.343745" style="fill: #333333; stroke: #333333"/>
     <use xlink:href="#m2fc204c11a" x="195.593685" y="97.124992" style="fill: #333333; stroke: #333333"/>
     <use xlink:href="#m2fc204c11a" x="200.133982" y="93.989581" style="fill: #333333; stroke: #333333"/>
     <use xlink:href="#m2fc204c11a" x="204.674279" y="83.124985" style="fill: #333333; stroke: #333333"/>
     <use xlink:href="#m2fc204c11a" x="209.214576" y="79.843734" style="fill: #333333; stroke: #333333"/>
     <use xlink:href="#m2fc204c11a" x="213.754873" y="85.23958" style="fill: #333333; stroke: #333333"/>
     <use xlink:href="#m2fc204c11a" x="218.29517" y="92.53125" style="fill: #333333; stroke: #333333"/>
     <use xlink:href="#m2fc204c11a" x="222.835467" y="87.062506" style="fill: #333333; stroke: #333333"/>
     <use xlink:href="#m2fc204c11a" x="227.375764" y="85.385402" style="fill: #333333; stroke: #333333"/>
     <use xlink:href="#m2fc204c11a" x="231.916061" y="74.520832" style="fill: #333333; stroke: #333333"/>
     <use xlink:href="#m2fc204c11a" x="236.456358" y="68.322921" style="fill: #333333; stroke: #333333"/>
     <use xlink:href="#m2fc204c11a" x="240.996655" y="61.031239" style="fill: #333333; stroke: #333333"/>
     <use xlink:href="#m2fc204c11a" x="245.536952" y="49.802077" style="fill: #333333; stroke: #333333"/>
     <use xlink:href="#m2fc204c11a" x="250.07725" y="37.770831" style="fill: #333333; stroke: #333333"/>
     <use xlink:href="#m2fc204c11a" x="254.617547" y="26.541654" style="fill: #333333; stroke: #333333"/>
     <use xlink:href="#m2fc204c11a" x="259.157844" y="8.531238" style="fill: #333333; stroke: #333333"/>
     <use xlink:href="#m2fc204c11a" x="261.254953" y="-1" style="fill: #333333; stroke: #333333"/>
    </g>
   </g>
   <g id="line2d_10">
    <path d="M 47.58 161 
L 51.030835 160.657143 
L 54.48167 160.314286 
L 57.932505 159.971429 
L 61.38334 159.628571 
L 64.834174 159.285714 
L 68.285009 158.942857 
L 71.735844 158.6 
L 75.186679 158.257143 
L 78.637514 157.914286 
L 82.088349 157.571429 
L 85.539184 157.228571 
L 88.990019 156.885714 
L 92.440853 156.542857 
L 95.891688 156.2 
L 99.342523 155.857143 
L 102.793358 155.514286 
L 106.244193 155.171429 
L 109.695028 154.828571 
L 113.145863 154.485714 
L 116.596698 154.142857 
L 120.047532 153.8 
L 123.498367 153.457143 
L 126.949202 153.114286 
L 130.400037 152.771429 
L 133.850872 152.428571 
L 137.301707 152.085714 
L 140.752542 151.742857 
L 144.203377 151.4 
L 147.654212 151.057143 
L 151.105046 150.714286 
L 154.555881 150.371429 
L 158.006716 150.028571 
L 161.457551 149.685714 
L 164.908386 149.342857 
L 168.359221 149 
L 171.810056 148.657143 
L 175.260891 148.314286 
L 178.711725 147.971429 
L 182.16256 147.628571 
L 185.613395 147.285714 
L 189.06423 146.942857 
L 192.515065 146.6 
L 195.9659 146.257143 
L 199.416735 145.914286 
L 202.86757 145.571429 
L 206.318404 145.228571 
L 209.769239 144.885714 
L 213.220074 144.542857 
L 216.670909 144.2 
" clip-path="url(#p1fd96d52c3)" style="fill: none; stroke: #333333; stroke-width: 1.5; stroke-linecap: square"/>
   </g>
   <g id="line2d_11">
    <path d="M 47.58 161 
L 51.030835 160.64823 
L 54.48167 160.277947 
L 57.932505 159.888069 
L 61.38334 159.477444 
L 64.834174 159.044845 
L 68.285009 158.588966 
L 71.735844 158.108417 
L 75.186679 157.60172 
L 78.637514 157.067303 
L 82.088349 156.503499 
L 85.539184 155.908539 
L 88.990019 155.280548 
L 92.440853 154.617541 
L 95.891688 153.917419 
L 99.342523 153.177961 
L 102.793358 152.396828 
L 106.244193 151.571548 
L 109.695028 150.69952 
L 113.145863 149.778005 
L 116.596698 148.804124 
L 120.047532 147.77485 
L 123.498367 146.687011 
L 126.949202 145.537276 
L 130.400037 144.322158 
L 133.850872 143.038005 
L 137.301707 141.681001 
L 140.752542 140.247154 
L 144.203377 138.732298 
L 147.654212 137.132087 
L 151.105046 135.441989 
L 154.555881 133.657281 
L 158.006716 131.773049 
L 161.457551 129.784179 
L 164.908386 127.685355 
L 168.359221 125.471054 
L 171.810056 123.13554 
L 175.260891 120.672862 
L 178.711725 118.076851 
L 182.16256 115.341109 
L 185.613395 112.459013 
L 189.06423 109.423703 
L 192.515065 106.228084 
L 195.9659 102.864817 
L 199.416735 99.326316 
L 202.86757 95.604746 
L 206.318404 91.692014 
L 209.769239 87.579767 
L 213.220074 83.259391 
L 216.670909 78.722 
" clip-path="url(#p1fd96d52c3)" style="fill: none; stroke: #1f77b4; stroke-width: 1.5; stroke-linecap: square"/>
   </g>
   <g id="line2d_12">
    <path d="M 47.58 161 
L 51.030835 160.648233 
L 54.48167 160.277973 
L 57.932505 159.888158 
L 61.38334 159.477655 
L 64.834174 159.045256 
L 68.285009 158.589669 
L 71.735844 158.109513 
L 75.186679 157.603312 
L 78.637514 157.069485 
L 82.088349 156.506339 
L 85.539184 155.91206 
L 88.990019 155.284699 
L 92.440853 154.622169 
L 95.891688 153.922222 
L 99.342523 153.182446 
L 102.793358 152.400241 
L 106.244193 151.57281 
L 109.695028 150.697138 
L 113.145863 149.769969 
L 116.596698 148.787791 
L 120.047532 147.746807 
L 123.498367 146.642907 
L 126.949202 145.471643 
L 130.400037 144.228192 
L 133.850872 142.90732 
L 137.301707 141.503344 
L 140.752542 140.01008 
L 144.203377 138.4208 
L 147.654212 136.728168 
L 151.105046 134.924181 
L 154.555881 133.000093 
L 158.006716 130.946339 
L 161.457551 128.752442 
L 164.908386 126.406909 
L 168.359221 123.897119 
L 171.810056 121.209191 
L 175.260891 118.327833 
L 178.711725 115.236178 
L 182.16256 111.915589 
L 185.613395 108.345443 
L 189.06423 104.502875 
L 192.515065 100.3625 
L 195.9659 95.896075 
L 199.416735 91.072123 
L 202.86757 85.855498 
L 206.318404 80.206873 
L 209.769239 74.082154 
L 213.220074 67.431795 
L 216.670909 60.2 
" clip-path="url(#p1fd96d52c3)" style="fill: none; stroke: #d62728; stroke-width: 1.5; stroke-linecap: square"/>
   </g>
   <g id="patch_3">
    <path d="M 47.58 169.4 
L 47.58 43.4 
" style="fill: none; stroke: #000000; stroke-width: 0.8; stroke-linejoin: miter; stroke-linecap: square"/>
   </g>
   <g id="patch_4">
    <path d="M 47.58 169.4 
L 250.489091 169.4 
" style="fill: none; stroke: #000000; stroke-width: 0.8; stroke-linejoin: miter; stroke-linecap: square"/>
   </g>
   <g id="text_10">
    <!-- FC -->
    <g transform="translate(64.489091 60.2) scale(0.14 -0.14)">
     <defs>
      <path id="OpenSans-46" d="M 1159 0 
L 628 0 
L 628 4569 
L 3175 4569 
L 3175 4097 
L 1159 4097 
L 1159 2425 
L 3053 2425 
L 3053 1953 
L 1159 1953 
L 1159 0 
z
" transform="scale(0.015625)"/>
      <path id="OpenSans-43" d="M 2584 4159 
Q 1831 4159 1395 3657 
Q 959 3156 959 2284 
Q 959 1388 1379 898 
Q 1800 409 2578 409 
Q 3056 409 3669 581 
L 3669 116 
Q 3194 -63 2497 -63 
Q 1488 -63 939 550 
Q 391 1163 391 2291 
Q 391 2997 655 3528 
Q 919 4059 1417 4346 
Q 1916 4634 2591 4634 
Q 3309 4634 3847 4372 
L 3622 3916 
Q 3103 4159 2584 4159 
z
" transform="scale(0.015625)"/>
     </defs>
     <use xlink:href="#OpenSans-46"/>
     <use xlink:href="#OpenSans-43" x="51.611328"/>
    </g>
   </g>
  </g>
  <g id="axes_2">
   <g id="patch_5">
    <path d="M 291.070909 169.4 
L 493.98 169.4 
L 493.98 43.4 
L 291.070909 43.4 
z
" style="fill: #ffffff"/>
   </g>
   <g id="matplotlib.axis_3">
    <g id="xtick_5">
     <g id="line2d_13">
      <g>
       <use xlink:href="#m5e992d5838" x="291.070909" y="169.4" style="stroke: #000000; stroke-width: 0.8"/>
      </g>
     </g>
     <g id="text_11">
      <!-- $\mathdefault{0.0}$ -->
      <g transform="translate(281.200909 186.037813) scale(0.14 -0.14)">
       <use xlink:href="#OpenSans-30" transform="translate(0 0.484375)"/>
       <use xlink:href="#OpenSans-2e" transform="translate(57.177734 0.484375)"/>
       <use xlink:href="#OpenSans-30" transform="translate(83.789062 0.484375)"/>
      </g>
     </g>
    </g>
    <g id="xtick_6">
     <g id="line2d_14">
      <g>
       <use xlink:href="#m5e992d5838" x="358.707273" y="169.4" style="stroke: #000000; stroke-width: 0.8"/>
      </g>
     </g>
     <g id="text_12">
      <!-- $\mathdefault{0.2}$ -->
      <g transform="translate(348.977273 186.037813) scale(0.14 -0.14)">
       <use xlink:href="#OpenSans-30" transform="translate(0 0.484375)"/>
       <use xlink:href="#OpenSans-2e" transform="translate(57.177734 0.484375)"/>
       <use xlink:href="#OpenSans-32" transform="translate(81.789062 0.484375)"/>
      </g>
     </g>
    </g>
    <g id="xtick_7">
     <g id="line2d_15">
      <g>
       <use xlink:href="#m5e992d5838" x="426.343636" y="169.4" style="stroke: #000000; stroke-width: 0.8"/>
      </g>
     </g>
     <g id="text_13">
      <!-- $\mathdefault{0.4}$ -->
      <g transform="translate(416.613636 186.037813) scale(0.14 -0.14)">
       <use xlink:href="#OpenSans-30" transform="translate(0 0.484375)"/>
       <use xlink:href="#OpenSans-2e" transform="translate(57.177734 0.484375)"/>
       <use xlink:href="#OpenSans-34" transform="translate(81.789062 0.484375)"/>
      </g>
     </g>
    </g>
    <g id="xtick_8">
     <g id="line2d_16">
      <g>
       <use xlink:href="#m5e992d5838" x="493.98" y="169.4" style="stroke: #000000; stroke-width: 0.8"/>
      </g>
     </g>
     <g id="text_14">
      <!-- $\mathdefault{0.6}$ -->
      <g transform="translate(484.11 186.037813) scale(0.14 -0.14)">
       <use xlink:href="#OpenSans-30" transform="translate(0 0.484375)"/>
       <use xlink:href="#OpenSans-2e" transform="translate(57.177734 0.484375)"/>
       <use xlink:href="#OpenSans-36" transform="translate(83.789062 0.484375)"/>
      </g>
     </g>
    </g>
   </g>
   <g id="matplotlib.axis_4">
    <g id="ytick_5">
     <g id="line2d_17">
      <g>
       <use xlink:href="#mf1c8c133fc" x="291.070909" y="169.4" style="stroke: #000000; stroke-width: 0.8"/>
      </g>
     </g>
    </g>
    <g id="ytick_6">
     <g id="line2d_18">
      <g>
       <use xlink:href="#mf1c8c133fc" x="291.070909" y="127.4" style="stroke: #000000; stroke-width: 0.8"/>
      </g>
     </g>
    </g>
    <g id="ytick_7">
     <g id="line2d_19">
      <g>
       <use xlink:href="#mf1c8c133fc" x="291.070909" y="85.4" style="stroke: #000000; stroke-width: 0.8"/>
      </g>
     </g>
    </g>
    <g id="ytick_8">
     <g id="line2d_20">
      <g>
       <use xlink:href="#mf1c8c133fc" x="291.070909" y="43.4" style="stroke: #000000; stroke-width: 0.8"/>
      </g>
     </g>
    </g>
   </g>
   <g id="line2d_21">
    <g clip-path="url(#pfcc4455662)">
     <use xlink:href="#m2fc204c11a" x="361.899543" y="148.096483" style="fill: #333333; stroke: #333333"/>
     <use xlink:href="#m2fc204c11a" x="370.753123" y="145.572658" style="fill: #333333; stroke: #333333"/>
     <use xlink:href="#m2fc204c11a" x="379.606702" y="141.624218" style="fill: #333333; stroke: #333333"/>
     <use xlink:href="#m2fc204c11a" x="388.460281" y="137.689453" style="fill: #333333; stroke: #333333"/>
     <use xlink:href="#m2fc204c11a" x="397.313861" y="133.445704" style="fill: #333333; stroke: #333333"/>
     <use xlink:href="#m2fc204c11a" x="406.16744" y="127.514849" style="fill: #333333; stroke: #333333"/>
     <use xlink:href="#m2fc204c11a" x="415.021019" y="122.294923" style="fill: #333333; stroke: #333333"/>
     <use xlink:href="#m2fc204c11a" x="423.874599" y="113.955087" style="fill: #333333; stroke: #333333"/>
     <use xlink:href="#m2fc204c11a" x="432.728178" y="104.93437" style="fill: #333333; stroke: #333333"/>
     <use xlink:href="#m2fc204c11a" x="441.581757" y="93.84648" style="fill: #333333; stroke: #333333"/>
     <use xlink:href="#m2fc204c11a" x="450.435336" y="80.787116" style="fill: #333333; stroke: #333333"/>
     <use xlink:href="#m2fc204c11a" x="451.320694" y="79.007033" style="fill: #333333; stroke: #333333"/>
     <use xlink:href="#m2fc204c11a" x="452.206052" y="77.872271" style="fill: #333333; stroke: #333333"/>
     <use xlink:href="#m2fc204c11a" x="453.09141" y="75.805062" style="fill: #333333; stroke: #333333"/>
     <use xlink:href="#m2fc204c11a" x="453.976768" y="73.4125" style="fill: #333333; stroke: #333333"/>
     <use xlink:href="#m2fc204c11a" x="454.862126" y="72.873818" style="fill: #333333; stroke: #333333"/>
     <use xlink:href="#m2fc204c11a" x="455.747484" y="70.06014" style="fill: #333333; stroke: #333333"/>
     <use xlink:href="#m2fc204c11a" x="456.632842" y="71.096478" style="fill: #333333; stroke: #333333"/>
     <use xlink:href="#m2fc204c11a" x="457.5182" y="71.140238" style="fill: #333333; stroke: #333333"/>
     <use xlink:href="#m2fc204c11a" x="458.403558" y="90.182408" style="fill: #333333; stroke: #333333"/>
     <use xlink:href="#m2fc204c11a" x="459.288916" y="90.49961" style="fill: #333333; stroke: #333333"/>
     <use xlink:href="#m2fc204c11a" x="460.174274" y="90.237107" style="fill: #333333; stroke: #333333"/>
     <use xlink:href="#m2fc204c11a" x="461.059632" y="89.148828" style="fill: #333333; stroke: #333333"/>
     <use xlink:href="#m2fc204c11a" x="461.94499" y="89.785935" style="fill: #333333; stroke: #333333"/>
     <use xlink:href="#m2fc204c11a" x="462.830347" y="88.153519" style="fill: #333333; stroke: #333333"/>
     <use xlink:href="#m2fc204c11a" x="463.715705" y="88.383208" style="fill: #333333; stroke: #333333"/>
     <use xlink:href="#m2fc204c11a" x="464.601063" y="86.783602" style="fill: #333333; stroke: #333333"/>
     <use xlink:href="#m2fc204c11a" x="465.486421" y="86.020699" style="fill: #333333; stroke: #333333"/>
     <use xlink:href="#m2fc204c11a" x="466.371779" y="85.224994" style="fill: #333333; stroke: #333333"/>
     <use xlink:href="#m2fc204c11a" x="467.257137" y="85.030862" style="fill: #333333; stroke: #333333"/>
     <use xlink:href="#m2fc204c11a" x="468.142495" y="84.12031" style="fill: #333333; stroke: #333333"/>
     <use xlink:href="#m2fc204c11a" x="469.027853" y="82.687488" style="fill: #333333; stroke: #333333"/>
     <use xlink:href="#m2fc204c11a" x="476.996074" y="73.64492" style="fill: #333333; stroke: #333333"/>
     <use xlink:href="#m2fc204c11a" x="485.849654" y="57.025388" style="fill: #333333; stroke: #333333"/>
     <use xlink:href="#m2fc204c11a" x="494.703233" y="34.980879" style="fill: #333333; stroke: #333333"/>
     <use xlink:href="#m2fc204c11a" x="503.556812" y="5.490606" style="fill: #333333; stroke: #333333"/>
     <use xlink:href="#m2fc204c11a" x="504.668879" y="-1" style="fill: #333333; stroke: #333333"/>
    </g>
   </g>
   <g id="line2d_22">
    <path d="M 291.070909 161 
L 294.521744 160.657143 
L 297.972579 160.314286 
L 301.423414 159.971429 
L 304.874249 159.628571 
L 308.325083 159.285714 
L 311.775918 158.942857 
L 315.226753 158.6 
L 318.677588 158.257143 
L 322.128423 157.914286 
L 325.579258 157.571429 
L 329.030093 157.228571 
L 332.480928 156.885714 
L 335.931763 156.542857 
L 339.382597 156.2 
L 342.833432 155.857143 
L 346.284267 155.514286 
L 349.735102 155.171429 
L 353.185937 154.828571 
L 356.636772 154.485714 
L 360.087607 154.142857 
L 363.538442 153.8 
L 366.989276 153.457143 
L 370.440111 153.114286 
L 373.890946 152.771429 
L 377.341781 152.428571 
L 380.792616 152.085714 
L 384.243451 151.742857 
L 387.694286 151.4 
L 391.145121 151.057143 
L 394.595955 150.714286 
L 398.04679 150.371429 
L 401.497625 150.028571 
L 404.94846 149.685714 
L 408.399295 149.342857 
L 411.85013 149 
L 415.300965 148.657143 
L 418.7518 148.314286 
L 422.202635 147.971429 
L 425.653469 147.628571 
L 429.104304 147.285714 
L 432.555139 146.942857 
L 436.005974 146.6 
L 439.456809 146.257143 
L 442.907644 145.914286 
L 446.358479 145.571429 
L 449.809314 145.228571 
L 453.260148 144.885714 
L 456.710983 144.542857 
L 460.161818 144.2 
" clip-path="url(#pfcc4455662)" style="fill: none; stroke: #333333; stroke-width: 1.5; stroke-linecap: square"/>
   </g>
   <g id="line2d_23">
    <path d="M 291.070909 161 
L 294.521744 160.64823 
L 297.972579 160.277947 
L 301.423414 159.888069 
L 304.874249 159.477444 
L 308.325083 159.044845 
L 311.775918 158.588966 
L 315.226753 158.108417 
L 318.677588 157.60172 
L 322.128423 157.067303 
L 325.579258 156.503499 
L 329.030093 155.908539 
L 332.480928 155.280548 
L 335.931763 154.617541 
L 339.382597 153.917419 
L 342.833432 153.177961 
L 346.284267 152.396828 
L 349.735102 151.571548 
L 353.185937 150.69952 
L 356.636772 149.778005 
L 360.087607 148.804124 
L 363.538442 147.77485 
L 366.989276 146.687011 
L 370.440111 145.537276 
L 373.890946 144.322158 
L 377.341781 143.038005 
L 380.792616 141.681001 
L 384.243451 140.247154 
L 387.694286 138.732298 
L 391.145121 137.132087 
L 394.595955 135.441989 
L 398.04679 133.657281 
L 401.497625 131.773049 
L 404.94846 129.784179 
L 408.399295 127.685355 
L 411.85013 125.471054 
L 415.300965 123.13554 
L 418.7518 120.672862 
L 422.202635 118.076851 
L 425.653469 115.341109 
L 429.104304 112.459013 
L 432.555139 109.423703 
L 436.005974 106.228084 
L 439.456809 102.864817 
L 442.907644 99.326316 
L 446.358479 95.604746 
L 449.809314 91.692014 
L 453.260148 87.579767 
L 456.710983 83.259391 
L 460.161818 78.722 
" clip-path="url(#pfcc4455662)" style="fill: none; stroke: #1f77b4; stroke-width: 1.5; stroke-linecap: square"/>
   </g>
   <g id="line2d_24">
    <path d="M 291.070909 161 
L 294.521744 160.648233 
L 297.972579 160.277973 
L 301.423414 159.888158 
L 304.874249 159.477655 
L 308.325083 159.045256 
L 311.775918 158.589669 
L 315.226753 158.109513 
L 318.677588 157.603312 
L 322.128423 157.069485 
L 325.579258 156.506339 
L 329.030093 155.91206 
L 332.480928 155.284699 
L 335.931763 154.622169 
L 339.382597 153.922222 
L 342.833432 153.182446 
L 346.284267 152.400241 
L 349.735102 151.57281 
L 353.185937 150.697138 
L 356.636772 149.769969 
L 360.087607 148.787791 
L 363.538442 147.746807 
L 366.989276 146.642907 
L 370.440111 145.471643 
L 373.890946 144.228192 
L 377.341781 142.90732 
L 380.792616 141.503344 
L 384.243451 140.01008 
L 387.694286 138.4208 
L 391.145121 136.728168 
L 394.595955 134.924181 
L 398.04679 133.000093 
L 401.497625 130.946339 
L 404.94846 128.752442 
L 408.399295 126.406909 
L 411.85013 123.897119 
L 415.300965 121.209191 
L 418.7518 118.327833 
L 422.202635 115.236178 
L 425.653469 111.915589 
L 429.104304 108.345443 
L 432.555139 104.502875 
L 436.005974 100.3625 
L 439.456809 95.896075 
L 442.907644 91.072123 
L 446.358479 85.855498 
L 449.809314 80.206873 
L 453.260148 74.082154 
L 456.710983 67.431795 
L 460.161818 60.2 
" clip-path="url(#pfcc4455662)" style="fill: none; stroke: #d62728; stroke-width: 1.5; stroke-linecap: square"/>
   </g>
   <g id="patch_6">
    <path d="M 291.070909 169.4 
L 291.070909 43.4 
" style="fill: none; stroke: #000000; stroke-width: 0.8; stroke-linejoin: miter; stroke-linecap: square"/>
   </g>
   <g id="patch_7">
    <path d="M 291.070909 169.4 
L 493.98 169.4 
" style="fill: none; stroke: #000000; stroke-width: 0.8; stroke-linejoin: miter; stroke-linecap: square"/>
   </g>
   <g id="text_15">
    <!-- CB -->
    <g transform="translate(307.98 60.2) scale(0.14 -0.14)">
     <defs>
      <path id="OpenSans-42" d="M 628 4569 
L 1919 4569 
Q 2828 4569 3234 4297 
Q 3641 4025 3641 3438 
Q 3641 3031 3414 2767 
Q 3188 2503 2753 2425 
L 2753 2394 
Q 3794 2216 3794 1300 
Q 3794 688 3380 344 
Q 2966 0 2222 0 
L 628 0 
L 628 4569 
z
M 1159 2613 
L 2034 2613 
Q 2597 2613 2844 2789 
Q 3091 2966 3091 3384 
Q 3091 3769 2816 3939 
Q 2541 4109 1941 4109 
L 1159 4109 
L 1159 2613 
z
M 1159 2163 
L 1159 453 
L 2113 453 
Q 2666 453 2945 667 
Q 3225 881 3225 1338 
Q 3225 1763 2939 1963 
Q 2653 2163 2069 2163 
L 1159 2163 
z
" transform="scale(0.015625)"/>
     </defs>
     <use xlink:href="#OpenSans-43"/>
     <use xlink:href="#OpenSans-42" x="63.085938"/>
    </g>
   </g>
  </g>
  <g id="axes_3">
   <g id="patch_8">
    <path d="M 47.58 320.6 
L 250.489091 320.6 
L 250.489091 194.6 
L 47.58 194.6 
z
" style="fill: #ffffff"/>
   </g>
   <g id="matplotlib.axis_5">
    <g id="xtick_9">
     <g id="line2d_25">
      <g>
       <use xlink:href="#m5e992d5838" x="47.58" y="320.6" style="stroke: #000000; stroke-width: 0.8"/>
      </g>
     </g>
     <g id="text_16">
      <!-- $\mathdefault{0.0}$ -->
      <g transform="translate(37.71 337.237813) scale(0.14 -0.14)">
       <use xlink:href="#OpenSans-30" transform="translate(0 0.484375)"/>
       <use xlink:href="#OpenSans-2e" transform="translate(57.177734 0.484375)"/>
       <use xlink:href="#OpenSans-30" transform="translate(83.789062 0.484375)"/>
      </g>
     </g>
    </g>
    <g id="xtick_10">
     <g id="line2d_26">
      <g>
       <use xlink:href="#m5e992d5838" x="115.216364" y="320.6" style="stroke: #000000; stroke-width: 0.8"/>
      </g>
     </g>
     <g id="text_17">
      <!-- $\mathdefault{0.2}$ -->
      <g transform="translate(105.486364 337.237813) scale(0.14 -0.14)">
       <use xlink:href="#OpenSans-30" transform="translate(0 0.484375)"/>
       <use xlink:href="#OpenSans-2e" transform="translate(57.177734 0.484375)"/>
       <use xlink:href="#OpenSans-32" transform="translate(81.789062 0.484375)"/>
      </g>
     </g>
    </g>
    <g id="xtick_11">
     <g id="line2d_27">
      <g>
       <use xlink:href="#m5e992d5838" x="182.852727" y="320.6" style="stroke: #000000; stroke-width: 0.8"/>
      </g>
     </g>
     <g id="text_18">
      <!-- $\mathdefault{0.4}$ -->
      <g transform="translate(173.122727 337.237813) scale(0.14 -0.14)">
       <use xlink:href="#OpenSans-30" transform="translate(0 0.484375)"/>
       <use xlink:href="#OpenSans-2e" transform="translate(57.177734 0.484375)"/>
       <use xlink:href="#OpenSans-34" transform="translate(81.789062 0.484375)"/>
      </g>
     </g>
    </g>
    <g id="xtick_12">
     <g id="line2d_28">
      <g>
       <use xlink:href="#m5e992d5838" x="250.489091" y="320.6" style="stroke: #000000; stroke-width: 0.8"/>
      </g>
     </g>
     <g id="text_19">
      <!-- $\mathdefault{0.6}$ -->
      <g transform="translate(240.619091 337.237813) scale(0.14 -0.14)">
       <use xlink:href="#OpenSans-30" transform="translate(0 0.484375)"/>
       <use xlink:href="#OpenSans-2e" transform="translate(57.177734 0.484375)"/>
       <use xlink:href="#OpenSans-36" transform="translate(83.789062 0.484375)"/>
      </g>
     </g>
    </g>
    <g id="text_20">
     <!-- $\phi$ -->
     <g transform="translate(144.624545 355.24) scale(0.14 -0.14)">
      <defs>
       <path id="STIXNonUnicode-Regular-e1b1" d="M 2246 4333 
L 2246 2950 
Q 2995 2944 3398 2496 
Q 3802 2048 3802 1433 
Q 3802 819 3398 374 
Q 2995 -70 2246 -77 
L 2246 -1229 
L 1792 -1382 
L 1734 -1350 
L 1734 -77 
Q 986 -70 582 374 
Q 179 819 179 1434 
Q 179 2054 582 2499 
Q 986 2944 1734 2950 
L 1734 4192 
L 2202 4378 
L 2246 4333 
z
M 2240 2496 
L 2240 378 
Q 2758 384 3027 678 
Q 3296 973 3296 1446 
Q 3296 1894 3005 2188 
Q 2714 2483 2240 2496 
z
M 1741 378 
L 1741 2496 
Q 1222 2490 953 2202 
Q 685 1914 685 1446 
Q 685 973 953 678 
Q 1222 384 1741 378 
z
" transform="scale(0.015625)"/>
      </defs>
      <use xlink:href="#STIXNonUnicode-Regular-e1b1" transform="translate(0 0.59375)"/>
     </g>
    </g>
   </g>
   <g id="matplotlib.axis_6">
    <g id="ytick_9">
     <g id="line2d_29">
      <g>
       <use xlink:href="#mf1c8c133fc" x="47.58" y="320.6" style="stroke: #000000; stroke-width: 0.8"/>
      </g>
     </g>
     <g id="text_21">
      <!-- $\mathdefault{0}$ -->
      <g transform="translate(33.46 325.918906) scale(0.14 -0.14)">
       <use xlink:href="#OpenSans-30" transform="translate(0 0.484375)"/>
      </g>
     </g>
    </g>
    <g id="ytick_10">
     <g id="line2d_30">
      <g>
       <use xlink:href="#mf1c8c133fc" x="47.58" y="278.6" style="stroke: #000000; stroke-width: 0.8"/>
      </g>
     </g>
     <g id="text_22">
      <!-- $\mathdefault{5}$ -->
      <g transform="translate(33.46 283.918906) scale(0.14 -0.14)">
       <use xlink:href="#OpenSans-35" transform="translate(0 0.609375)"/>
      </g>
     </g>
    </g>
    <g id="ytick_11">
     <g id="line2d_31">
      <g>
       <use xlink:href="#mf1c8c133fc" x="47.58" y="236.6" style="stroke: #000000; stroke-width: 0.8"/>
      </g>
     </g>
     <g id="text_23">
      <!-- $\mathdefault{10}$ -->
      <g transform="translate(25.48 241.918906) scale(0.14 -0.14)">
       <use xlink:href="#OpenSans-31" transform="translate(0 0.484375)"/>
       <use xlink:href="#OpenSans-30" transform="translate(57.177734 0.484375)"/>
      </g>
     </g>
    </g>
    <g id="ytick_12">
     <g id="line2d_32">
      <g>
       <use xlink:href="#mf1c8c133fc" x="47.58" y="194.6" style="stroke: #000000; stroke-width: 0.8"/>
      </g>
     </g>
     <g id="text_24">
      <!-- $\mathdefault{15}$ -->
      <g transform="translate(25.48 199.918906) scale(0.14 -0.14)">
       <use xlink:href="#OpenSans-31" transform="translate(0 0.609375)"/>
       <use xlink:href="#OpenSans-35" transform="translate(57.177734 0.609375)"/>
      </g>
     </g>
    </g>
   </g>
   <g id="line2d_33">
    <g clip-path="url(#p47c1bfbd96)">
     <use xlink:href="#m2fc204c11a" x="65.287159" y="310.056045" style="fill: #333333; stroke: #333333"/>
     <use xlink:href="#m2fc204c11a" x="72.463218" y="309.003384" style="fill: #333333; stroke: #333333"/>
     <use xlink:href="#m2fc204c11a" x="79.639277" y="307.894192" style="fill: #333333; stroke: #333333"/>
     <use xlink:href="#m2fc204c11a" x="86.815336" y="306.625589" style="fill: #333333; stroke: #333333"/>
     <use xlink:href="#m2fc204c11a" x="93.991395" y="305.302347" style="fill: #333333; stroke: #333333"/>
     <use xlink:href="#m2fc204c11a" x="101.167454" y="303.755102" style="fill: #333333; stroke: #333333"/>
     <use xlink:href="#m2fc204c11a" x="108.343513" y="302.048206" style="fill: #333333; stroke: #333333"/>
     <use xlink:href="#m2fc204c11a" x="115.519572" y="300.100879" style="fill: #333333; stroke: #333333"/>
     <use xlink:href="#m2fc204c11a" x="122.695631" y="297.924271" style="fill: #333333; stroke: #333333"/>
     <use xlink:href="#m2fc204c11a" x="129.87169" y="295.57783" style="fill: #333333; stroke: #333333"/>
     <use xlink:href="#m2fc204c11a" x="137.047749" y="293.001378" style="fill: #333333; stroke: #333333"/>
     <use xlink:href="#m2fc204c11a" x="144.223808" y="290.063016" style="fill: #333333; stroke: #333333"/>
     <use xlink:href="#m2fc204c11a" x="151.399867" y="286.69068" style="fill: #333333; stroke: #333333"/>
     <use xlink:href="#m2fc204c11a" x="158.575926" y="282.932283" style="fill: #333333; stroke: #333333"/>
     <use xlink:href="#m2fc204c11a" x="165.751985" y="278.748962" style="fill: #333333; stroke: #333333"/>
     <use xlink:href="#m2fc204c11a" x="172.928044" y="273.85189" style="fill: #333333; stroke: #333333"/>
     <use xlink:href="#m2fc204c11a" x="180.104103" y="268.621791" style="fill: #333333; stroke: #333333"/>
     <use xlink:href="#m2fc204c11a" x="187.280162" y="262.634453" style="fill: #333333; stroke: #333333"/>
     <use xlink:href="#m2fc204c11a" x="194.456221" y="255.695969" style="fill: #333333; stroke: #333333"/>
     <use xlink:href="#m2fc204c11a" x="201.63228" y="247.966624" style="fill: #333333; stroke: #333333"/>
     <use xlink:href="#m2fc204c11a" x="203.048852" y="246.391651" style="fill: #333333; stroke: #333333"/>
     <use xlink:href="#m2fc204c11a" x="203.94353" y="245.391625" style="fill: #333333; stroke: #333333"/>
     <use xlink:href="#m2fc204c11a" x="204.838207" y="244.307518" style="fill: #333333; stroke: #333333"/>
     <use xlink:href="#m2fc204c11a" x="205.732885" y="243.270194" style="fill: #333333; stroke: #333333"/>
     <use xlink:href="#m2fc204c11a" x="206.627562" y="242.051938" style="fill: #333333; stroke: #333333"/>
     <use xlink:href="#m2fc204c11a" x="207.52224" y="240.958761" style="fill: #333333; stroke: #333333"/>
     <use xlink:href="#m2fc204c11a" x="208.416917" y="239.888138" style="fill: #333333; stroke: #333333"/>
     <use xlink:href="#m2fc204c11a" x="209.311595" y="239.418422" style="fill: #333333; stroke: #333333"/>
     <use xlink:href="#m2fc204c11a" x="210.206272" y="237.344504" style="fill: #333333; stroke: #333333"/>
     <use xlink:href="#m2fc204c11a" x="211.10095" y="236.813934" style="fill: #333333; stroke: #333333"/>
     <use xlink:href="#m2fc204c11a" x="211.995627" y="235.227625" style="fill: #333333; stroke: #333333"/>
     <use xlink:href="#m2fc204c11a" x="212.890305" y="237.682654" style="fill: #333333; stroke: #333333"/>
     <use xlink:href="#m2fc204c11a" x="213.784982" y="242.321916" style="fill: #333333; stroke: #333333"/>
     <use xlink:href="#m2fc204c11a" x="214.67966" y="245.675106" style="fill: #333333; stroke: #333333"/>
     <use xlink:href="#m2fc204c11a" x="215.574337" y="244.996357" style="fill: #333333; stroke: #333333"/>
     <use xlink:href="#m2fc204c11a" x="216.469015" y="244.552658" style="fill: #333333; stroke: #333333"/>
     <use xlink:href="#m2fc204c11a" x="217.363692" y="243.670434" style="fill: #333333; stroke: #333333"/>
     <use xlink:href="#m2fc204c11a" x="218.25837" y="242.897015" style="fill: #333333; stroke: #333333"/>
     <use xlink:href="#m2fc204c11a" x="219.153047" y="242.099341" style="fill: #333333; stroke: #333333"/>
     <use xlink:href="#m2fc204c11a" x="220.047725" y="241.252494" style="fill: #333333; stroke: #333333"/>
     <use xlink:href="#m2fc204c11a" x="224.651586" y="236.452668" style="fill: #333333; stroke: #333333"/>
     <use xlink:href="#m2fc204c11a" x="227.602779" y="232.964344" style="fill: #333333; stroke: #333333"/>
     <use xlink:href="#m2fc204c11a" x="230.553972" y="228.979926" style="fill: #333333; stroke: #333333"/>
     <use xlink:href="#m2fc204c11a" x="233.505165" y="224.452095" style="fill: #333333; stroke: #333333"/>
    </g>
   </g>
   <g id="line2d_34">
    <path d="M 47.58 312.2 
L 51.030835 311.857143 
L 54.48167 311.514286 
L 57.932505 311.171429 
L 61.38334 310.828571 
L 64.834174 310.485714 
L 68.285009 310.142857 
L 71.735844 309.8 
L 75.186679 309.457143 
L 78.637514 309.114286 
L 82.088349 308.771429 
L 85.539184 308.428571 
L 88.990019 308.085714 
L 92.440853 307.742857 
L 95.891688 307.4 
L 99.342523 307.057143 
L 102.793358 306.714286 
L 106.244193 306.371429 
L 109.695028 306.028571 
L 113.145863 305.685714 
L 116.596698 305.342857 
L 120.047532 305 
L 123.498367 304.657143 
L 126.949202 304.314286 
L 130.400037 303.971429 
L 133.850872 303.628571 
L 137.301707 303.285714 
L 140.752542 302.942857 
L 144.203377 302.6 
L 147.654212 302.257143 
L 151.105046 301.914286 
L 154.555881 301.571429 
L 158.006716 301.228571 
L 161.457551 300.885714 
L 164.908386 300.542857 
L 168.359221 300.2 
L 171.810056 299.857143 
L 175.260891 299.514286 
L 178.711725 299.171429 
L 182.16256 298.828571 
L 185.613395 298.485714 
L 189.06423 298.142857 
L 192.515065 297.8 
L 195.9659 297.457143 
L 199.416735 297.114286 
L 202.86757 296.771429 
L 206.318404 296.428571 
L 209.769239 296.085714 
L 213.220074 295.742857 
L 216.670909 295.4 
" clip-path="url(#p47c1bfbd96)" style="fill: none; stroke: #333333; stroke-width: 1.5; stroke-linecap: square"/>
   </g>
   <g id="line2d_35">
    <path d="M 47.58 312.2 
L 51.030835 311.84823 
L 54.48167 311.477947 
L 57.932505 311.088069 
L 61.38334 310.677444 
L 64.834174 310.244845 
L 68.285009 309.788966 
L 71.735844 309.308417 
L 75.186679 308.80172 
L 78.637514 308.267303 
L 82.088349 307.703499 
L 85.539184 307.108539 
L 88.990019 306.480548 
L 92.440853 305.817541 
L 95.891688 305.117419 
L 99.342523 304.377961 
L 102.793358 303.596828 
L 106.244193 302.771548 
L 109.695028 301.89952 
L 113.145863 300.978005 
L 116.596698 300.004124 
L 120.047532 298.97485 
L 123.498367 297.887011 
L 126.949202 296.737276 
L 130.400037 295.522158 
L 133.850872 294.238005 
L 137.301707 292.881001 
L 140.752542 291.447154 
L 144.203377 289.932298 
L 147.654212 288.332087 
L 151.105046 286.641989 
L 154.555881 284.857281 
L 158.006716 282.973049 
L 161.457551 280.984179 
L 164.908386 278.885355 
L 168.359221 276.671054 
L 171.810056 274.33554 
L 175.260891 271.872862 
L 178.711725 269.276851 
L 182.16256 266.541109 
L 185.613395 263.659013 
L 189.06423 260.623703 
L 192.515065 257.428084 
L 195.9659 254.064817 
L 199.416735 250.526316 
L 202.86757 246.804746 
L 206.318404 242.892014 
L 209.769239 238.779767 
L 213.220074 234.459391 
L 216.670909 229.922 
" clip-path="url(#p47c1bfbd96)" style="fill: none; stroke: #1f77b4; stroke-width: 1.5; stroke-linecap: square"/>
   </g>
   <g id="line2d_36">
    <path d="M 47.58 312.2 
L 51.030835 311.848233 
L 54.48167 311.477973 
L 57.932505 311.088158 
L 61.38334 310.677655 
L 64.834174 310.245256 
L 68.285009 309.789669 
L 71.735844 309.309513 
L 75.186679 308.803312 
L 78.637514 308.269485 
L 82.088349 307.706339 
L 85.539184 307.11206 
L 88.990019 306.484699 
L 92.440853 305.822169 
L 95.891688 305.122222 
L 99.342523 304.382446 
L 102.793358 303.600241 
L 106.244193 302.77281 
L 109.695028 301.897138 
L 113.145863 300.969969 
L 116.596698 299.987791 
L 120.047532 298.946807 
L 123.498367 297.842907 
L 126.949202 296.671643 
L 130.400037 295.428192 
L 133.850872 294.10732 
L 137.301707 292.703344 
L 140.752542 291.21008 
L 144.203377 289.6208 
L 147.654212 287.928168 
L 151.105046 286.124181 
L 154.555881 284.200093 
L 158.006716 282.146339 
L 161.457551 279.952442 
L 164.908386 277.606909 
L 168.359221 275.097119 
L 171.810056 272.409191 
L 175.260891 269.527833 
L 178.711725 266.436178 
L 182.16256 263.115589 
L 185.613395 259.545443 
L 189.06423 255.702875 
L 192.515065 251.5625 
L 195.9659 247.096075 
L 199.416735 242.272123 
L 202.86757 237.055498 
L 206.318404 231.406873 
L 209.769239 225.282154 
L 213.220074 218.631795 
L 216.670909 211.4 
" clip-path="url(#p47c1bfbd96)" style="fill: none; stroke: #d62728; stroke-width: 1.5; stroke-linecap: square"/>
   </g>
   <g id="patch_9">
    <path d="M 47.58 320.6 
L 47.58 194.6 
" style="fill: none; stroke: #000000; stroke-width: 0.8; stroke-linejoin: miter; stroke-linecap: square"/>
   </g>
   <g id="patch_10">
    <path d="M 47.58 320.6 
L 250.489091 320.6 
" style="fill: none; stroke: #000000; stroke-width: 0.8; stroke-linejoin: miter; stroke-linecap: square"/>
   </g>
   <g id="text_25">
    <!-- FP -->
    <g transform="translate(64.489091 211.4) scale(0.14 -0.14)">
     <use xlink:href="#OpenSans-46"/>
     <use xlink:href="#OpenSans-50" x="51.611328"/>
    </g>
   </g>
  </g>
  <g id="axes_4">
   <g id="patch_11">
    <path d="M 291.070909 320.6 
L 493.98 320.6 
L 493.98 194.6 
L 291.070909 194.6 
z
" style="fill: #ffffff"/>
   </g>
   <g id="matplotlib.axis_7">
    <g id="xtick_13">
     <g id="line2d_37">
      <g>
       <use xlink:href="#m5e992d5838" x="291.070909" y="320.6" style="stroke: #000000; stroke-width: 0.8"/>
      </g>
     </g>
     <g id="text_26">
      <!-- $\mathdefault{0.00}$ -->
      <g transform="translate(277.140909 337.237813) scale(0.14 -0.14)">
       <use xlink:href="#OpenSans-30" transform="translate(0 0.484375)"/>
       <use xlink:href="#OpenSans-2e" transform="translate(57.177734 0.484375)"/>
       <use xlink:href="#OpenSans-30" transform="translate(83.789062 0.484375)"/>
       <use xlink:href="#OpenSans-30" transform="translate(140.966797 0.484375)"/>
      </g>
     </g>
    </g>
    <g id="xtick_14">
     <g id="line2d_38">
      <g>
       <use xlink:href="#m5e992d5838" x="341.798182" y="320.6" style="stroke: #000000; stroke-width: 0.8"/>
      </g>
     </g>
     <g id="text_27">
      <!-- $\mathdefault{0.25}$ -->
      <g transform="translate(328.008182 337.237813) scale(0.14 -0.14)">
       <use xlink:href="#OpenSans-30" transform="translate(0 0.484375)"/>
       <use xlink:href="#OpenSans-2e" transform="translate(57.177734 0.484375)"/>
       <use xlink:href="#OpenSans-32" transform="translate(81.789062 0.484375)"/>
       <use xlink:href="#OpenSans-35" transform="translate(138.966797 0.484375)"/>
      </g>
     </g>
    </g>
    <g id="xtick_15">
     <g id="line2d_39">
      <g>
       <use xlink:href="#m5e992d5838" x="392.525455" y="320.6" style="stroke: #000000; stroke-width: 0.8"/>
      </g>
     </g>
     <g id="text_28">
      <!-- $\mathdefault{0.50}$ -->
      <g transform="translate(378.595455 337.237813) scale(0.14 -0.14)">
       <use xlink:href="#OpenSans-30" transform="translate(0 0.484375)"/>
       <use xlink:href="#OpenSans-2e" transform="translate(57.177734 0.484375)"/>
       <use xlink:href="#OpenSans-35" transform="translate(83.789062 0.484375)"/>
       <use xlink:href="#OpenSans-30" transform="translate(140.966797 0.484375)"/>
      </g>
     </g>
    </g>
    <g id="xtick_16">
     <g id="line2d_40">
      <g>
       <use xlink:href="#m5e992d5838" x="443.252727" y="320.6" style="stroke: #000000; stroke-width: 0.8"/>
      </g>
     </g>
     <g id="text_29">
      <!-- $\mathdefault{0.75}$ -->
      <g transform="translate(429.322727 337.237813) scale(0.14 -0.14)">
       <defs>
        <path id="OpenSans-37" d="M 891 0 
L 2784 4091 
L 294 4091 
L 294 4569 
L 3334 4569 
L 3334 4153 
L 1466 0 
L 891 0 
z
" transform="scale(0.015625)"/>
       </defs>
       <use xlink:href="#OpenSans-30" transform="translate(0 0.484375)"/>
       <use xlink:href="#OpenSans-2e" transform="translate(57.177734 0.484375)"/>
       <use xlink:href="#OpenSans-37" transform="translate(83.789062 0.484375)"/>
       <use xlink:href="#OpenSans-35" transform="translate(140.966797 0.484375)"/>
      </g>
     </g>
    </g>
    <g id="xtick_17">
     <g id="line2d_41">
      <g>
       <use xlink:href="#m5e992d5838" x="493.98" y="320.6" style="stroke: #000000; stroke-width: 0.8"/>
      </g>
     </g>
     <g id="text_30">
      <!-- $\mathdefault{1.00}$ -->
      <g transform="translate(480.05 337.237813) scale(0.14 -0.14)">
       <use xlink:href="#OpenSans-31" transform="translate(0 0.484375)"/>
       <use xlink:href="#OpenSans-2e" transform="translate(57.177734 0.484375)"/>
       <use xlink:href="#OpenSans-30" transform="translate(83.789062 0.484375)"/>
       <use xlink:href="#OpenSans-30" transform="translate(140.966797 0.484375)"/>
      </g>
     </g>
    </g>
   </g>
   <g id="matplotlib.axis_8">
    <g id="ytick_13">
     <g id="line2d_42">
      <g>
       <use xlink:href="#mf1c8c133fc" x="291.070909" y="320.6" style="stroke: #000000; stroke-width: 0.8"/>
      </g>
     </g>
    </g>
    <g id="ytick_14">
     <g id="line2d_43">
      <g>
       <use xlink:href="#mf1c8c133fc" x="291.070909" y="278.6" style="stroke: #000000; stroke-width: 0.8"/>
      </g>
     </g>
    </g>
    <g id="ytick_15">
     <g id="line2d_44">
      <g>
       <use xlink:href="#mf1c8c133fc" x="291.070909" y="236.6" style="stroke: #000000; stroke-width: 0.8"/>
      </g>
     </g>
    </g>
    <g id="ytick_16">
     <g id="line2d_45">
      <g>
       <use xlink:href="#mf1c8c133fc" x="291.070909" y="194.6" style="stroke: #000000; stroke-width: 0.8"/>
      </g>
     </g>
    </g>
   </g>
   <g id="patch_12">
    <path d="M 291.070909 320.6 
L 291.070909 194.6 
" style="fill: none; stroke: #000000; stroke-width: 0.8; stroke-linejoin: miter; stroke-linecap: square"/>
   </g>
   <g id="patch_13">
    <path d="M 291.070909 320.6 
L 493.98 320.6 
" style="fill: none; stroke: #000000; stroke-width: 0.8; stroke-linejoin: miter; stroke-linecap: square"/>
   </g>
  </g>
  <g id="legend_1">
   <g id="line2d_46">
    <path d="M 58.445469 18.337812 
L 65.445469 18.337812 
L 72.445469 18.337812 
" style="fill: none; stroke: #333333; stroke-width: 1.5; stroke-linecap: square"/>
   </g>
   <g id="text_31">
    <!-- Virial ($n\leq 2$) -->
    <g transform="translate(83.645469 23.237812) scale(0.14 -0.14)">
     <defs>
      <path id="OpenSans-56" d="M 3238 4569 
L 3809 4569 
L 2163 0 
L 1638 0 
L 0 4569 
L 563 4569 
L 1613 1613 
Q 1794 1103 1900 622 
Q 2013 1128 2194 1631 
L 3238 4569 
z
" transform="scale(0.015625)"/>
      <path id="OpenSans-69" d="M 1069 0 
L 550 0 
L 550 3425 
L 1069 3425 
L 1069 0 
z
M 506 4353 
Q 506 4531 593 4614 
Q 681 4697 813 4697 
Q 938 4697 1028 4612 
Q 1119 4528 1119 4353 
Q 1119 4178 1028 4092 
Q 938 4006 813 4006 
Q 681 4006 593 4092 
Q 506 4178 506 4353 
z
" transform="scale(0.015625)"/>
      <path id="OpenSans-72" d="M 2113 3488 
Q 2341 3488 2522 3450 
L 2450 2969 
Q 2238 3016 2075 3016 
Q 1659 3016 1364 2678 
Q 1069 2341 1069 1838 
L 1069 0 
L 550 0 
L 550 3425 
L 978 3425 
L 1038 2791 
L 1063 2791 
Q 1253 3125 1522 3306 
Q 1791 3488 2113 3488 
z
" transform="scale(0.015625)"/>
      <path id="OpenSans-61" d="M 2656 0 
L 2553 488 
L 2528 488 
Q 2272 166 2017 51 
Q 1763 -63 1381 -63 
Q 872 -63 583 200 
Q 294 463 294 947 
Q 294 1984 1953 2034 
L 2534 2053 
L 2534 2266 
Q 2534 2669 2361 2861 
Q 2188 3053 1806 3053 
Q 1378 3053 838 2791 
L 678 3188 
Q 931 3325 1232 3403 
Q 1534 3481 1838 3481 
Q 2450 3481 2745 3209 
Q 3041 2938 3041 2338 
L 3041 0 
L 2656 0 
z
M 1484 366 
Q 1969 366 2245 631 
Q 2522 897 2522 1375 
L 2522 1684 
L 2003 1663 
Q 1384 1641 1111 1470 
Q 838 1300 838 941 
Q 838 659 1008 512 
Q 1178 366 1484 366 
z
" transform="scale(0.015625)"/>
      <path id="OpenSans-6c" d="M 1069 0 
L 550 0 
L 550 4863 
L 1069 4863 
L 1069 0 
z
" transform="scale(0.015625)"/>
      <path id="OpenSans-20" transform="scale(0.015625)"/>
      <path id="OpenSans-28" d="M 256 1753 
Q 256 2581 498 3303 
Q 741 4025 1197 4569 
L 1703 4569 
Q 1253 3966 1026 3244 
Q 800 2522 800 1759 
Q 800 1009 1031 293 
Q 1263 -422 1697 -1013 
L 1197 -1013 
Q 738 -481 497 228 
Q 256 938 256 1753 
z
" transform="scale(0.015625)"/>
      <path id="OpenSans-6e" d="M 2894 0 
L 2894 2216 
Q 2894 2634 2703 2840 
Q 2513 3047 2106 3047 
Q 1569 3047 1319 2756 
Q 1069 2466 1069 1797 
L 1069 0 
L 550 0 
L 550 3425 
L 972 3425 
L 1056 2956 
L 1081 2956 
Q 1241 3209 1528 3348 
Q 1816 3488 2169 3488 
Q 2788 3488 3100 3189 
Q 3413 2891 3413 2234 
L 3413 0 
L 2894 0 
z
" transform="scale(0.015625)"/>
      <path id="OpenSans-2264" d="M 3328 756 
L 325 2075 
L 325 2381 
L 3328 3878 
L 3328 3413 
L 884 2253 
L 3328 1228 
L 3328 756 
z
M 325 -7 
L 325 424 
L 3328 424 
L 3328 -7 
L 325 -7 
z
" transform="scale(0.015625)"/>
      <path id="OpenSans-29" d="M 1638 1753 
Q 1638 931 1395 221 
Q 1153 -488 697 -1013 
L 197 -1013 
Q 631 -425 862 292 
Q 1094 1009 1094 1759 
Q 1094 2522 867 3244 
Q 641 3966 191 4569 
L 697 4569 
Q 1156 4022 1397 3298 
Q 1638 2575 1638 1753 
z
" transform="scale(0.015625)"/>
     </defs>
     <use xlink:href="#OpenSans-56" transform="translate(0 0.015625)"/>
     <use xlink:href="#OpenSans-69" transform="translate(59.521484 0.015625)"/>
     <use xlink:href="#OpenSans-72" transform="translate(84.814453 0.015625)"/>
     <use xlink:href="#OpenSans-69" transform="translate(125.634766 0.015625)"/>
     <use xlink:href="#OpenSans-61" transform="translate(150.927734 0.015625)"/>
     <use xlink:href="#OpenSans-6c" transform="translate(206.542969 0.015625)"/>
     <use xlink:href="#OpenSans-20" transform="translate(231.835938 0.015625)"/>
     <use xlink:href="#OpenSans-28" transform="translate(257.8125 0.015625)"/>
     <use xlink:href="#OpenSans-6e" transform="translate(287.402344 0.015625)"/>
     <use xlink:href="#OpenSans-2264" transform="translate(368.261719 0.015625)"/>
     <use xlink:href="#OpenSans-32" transform="translate(444.921875 0.015625)"/>
     <use xlink:href="#OpenSans-29" transform="translate(502.099609 0.015625)"/>
    </g>
   </g>
   <g id="line2d_47">
    <path d="M 186.125469 18.337812 
L 193.125469 18.337812 
L 200.125469 18.337812 
" style="fill: none; stroke: #1f77b4; stroke-width: 1.5; stroke-linecap: square"/>
   </g>
   <g id="text_32">
    <!-- Virial ($n\leq 6$) -->
    <g transform="translate(211.325469 23.237812) scale(0.14 -0.14)">
     <use xlink:href="#OpenSans-56" transform="translate(0 0.015625)"/>
     <use xlink:href="#OpenSans-69" transform="translate(59.521484 0.015625)"/>
     <use xlink:href="#OpenSans-72" transform="translate(84.814453 0.015625)"/>
     <use xlink:href="#OpenSans-69" transform="translate(125.634766 0.015625)"/>
     <use xlink:href="#OpenSans-61" transform="translate(150.927734 0.015625)"/>
     <use xlink:href="#OpenSans-6c" transform="translate(206.542969 0.015625)"/>
     <use xlink:href="#OpenSans-20" transform="translate(231.835938 0.015625)"/>
     <use xlink:href="#OpenSans-28" transform="translate(257.8125 0.015625)"/>
     <use xlink:href="#OpenSans-6e" transform="translate(287.402344 0.015625)"/>
     <use xlink:href="#OpenSans-2264" transform="translate(368.261719 0.015625)"/>
     <use xlink:href="#OpenSans-36" transform="translate(444.921875 0.015625)"/>
     <use xlink:href="#OpenSans-29" transform="translate(502.099609 0.015625)"/>
    </g>
   </g>
   <g id="line2d_48">
    <path d="M 313.805469 18.337812 
L 320.805469 18.337812 
L 327.805469 18.337812 
" style="fill: none; stroke: #d62728; stroke-width: 1.5; stroke-linecap: square"/>
   </g>
   <g id="text_33">
    <!-- Carnahan-Starling -->
    <g transform="translate(339.005469 23.237812) scale(0.14 -0.14)">
     <defs>
      <path id="OpenSans-68" d="M 2894 0 
L 2894 2216 
Q 2894 2634 2703 2840 
Q 2513 3047 2106 3047 
Q 1566 3047 1317 2753 
Q 1069 2459 1069 1791 
L 1069 0 
L 550 0 
L 550 4863 
L 1069 4863 
L 1069 3391 
Q 1069 3125 1044 2950 
L 1075 2950 
Q 1228 3197 1511 3339 
Q 1794 3481 2156 3481 
Q 2784 3481 3098 3182 
Q 3413 2884 3413 2234 
L 3413 0 
L 2894 0 
z
" transform="scale(0.015625)"/>
      <path id="OpenSans-2d" d="M 263 1478 
L 263 1953 
L 1797 1953 
L 1797 1478 
L 263 1478 
z
" transform="scale(0.015625)"/>
      <path id="OpenSans-53" d="M 3206 1216 
Q 3206 613 2768 275 
Q 2331 -63 1581 -63 
Q 769 -63 331 147 
L 331 659 
Q 613 541 944 472 
Q 1275 403 1600 403 
Q 2131 403 2400 604 
Q 2669 806 2669 1166 
Q 2669 1403 2573 1554 
Q 2478 1706 2254 1834 
Q 2031 1963 1575 2125 
Q 938 2353 664 2665 
Q 391 2978 391 3481 
Q 391 4009 787 4321 
Q 1184 4634 1838 4634 
Q 2519 4634 3091 4384 
L 2925 3922 
Q 2359 4159 1825 4159 
Q 1403 4159 1165 3978 
Q 928 3797 928 3475 
Q 928 3238 1015 3086 
Q 1103 2934 1311 2807 
Q 1519 2681 1947 2528 
Q 2666 2272 2936 1978 
Q 3206 1684 3206 1216 
z
" transform="scale(0.015625)"/>
      <path id="OpenSans-74" d="M 1656 366 
Q 1794 366 1922 386 
Q 2050 406 2125 428 
L 2125 31 
Q 2041 -9 1877 -36 
Q 1713 -63 1581 -63 
Q 588 -63 588 984 
L 588 3022 
L 97 3022 
L 97 3272 
L 588 3488 
L 806 4219 
L 1106 4219 
L 1106 3425 
L 2100 3425 
L 2100 3022 
L 1106 3022 
L 1106 1006 
Q 1106 697 1253 531 
Q 1400 366 1656 366 
z
" transform="scale(0.015625)"/>
      <path id="OpenSans-67" d="M 3353 3425 
L 3353 3097 
L 2719 3022 
Q 2806 2913 2875 2736 
Q 2944 2559 2944 2338 
Q 2944 1834 2600 1534 
Q 2256 1234 1656 1234 
Q 1503 1234 1369 1259 
Q 1038 1084 1038 819 
Q 1038 678 1153 611 
Q 1269 544 1550 544 
L 2156 544 
Q 2713 544 3011 309 
Q 3309 75 3309 -372 
Q 3309 -941 2853 -1239 
Q 2397 -1538 1522 -1538 
Q 850 -1538 486 -1288 
Q 122 -1038 122 -581 
Q 122 -269 322 -40 
Q 522 188 884 269 
Q 753 328 664 453 
Q 575 578 575 744 
Q 575 931 675 1072 
Q 775 1213 991 1344 
Q 725 1453 558 1715 
Q 391 1978 391 2316 
Q 391 2878 728 3183 
Q 1066 3488 1684 3488 
Q 1953 3488 2169 3425 
L 3353 3425 
z
M 622 -575 
Q 622 -853 856 -997 
Q 1091 -1141 1528 -1141 
Q 2181 -1141 2495 -945 
Q 2809 -750 2809 -416 
Q 2809 -138 2637 -30 
Q 2466 78 1991 78 
L 1369 78 
Q 1016 78 819 -90 
Q 622 -259 622 -575 
z
M 903 2328 
Q 903 1969 1106 1784 
Q 1309 1600 1672 1600 
Q 2431 1600 2431 2338 
Q 2431 3109 1663 3109 
Q 1297 3109 1100 2912 
Q 903 2716 903 2328 
z
" transform="scale(0.015625)"/>
     </defs>
     <use xlink:href="#OpenSans-43"/>
     <use xlink:href="#OpenSans-61" x="63.085938"/>
     <use xlink:href="#OpenSans-72" x="118.701172"/>
     <use xlink:href="#OpenSans-6e" x="159.521484"/>
     <use xlink:href="#OpenSans-61" x="220.898438"/>
     <use xlink:href="#OpenSans-68" x="276.513672"/>
     <use xlink:href="#OpenSans-61" x="337.890625"/>
     <use xlink:href="#OpenSans-6e" x="393.505859"/>
     <use xlink:href="#OpenSans-2d" x="454.882812"/>
     <use xlink:href="#OpenSans-53" x="487.060547"/>
     <use xlink:href="#OpenSans-74" x="541.943359"/>
     <use xlink:href="#OpenSans-61" x="577.246094"/>
     <use xlink:href="#OpenSans-72" x="632.861328"/>
     <use xlink:href="#OpenSans-6c" x="673.681641"/>
     <use xlink:href="#OpenSans-69" x="698.974609"/>
     <use xlink:href="#OpenSans-6e" x="724.267578"/>
     <use xlink:href="#OpenSans-67" x="785.644531"/>
    </g>
   </g>
  </g>
 </g>
 <defs>
  <clipPath id="p1fd96d52c3">
   <rect x="47.58" y="43.4" width="202.909091" height="126"/>
  </clipPath>
  <clipPath id="pfcc4455662">
   <rect x="291.070909" y="43.4" width="202.909091" height="126"/>
  </clipPath>
  <clipPath id="p47c1bfbd96">
   <rect x="47.58" y="194.6" width="202.909091" height="126"/>
  </clipPath>
 </defs>
</svg>
