<?xml version="1.0" encoding="utf-8" standalone="no"?>
<!DOCTYPE svg PUBLIC "-//W3C//DTD SVG 1.1//EN"
  "http://www.w3.org/Graphics/SVG/1.1/DTD/svg11.dtd">
<svg xmlns:xlink="http://www.w3.org/1999/xlink" width="469.19952pt" height="353.99952pt" viewBox="0 0 469.19952 353.99952" xmlns="http://www.w3.org/2000/svg" version="1.1">
 <metadata>
  <rdf:RDF xmlns:dc="http://purl.org/dc/elements/1.1/" xmlns:cc="http://creativecommons.org/ns#" xmlns:rdf="http://www.w3.org/1999/02/22-rdf-syntax-ns#">
   <cc:Work>
    <dc:type rdf:resource="http://purl.org/dc/dcmitype/StillImage"/>
    <dc:date>2024-03-26T12:03:18.904539</dc:date>
    <dc:format>image/svg+xml</dc:format>
    <dc:creator>
     <cc:Agent>
      <dc:title>Matplotlib v3.8.3, https://matplotlib.org/</dc:title>
     </cc:Agent>
    </dc:creator>
   </cc:Work>
  </rdf:RDF>
 </metadata>
 <defs>
  <style type="text/css">*{stroke-linejoin: round; stroke-linecap: butt}</style>
 </defs>
 <g id="figure_1">
  <g id="patch_1">
   <path d="M 0 353.99952 
L 469.19952 353.99952 
L 469.19952 0 
L 0 0 
z
" style="fill: #ffffff"/>
  </g>
  <g id="axes_1">
   <g id="patch_2">
    <path d="M 50.942188 306.794665 
L 244.475614 306.794665 
L 244.475614 12.518906 
L 50.942188 12.518906 
z
" style="fill: #ffffff"/>
   </g>
   <g id="matplotlib.axis_1">
    <g id="xtick_1">
     <g id="line2d_1">
      <defs>
       <path id="mc9f0ee4cc6" d="M 0 0 
L 0 4 
" style="stroke: #000000; stroke-width: 0.8"/>
      </defs>
      <g>
       <use xlink:href="#mc9f0ee4cc6" x="50.942188" y="306.794665" style="stroke: #000000; stroke-width: 0.8"/>
      </g>
     </g>
     <g id="text_1">
      <!-- $\mathdefault{0.50}$ -->
      <g transform="translate(37.012188 323.432477) scale(0.14 -0.14)">
       <defs>
        <path id="OpenSans-30" d="M 3341 2291 
Q 3341 1106 2967 521 
Q 2594 -63 1825 -63 
Q 1088 -63 703 535 
Q 319 1134 319 2291 
Q 319 3484 691 4062 
Q 1063 4641 1825 4641 
Q 2569 4641 2955 4037 
Q 3341 3434 3341 2291 
z
M 844 2291 
Q 844 1294 1078 839 
Q 1313 384 1825 384 
Q 2344 384 2576 845 
Q 2809 1306 2809 2291 
Q 2809 3275 2576 3733 
Q 2344 4191 1825 4191 
Q 1313 4191 1078 3739 
Q 844 3288 844 2291 
z
" transform="scale(0.015625)"/>
        <path id="OpenSans-2e" d="M 475 331 
Q 475 541 570 648 
Q 666 756 844 756 
Q 1025 756 1126 648 
Q 1228 541 1228 331 
Q 1228 128 1125 18 
Q 1022 -91 844 -91 
Q 684 -91 579 7 
Q 475 106 475 331 
z
" transform="scale(0.015625)"/>
        <path id="OpenSans-35" d="M 1741 2791 
Q 2463 2791 2877 2433 
Q 3291 2075 3291 1453 
Q 3291 744 2839 340 
Q 2388 -63 1594 -63 
Q 822 -63 416 184 
L 416 684 
Q 634 544 959 464 
Q 1284 384 1600 384 
Q 2150 384 2454 643 
Q 2759 903 2759 1394 
Q 2759 2350 1588 2350 
Q 1291 2350 794 2259 
L 525 2431 
L 697 4569 
L 2969 4569 
L 2969 4091 
L 1141 4091 
L 1025 2719 
Q 1384 2791 1741 2791 
z
" transform="scale(0.015625)"/>
       </defs>
       <use xlink:href="#OpenSans-30" transform="translate(0 0.484375)"/>
       <use xlink:href="#OpenSans-2e" transform="translate(57.177734 0.484375)"/>
       <use xlink:href="#OpenSans-35" transform="translate(83.789062 0.484375)"/>
       <use xlink:href="#OpenSans-30" transform="translate(140.966797 0.484375)"/>
      </g>
     </g>
    </g>
    <g id="xtick_2">
     <g id="line2d_2">
      <g>
       <use xlink:href="#mc9f0ee4cc6" x="99.325544" y="306.794665" style="stroke: #000000; stroke-width: 0.8"/>
      </g>
     </g>
     <g id="text_2">
      <!-- $\mathdefault{0.75}$ -->
      <g transform="translate(85.395544 323.432477) scale(0.14 -0.14)">
       <defs>
        <path id="OpenSans-37" d="M 891 0 
L 2784 4091 
L 294 4091 
L 294 4569 
L 3334 4569 
L 3334 4153 
L 1466 0 
L 891 0 
z
" transform="scale(0.015625)"/>
       </defs>
       <use xlink:href="#OpenSans-30" transform="translate(0 0.484375)"/>
       <use xlink:href="#OpenSans-2e" transform="translate(57.177734 0.484375)"/>
       <use xlink:href="#OpenSans-37" transform="translate(83.789062 0.484375)"/>
       <use xlink:href="#OpenSans-35" transform="translate(140.966797 0.484375)"/>
      </g>
     </g>
    </g>
    <g id="xtick_3">
     <g id="line2d_3">
      <g>
       <use xlink:href="#mc9f0ee4cc6" x="147.708901" y="306.794665" style="stroke: #000000; stroke-width: 0.8"/>
      </g>
     </g>
     <g id="text_3">
      <!-- $\mathdefault{1.00}$ -->
      <g transform="translate(133.778901 323.432477) scale(0.14 -0.14)">
       <defs>
        <path id="OpenSans-31" d="M 2234 0 
L 1728 0 
L 1728 3256 
Q 1728 3663 1753 4025 
Q 1688 3959 1606 3887 
Q 1525 3816 863 3278 
L 588 3634 
L 1797 4569 
L 2234 4569 
L 2234 0 
z
" transform="scale(0.015625)"/>
       </defs>
       <use xlink:href="#OpenSans-31" transform="translate(0 0.484375)"/>
       <use xlink:href="#OpenSans-2e" transform="translate(57.177734 0.484375)"/>
       <use xlink:href="#OpenSans-30" transform="translate(83.789062 0.484375)"/>
       <use xlink:href="#OpenSans-30" transform="translate(140.966797 0.484375)"/>
      </g>
     </g>
    </g>
    <g id="xtick_4">
     <g id="line2d_4">
      <g>
       <use xlink:href="#mc9f0ee4cc6" x="196.092257" y="306.794665" style="stroke: #000000; stroke-width: 0.8"/>
      </g>
     </g>
     <g id="text_4">
      <!-- $\mathdefault{1.25}$ -->
      <g transform="translate(182.302257 323.432477) scale(0.14 -0.14)">
       <defs>
        <path id="OpenSans-32" d="M 3316 0 
L 313 0 
L 313 447 
L 1516 1656 
Q 2066 2213 2241 2450 
Q 2416 2688 2503 2913 
Q 2591 3138 2591 3397 
Q 2591 3763 2369 3977 
Q 2147 4191 1753 4191 
Q 1469 4191 1214 4097 
Q 959 4003 647 3756 
L 372 4109 
Q 1003 4634 1747 4634 
Q 2391 4634 2756 4304 
Q 3122 3975 3122 3419 
Q 3122 2984 2878 2559 
Q 2634 2134 1966 1484 
L 966 506 
L 966 481 
L 3316 481 
L 3316 0 
z
" transform="scale(0.015625)"/>
       </defs>
       <use xlink:href="#OpenSans-31" transform="translate(0 0.59375)"/>
       <use xlink:href="#OpenSans-2e" transform="translate(57.177734 0.59375)"/>
       <use xlink:href="#OpenSans-32" transform="translate(81.789062 0.59375)"/>
       <use xlink:href="#OpenSans-35" transform="translate(138.966797 0.59375)"/>
      </g>
     </g>
    </g>
    <g id="xtick_5">
     <g id="line2d_5">
      <g>
       <use xlink:href="#mc9f0ee4cc6" x="244.475614" y="306.794665" style="stroke: #000000; stroke-width: 0.8"/>
      </g>
     </g>
     <g id="text_5">
      <!-- $\mathdefault{1.50}$ -->
      <g transform="translate(230.545614 323.432477) scale(0.14 -0.14)">
       <use xlink:href="#OpenSans-31" transform="translate(0 0.484375)"/>
       <use xlink:href="#OpenSans-2e" transform="translate(57.177734 0.484375)"/>
       <use xlink:href="#OpenSans-35" transform="translate(83.789062 0.484375)"/>
       <use xlink:href="#OpenSans-30" transform="translate(140.966797 0.484375)"/>
      </g>
     </g>
    </g>
   </g>
   <g id="matplotlib.axis_2">
    <g id="ytick_1">
     <g id="line2d_6">
      <defs>
       <path id="mf97c8e12ec" d="M 0 0 
L -4 0 
" style="stroke: #000000; stroke-width: 0.8"/>
      </defs>
      <g>
       <use xlink:href="#mf97c8e12ec" x="50.942188" y="306.794665" style="stroke: #000000; stroke-width: 0.8"/>
      </g>
     </g>
     <g id="text_6">
      <!-- $\mathdefault{0.0}$ -->
      <g transform="translate(25.202188 312.113571) scale(0.14 -0.14)">
       <use xlink:href="#OpenSans-30" transform="translate(0 0.484375)"/>
       <use xlink:href="#OpenSans-2e" transform="translate(57.177734 0.484375)"/>
       <use xlink:href="#OpenSans-30" transform="translate(83.789062 0.484375)"/>
      </g>
     </g>
    </g>
    <g id="ytick_2">
     <g id="line2d_7">
      <g>
       <use xlink:href="#mf97c8e12ec" x="50.942188" y="274.097358" style="stroke: #000000; stroke-width: 0.8"/>
      </g>
     </g>
     <g id="text_7">
      <!-- $\mathdefault{0.5}$ -->
      <g transform="translate(25.202188 279.416265) scale(0.14 -0.14)">
       <use xlink:href="#OpenSans-30" transform="translate(0 0.484375)"/>
       <use xlink:href="#OpenSans-2e" transform="translate(57.177734 0.484375)"/>
       <use xlink:href="#OpenSans-35" transform="translate(83.789062 0.484375)"/>
      </g>
     </g>
    </g>
    <g id="ytick_3">
     <g id="line2d_8">
      <g>
       <use xlink:href="#mf97c8e12ec" x="50.942188" y="241.400052" style="stroke: #000000; stroke-width: 0.8"/>
      </g>
     </g>
     <g id="text_8">
      <!-- $\mathdefault{1.0}$ -->
      <g transform="translate(25.202188 246.718958) scale(0.14 -0.14)">
       <use xlink:href="#OpenSans-31" transform="translate(0 0.484375)"/>
       <use xlink:href="#OpenSans-2e" transform="translate(57.177734 0.484375)"/>
       <use xlink:href="#OpenSans-30" transform="translate(83.789062 0.484375)"/>
      </g>
     </g>
    </g>
    <g id="ytick_4">
     <g id="line2d_9">
      <g>
       <use xlink:href="#mf97c8e12ec" x="50.942188" y="208.702745" style="stroke: #000000; stroke-width: 0.8"/>
      </g>
     </g>
     <g id="text_9">
      <!-- $\mathdefault{1.5}$ -->
      <g transform="translate(25.202188 214.021652) scale(0.14 -0.14)">
       <use xlink:href="#OpenSans-31" transform="translate(0 0.609375)"/>
       <use xlink:href="#OpenSans-2e" transform="translate(57.177734 0.609375)"/>
       <use xlink:href="#OpenSans-35" transform="translate(83.789062 0.609375)"/>
      </g>
     </g>
    </g>
    <g id="ytick_5">
     <g id="line2d_10">
      <g>
       <use xlink:href="#mf97c8e12ec" x="50.942188" y="176.005439" style="stroke: #000000; stroke-width: 0.8"/>
      </g>
     </g>
     <g id="text_10">
      <!-- $\mathdefault{2.0}$ -->
      <g transform="translate(25.202188 181.324345) scale(0.14 -0.14)">
       <use xlink:href="#OpenSans-32" transform="translate(0 0.484375)"/>
       <use xlink:href="#OpenSans-2e" transform="translate(57.177734 0.484375)"/>
       <use xlink:href="#OpenSans-30" transform="translate(83.789062 0.484375)"/>
      </g>
     </g>
    </g>
    <g id="ytick_6">
     <g id="line2d_11">
      <g>
       <use xlink:href="#mf97c8e12ec" x="50.942188" y="143.308132" style="stroke: #000000; stroke-width: 0.8"/>
      </g>
     </g>
     <g id="text_11">
      <!-- $\mathdefault{2.5}$ -->
      <g transform="translate(25.202188 148.627039) scale(0.14 -0.14)">
       <use xlink:href="#OpenSans-32" transform="translate(0 0.59375)"/>
       <use xlink:href="#OpenSans-2e" transform="translate(57.177734 0.59375)"/>
       <use xlink:href="#OpenSans-35" transform="translate(83.789062 0.59375)"/>
      </g>
     </g>
    </g>
    <g id="ytick_7">
     <g id="line2d_12">
      <g>
       <use xlink:href="#mf97c8e12ec" x="50.942188" y="110.610826" style="stroke: #000000; stroke-width: 0.8"/>
      </g>
     </g>
     <g id="text_12">
      <!-- $\mathdefault{3.0}$ -->
      <g transform="translate(25.202188 115.929732) scale(0.14 -0.14)">
       <defs>
        <path id="OpenSans-33" d="M 3144 3494 
Q 3144 3056 2898 2778 
Q 2653 2500 2203 2406 
L 2203 2381 
Q 2753 2313 3018 2031 
Q 3284 1750 3284 1294 
Q 3284 641 2831 289 
Q 2378 -63 1544 -63 
Q 1181 -63 879 -8 
Q 578 47 294 184 
L 294 678 
Q 591 531 927 454 
Q 1263 378 1563 378 
Q 2747 378 2747 1306 
Q 2747 2138 1441 2138 
L 991 2138 
L 991 2584 
L 1447 2584 
Q 1981 2584 2293 2820 
Q 2606 3056 2606 3475 
Q 2606 3809 2376 4000 
Q 2147 4191 1753 4191 
Q 1453 4191 1187 4109 
Q 922 4028 581 3809 
L 319 4159 
Q 600 4381 967 4507 
Q 1334 4634 1741 4634 
Q 2406 4634 2775 4329 
Q 3144 4025 3144 3494 
z
" transform="scale(0.015625)"/>
       </defs>
       <use xlink:href="#OpenSans-33" transform="translate(0 0.484375)"/>
       <use xlink:href="#OpenSans-2e" transform="translate(57.177734 0.484375)"/>
       <use xlink:href="#OpenSans-30" transform="translate(83.789062 0.484375)"/>
      </g>
     </g>
    </g>
    <g id="ytick_8">
     <g id="line2d_13">
      <g>
       <use xlink:href="#mf97c8e12ec" x="50.942188" y="77.913519" style="stroke: #000000; stroke-width: 0.8"/>
      </g>
     </g>
     <g id="text_13">
      <!-- $\mathdefault{3.5}$ -->
      <g transform="translate(25.202188 83.232426) scale(0.14 -0.14)">
       <use xlink:href="#OpenSans-33" transform="translate(0 0.59375)"/>
       <use xlink:href="#OpenSans-2e" transform="translate(57.177734 0.59375)"/>
       <use xlink:href="#OpenSans-35" transform="translate(83.789062 0.59375)"/>
      </g>
     </g>
    </g>
    <g id="ytick_9">
     <g id="line2d_14">
      <g>
       <use xlink:href="#mf97c8e12ec" x="50.942188" y="45.216213" style="stroke: #000000; stroke-width: 0.8"/>
      </g>
     </g>
     <g id="text_14">
      <!-- $\mathdefault{4.0}$ -->
      <g transform="translate(25.202188 50.535119) scale(0.14 -0.14)">
       <defs>
        <path id="OpenSans-34" d="M 3531 1050 
L 2853 1050 
L 2853 0 
L 2356 0 
L 2356 1050 
L 134 1050 
L 134 1503 
L 2303 4594 
L 2853 4594 
L 2853 1522 
L 3531 1522 
L 3531 1050 
z
M 2356 1522 
L 2356 3041 
Q 2356 3488 2388 4050 
L 2363 4050 
Q 2213 3750 2081 3553 
L 653 1522 
L 2356 1522 
z
" transform="scale(0.015625)"/>
       </defs>
       <use xlink:href="#OpenSans-34" transform="translate(0 0.484375)"/>
       <use xlink:href="#OpenSans-2e" transform="translate(57.177734 0.484375)"/>
       <use xlink:href="#OpenSans-30" transform="translate(83.789062 0.484375)"/>
      </g>
     </g>
    </g>
    <g id="ytick_10">
     <g id="line2d_15">
      <g>
       <use xlink:href="#mf97c8e12ec" x="50.942188" y="12.518906" style="stroke: #000000; stroke-width: 0.8"/>
      </g>
     </g>
     <g id="text_15">
      <!-- $\mathdefault{4.5}$ -->
      <g transform="translate(25.202188 17.837812) scale(0.14 -0.14)">
       <use xlink:href="#OpenSans-34" transform="translate(0 0.21875)"/>
       <use xlink:href="#OpenSans-2e" transform="translate(57.177734 0.21875)"/>
       <use xlink:href="#OpenSans-35" transform="translate(83.789062 0.21875)"/>
      </g>
     </g>
    </g>
    <g id="text_16">
     <!-- g(r) -->
     <g transform="translate(17.837812 170.492567) rotate(-90) scale(0.14 -0.14)">
      <defs>
       <path id="OpenSans-67" d="M 3353 3425 
L 3353 3097 
L 2719 3022 
Q 2806 2913 2875 2736 
Q 2944 2559 2944 2338 
Q 2944 1834 2600 1534 
Q 2256 1234 1656 1234 
Q 1503 1234 1369 1259 
Q 1038 1084 1038 819 
Q 1038 678 1153 611 
Q 1269 544 1550 544 
L 2156 544 
Q 2713 544 3011 309 
Q 3309 75 3309 -372 
Q 3309 -941 2853 -1239 
Q 2397 -1538 1522 -1538 
Q 850 -1538 486 -1288 
Q 122 -1038 122 -581 
Q 122 -269 322 -40 
Q 522 188 884 269 
Q 753 328 664 453 
Q 575 578 575 744 
Q 575 931 675 1072 
Q 775 1213 991 1344 
Q 725 1453 558 1715 
Q 391 1978 391 2316 
Q 391 2878 728 3183 
Q 1066 3488 1684 3488 
Q 1953 3488 2169 3425 
L 3353 3425 
z
M 622 -575 
Q 622 -853 856 -997 
Q 1091 -1141 1528 -1141 
Q 2181 -1141 2495 -945 
Q 2809 -750 2809 -416 
Q 2809 -138 2637 -30 
Q 2466 78 1991 78 
L 1369 78 
Q 1016 78 819 -90 
Q 622 -259 622 -575 
z
M 903 2328 
Q 903 1969 1106 1784 
Q 1309 1600 1672 1600 
Q 2431 1600 2431 2338 
Q 2431 3109 1663 3109 
Q 1297 3109 1100 2912 
Q 903 2716 903 2328 
z
" transform="scale(0.015625)"/>
       <path id="OpenSans-28" d="M 256 1753 
Q 256 2581 498 3303 
Q 741 4025 1197 4569 
L 1703 4569 
Q 1253 3966 1026 3244 
Q 800 2522 800 1759 
Q 800 1009 1031 293 
Q 1263 -422 1697 -1013 
L 1197 -1013 
Q 738 -481 497 228 
Q 256 938 256 1753 
z
" transform="scale(0.015625)"/>
       <path id="OpenSans-72" d="M 2113 3488 
Q 2341 3488 2522 3450 
L 2450 2969 
Q 2238 3016 2075 3016 
Q 1659 3016 1364 2678 
Q 1069 2341 1069 1838 
L 1069 0 
L 550 0 
L 550 3425 
L 978 3425 
L 1038 2791 
L 1063 2791 
Q 1253 3125 1522 3306 
Q 1791 3488 2113 3488 
z
" transform="scale(0.015625)"/>
       <path id="OpenSans-29" d="M 1638 1753 
Q 1638 931 1395 221 
Q 1153 -488 697 -1013 
L 197 -1013 
Q 631 -425 862 292 
Q 1094 1009 1094 1759 
Q 1094 2522 867 3244 
Q 641 3966 191 4569 
L 697 4569 
Q 1156 4022 1397 3298 
Q 1638 2575 1638 1753 
z
" transform="scale(0.015625)"/>
      </defs>
      <use xlink:href="#OpenSans-67"/>
      <use xlink:href="#OpenSans-28" x="54.785156"/>
      <use xlink:href="#OpenSans-72" x="84.375"/>
      <use xlink:href="#OpenSans-29" x="125.195312"/>
     </g>
    </g>
   </g>
   <g id="line2d_16">
    <path d="M -1 306.794665 
L 0.139663 306.794665 
L 4.977999 306.794665 
L 9.816334 306.794665 
L 14.65467 306.794665 
L 19.493006 306.794665 
L 24.331341 306.794665 
L 29.169677 306.794665 
L 34.008013 306.794665 
L 38.846348 306.794665 
L 43.684684 306.794665 
L 48.52302 306.794665 
L 53.361355 306.794665 
L 58.199691 306.794665 
L 63.038027 306.794665 
L 67.876362 306.794665 
L 72.714698 306.794665 
L 77.553034 306.794665 
L 82.391369 306.794665 
L 87.229705 306.794665 
L 92.068041 306.794665 
L 96.906376 306.794665 
L 101.744712 306.794665 
L 106.583048 306.794665 
L 111.421383 306.794665 
L 116.259719 306.794665 
L 121.098055 306.794665 
L 125.93639 306.794665 
L 130.774726 306.794665 
L 135.613061 306.794665 
L 140.451397 306.794665 
L 145.289733 306.794665 
" clip-path="url(#p31d95b26ea)" style="fill: none; stroke: #333333; stroke-width: 1.5; stroke-linecap: square"/>
   </g>
   <g id="line2d_17">
    <path d="M 150.128068 246.161812 
L 154.966404 232.038224 
L 159.80474 244.051299 
L 164.643075 236.309791 
L 169.481411 237.49545 
L 174.319747 241.625284 
L 179.158082 234.771235 
L 183.996418 229.229454 
L 188.834754 240.916587 
L 193.673089 236.943941 
L 198.511425 237.264475 
L 203.349761 235.287594 
L 208.188096 243.02053 
L 213.026432 234.06953 
L 217.864768 244.760172 
L 222.703103 243.22117 
L 227.541439 240.138469 
L 232.379775 238.006351 
L 237.21811 234.255513 
L 242.056446 237.544386 
L 246.894782 242.552905 
L 251.733117 238.713877 
L 256.571453 243.638132 
L 261.409789 236.434199 
L 266.248124 238.413692 
L 271.08646 239.227829 
L 275.924796 244.033998 
L 285.601467 246.002317 
L 290.439802 241.993209 
L 295.278138 239.630441 
L 300.116474 231.844491 
L 304.954809 241.964878 
L 309.793145 244.858632 
L 314.631481 241.509629 
L 319.469816 242.280837 
L 324.308152 238.95047 
L 329.146488 241.075068 
L 333.984823 238.359968 
L 338.823159 242.63238 
L 343.661495 240.885419 
L 348.49983 244.001788 
L 353.338166 241.890127 
L 358.176502 241.776799 
L 363.014837 242.010902 
L 367.853173 244.150222 
L 372.691509 239.820165 
L 377.529844 241.442959 
L 382.36818 241.434991 
L 387.206516 238.748809 
L 392.044851 243.068197 
L 396.883187 239.020533 
L 401.721523 239.396749 
L 406.559858 247.532926 
L 411.398194 242.046721 
L 416.23653 246.100626 
L 421.074865 244.288815 
L 425.913201 243.37472 
L 430.751537 246.56297 
L 435.589872 240.914824 
L 440.428208 244.890899 
L 445.266543 239.070317 
L 450.104879 242.073073 
L 454.943215 245.54874 
L 459.78155 241.138017 
L 464.619886 240.160265 
L 469.458222 243.105037 
L 470.19952 242.846221 
L 470.19952 242.846221 
" clip-path="url(#p31d95b26ea)" style="fill: none; stroke: #333333; stroke-width: 1.5; stroke-linecap: square"/>
   </g>
   <g id="LineCollection_1">
    <path d="M 147.708901 306.794665 
L 147.708901 12.518906 
" clip-path="url(#p31d95b26ea)" style="fill: none; stroke-dasharray: 3.7,1.6; stroke-dashoffset: 0; stroke: #333333"/>
   </g>
   <g id="line2d_18">
    <path d="M -1 306.794665 
L 0.139663 306.794665 
L 4.977999 306.794665 
L 9.816334 306.794665 
L 14.65467 306.794665 
L 19.493006 306.794665 
L 24.331341 306.794665 
L 29.169677 306.794665 
L 34.008013 306.794665 
L 38.846348 306.794665 
L 43.684684 306.794665 
L 48.52302 306.794665 
L 53.361355 306.794665 
L 58.199691 306.794665 
L 63.038027 306.794665 
L 67.876362 306.794665 
L 72.714698 306.794665 
L 77.553034 306.794665 
L 82.391369 306.794665 
L 87.229705 306.794665 
L 92.068041 306.794665 
L 96.906376 306.794665 
L 101.744712 306.794665 
L 106.583048 306.794665 
L 111.421383 306.794665 
L 116.259719 306.794665 
L 121.098055 306.794665 
L 125.93639 306.794665 
L 130.774726 306.794665 
L 135.613061 306.794665 
L 140.451397 306.794665 
L 145.289733 306.794665 
" clip-path="url(#p31d95b26ea)" style="fill: none; stroke: #1f77b4; stroke-width: 1.5; stroke-linecap: square"/>
   </g>
   <g id="line2d_19">
    <path d="M 150.128068 194.21502 
L 154.966404 195.841746 
L 159.80474 202.89278 
L 164.643075 205.385019 
L 169.481411 210.804768 
L 174.319747 213.813041 
L 179.158082 210.242047 
L 183.996418 213.819343 
L 188.834754 223.251719 
L 193.673089 222.656822 
L 198.511425 224.22264 
L 203.349761 226.110268 
L 208.188096 230.539812 
L 213.026432 226.975476 
L 217.864768 230.148344 
L 222.703103 233.863988 
L 227.541439 237.115147 
L 232.379775 232.893328 
L 237.21811 238.568838 
L 242.056446 239.878001 
L 246.894782 239.601503 
L 251.733117 241.715755 
L 256.571453 242.701397 
L 266.248124 246.131562 
L 271.08646 244.691271 
L 275.924796 238.956994 
L 280.763131 246.641119 
L 285.601467 245.215733 
L 290.439802 241.941539 
L 295.278138 246.638643 
L 300.116474 244.772157 
L 304.954809 244.827531 
L 309.793145 247.432105 
L 314.631481 246.734261 
L 319.469816 244.613467 
L 324.308152 245.026784 
L 329.146488 246.309422 
L 333.984823 244.710329 
L 338.823159 242.002225 
L 343.661495 243.105862 
L 353.338166 241.698545 
L 358.176502 241.461608 
L 363.014837 240.972644 
L 367.853173 237.968035 
L 372.691509 240.302138 
L 377.529844 241.996994 
L 382.36818 239.502243 
L 387.206516 240.420636 
L 401.721523 240.640409 
L 406.559858 241.036597 
L 411.398194 240.665905 
L 416.23653 241.206346 
L 421.074865 240.185128 
L 425.913201 239.747818 
L 430.751537 239.83895 
L 435.589872 241.96957 
L 440.428208 241.025075 
L 445.266543 242.821746 
L 450.104879 240.104986 
L 454.943215 240.43082 
L 459.78155 242.062868 
L 464.619886 241.244206 
L 470.19952 240.602596 
L 470.19952 240.602596 
" clip-path="url(#p31d95b26ea)" style="fill: none; stroke: #1f77b4; stroke-width: 1.5; stroke-linecap: square"/>
   </g>
   <g id="LineCollection_2">
    <path d="M 147.708901 306.794665 
L 147.708901 12.518906 
" clip-path="url(#p31d95b26ea)" style="fill: none; stroke-dasharray: 3.7,1.6; stroke-dashoffset: 0; stroke: #333333"/>
   </g>
   <g id="line2d_20">
    <path d="M -1 306.794665 
L 0.139663 306.794665 
L 4.977999 306.794665 
L 9.816334 306.794665 
L 14.65467 306.794665 
L 19.493006 306.794665 
L 24.331341 306.794665 
L 29.169677 306.794665 
L 34.008013 306.794665 
L 38.846348 306.794665 
L 43.684684 306.794665 
L 48.52302 306.794665 
L 53.361355 306.794665 
L 58.199691 306.794665 
L 63.038027 306.794665 
L 67.876362 306.794665 
L 72.714698 306.794665 
L 77.553034 306.794665 
L 82.391369 306.794665 
L 87.229705 306.794665 
L 92.068041 306.794665 
L 96.906376 306.794665 
L 101.744712 306.794665 
L 106.583048 306.794665 
L 111.421383 306.794665 
L 116.259719 306.794665 
L 121.098055 306.794665 
L 125.93639 306.794665 
L 130.774726 306.794665 
L 135.613061 306.794665 
L 140.451397 306.794665 
L 145.289733 306.794665 
" clip-path="url(#p31d95b26ea)" style="fill: none; stroke: #d62728; stroke-width: 1.5; stroke-linecap: square"/>
   </g>
   <g id="line2d_21">
    <path d="M 150.128068 25.972661 
L 154.966404 61.519539 
L 159.80474 86.249747 
L 164.643075 117.93303 
L 169.481411 142.46059 
L 174.319747 157.103149 
L 179.158082 180.300205 
L 183.996418 197.037401 
L 188.834754 211.468451 
L 193.673089 224.901766 
L 198.511425 232.782954 
L 203.349761 243.959789 
L 208.188096 254.019071 
L 213.026432 258.297951 
L 217.864768 262.7713 
L 222.703103 268.55656 
L 227.541439 269.04906 
L 232.379775 270.325691 
L 237.21811 273.121874 
L 242.056446 273.710607 
L 246.894782 272.012699 
L 251.733117 270.550401 
L 256.571453 271.553752 
L 261.409789 270.434659 
L 266.248124 267.367839 
L 271.08646 264.848433 
L 275.924796 265.951902 
L 280.763131 262.71843 
L 285.601467 258.149399 
L 290.439802 258.229846 
L 295.278138 251.615978 
L 304.954809 240.695263 
L 309.793145 235.609433 
L 314.631481 226.734239 
L 319.469816 221.967821 
L 324.308152 219.230726 
L 329.146488 215.267377 
L 333.984823 216.771367 
L 338.823159 216.942552 
L 343.661495 216.727474 
L 348.49983 213.866589 
L 353.338166 219.195075 
L 363.014837 228.653232 
L 367.853173 231.313091 
L 372.691509 236.429293 
L 377.529844 239.862934 
L 382.36818 242.719779 
L 387.206516 245.897029 
L 392.044851 246.974657 
L 396.883187 249.00103 
L 401.721523 250.59905 
L 406.559858 250.920906 
L 411.398194 252.43747 
L 416.23653 250.066591 
L 421.074865 250.010202 
L 425.913201 248.810263 
L 430.751537 247.755167 
L 435.589872 249.599635 
L 440.428208 252.293539 
L 445.266543 257.611569 
L 450.104879 263.702863 
L 454.943215 270.34348 
L 459.78155 275.437811 
L 464.619886 278.1326 
L 469.458222 278.871092 
L 470.19952 278.818553 
L 470.19952 278.818553 
" clip-path="url(#p31d95b26ea)" style="fill: none; stroke: #d62728; stroke-width: 1.5; stroke-linecap: square"/>
   </g>
   <g id="LineCollection_3">
    <path d="M 147.708901 306.794665 
L 147.708901 12.518906 
" clip-path="url(#p31d95b26ea)" style="fill: none; stroke-dasharray: 3.7,1.6; stroke-dashoffset: 0; stroke: #333333"/>
   </g>
   <g id="patch_3">
    <path d="M 50.942188 306.794665 
L 50.942188 12.518906 
" style="fill: none; stroke: #000000; stroke-width: 0.8; stroke-linejoin: miter; stroke-linecap: square"/>
   </g>
   <g id="patch_4">
    <path d="M 50.942188 306.794665 
L 244.475614 306.794665 
" style="fill: none; stroke: #000000; stroke-width: 0.8; stroke-linejoin: miter; stroke-linecap: square"/>
   </g>
  </g>
  <g id="axes_2">
   <g id="patch_5">
    <path d="M 264.406094 306.794665 
L 457.93952 306.794665 
L 457.93952 12.518906 
L 264.406094 12.518906 
z
" style="fill: #ffffff"/>
   </g>
   <g id="matplotlib.axis_3">
    <g id="xtick_6">
     <g id="line2d_22">
      <g>
       <use xlink:href="#mc9f0ee4cc6" x="292.053726" y="306.794665" style="stroke: #000000; stroke-width: 0.8"/>
      </g>
     </g>
     <g id="text_17">
      <!-- $\mathdefault{2}$ -->
      <g transform="translate(287.993726 323.432477) scale(0.14 -0.14)">
       <use xlink:href="#OpenSans-32" transform="translate(0 0.59375)"/>
      </g>
     </g>
    </g>
    <g id="xtick_7">
     <g id="line2d_23">
      <g>
       <use xlink:href="#mc9f0ee4cc6" x="347.348991" y="306.794665" style="stroke: #000000; stroke-width: 0.8"/>
      </g>
     </g>
     <g id="text_18">
      <!-- $\mathdefault{3}$ -->
      <g transform="translate(343.288991 323.432477) scale(0.14 -0.14)">
       <use xlink:href="#OpenSans-33" transform="translate(0 0.59375)"/>
      </g>
     </g>
    </g>
    <g id="xtick_8">
     <g id="line2d_24">
      <g>
       <use xlink:href="#mc9f0ee4cc6" x="402.644255" y="306.794665" style="stroke: #000000; stroke-width: 0.8"/>
      </g>
     </g>
     <g id="text_19">
      <!-- $\mathdefault{4}$ -->
      <g transform="translate(398.584255 323.432477) scale(0.14 -0.14)">
       <use xlink:href="#OpenSans-34" transform="translate(0 0.21875)"/>
      </g>
     </g>
    </g>
    <g id="xtick_9">
     <g id="line2d_25">
      <g>
       <use xlink:href="#mc9f0ee4cc6" x="457.93952" y="306.794665" style="stroke: #000000; stroke-width: 0.8"/>
      </g>
     </g>
     <g id="text_20">
      <!-- $\mathdefault{5}$ -->
      <g transform="translate(453.87952 323.432477) scale(0.14 -0.14)">
       <use xlink:href="#OpenSans-35" transform="translate(0 0.609375)"/>
      </g>
     </g>
    </g>
   </g>
   <g id="matplotlib.axis_4">
    <g id="ytick_11"/>
    <g id="ytick_12"/>
    <g id="ytick_13"/>
    <g id="ytick_14"/>
    <g id="ytick_15"/>
    <g id="ytick_16"/>
    <g id="ytick_17"/>
    <g id="ytick_18"/>
    <g id="ytick_19"/>
    <g id="ytick_20"/>
   </g>
   <g id="line2d_26">
    <path d="M 182.154388 306.794665 
L 236.067271 306.794665 
L 237.449652 246.161812 
L 238.832034 232.038224 
L 240.214415 244.051299 
L 241.596797 236.309791 
L 242.979179 237.49545 
L 244.36156 241.625284 
L 245.743942 234.771235 
L 247.126324 229.229454 
L 248.508705 240.916587 
L 249.891087 236.943941 
L 251.273468 237.264475 
L 252.65585 235.287594 
L 254.038232 243.02053 
L 255.420613 234.06953 
L 256.802995 244.760172 
L 258.185376 243.22117 
L 259.567758 240.138469 
L 260.95014 238.006351 
L 262.332521 234.255513 
L 263.714903 237.544386 
L 265.097285 242.552905 
L 266.479666 238.713877 
L 267.862048 243.638132 
L 269.244429 236.434199 
L 270.626811 238.413692 
L 272.009193 239.227829 
L 273.391574 244.033998 
L 276.156337 246.002317 
L 277.538719 241.993209 
L 278.921101 239.630441 
L 280.303482 231.844491 
L 281.685864 241.964878 
L 283.068246 244.858632 
L 284.450627 241.509629 
L 285.833009 242.280837 
L 287.21539 238.95047 
L 288.597772 241.075068 
L 289.980154 238.359968 
L 291.362535 242.63238 
L 292.744917 240.885419 
L 294.127298 244.001788 
L 295.50968 241.890127 
L 296.892062 241.776799 
L 298.274443 242.010902 
L 299.656825 244.150222 
L 301.039207 239.820165 
L 302.421588 241.442959 
L 303.80397 241.434991 
L 305.186351 238.748809 
L 306.568733 243.068197 
L 307.951115 239.020533 
L 309.333496 239.396749 
L 310.715878 247.532926 
L 312.09826 242.046721 
L 313.480641 246.100626 
L 314.863023 244.288815 
L 316.245404 243.37472 
L 317.627786 246.56297 
L 319.010168 240.914824 
L 320.392549 244.890899 
L 321.774931 239.070317 
L 323.157312 242.073073 
L 324.539694 245.54874 
L 325.922076 241.138017 
L 327.304457 240.160265 
L 328.686839 243.105037 
L 330.069221 241.415784 
L 331.451602 243.794174 
L 332.833984 237.159509 
L 334.216365 238.35103 
L 335.598747 242.611822 
L 336.981129 240.153802 
L 338.36351 238.988915 
L 339.745892 241.285426 
L 341.128273 244.784328 
L 342.510655 238.630247 
L 343.893037 242.689283 
L 345.275418 244.480397 
L 346.6578 239.094448 
L 348.040182 243.34605 
L 349.422563 245.639566 
L 350.804945 243.808288 
L 352.187326 245.026368 
L 353.569708 240.543448 
L 354.95209 241.741884 
L 356.334471 243.585345 
L 357.716853 242.675972 
L 359.099234 243.343217 
L 360.481616 243.353977 
L 361.863998 242.375927 
L 363.246379 242.326527 
L 364.628761 239.826804 
L 366.011143 242.51337 
L 367.393524 237.200961 
L 368.775906 240.533854 
L 370.158287 242.121813 
L 371.540669 238.695872 
L 372.923051 240.439327 
L 374.305432 241.823034 
L 375.687814 244.072473 
L 377.070195 241.644456 
L 378.452577 244.529885 
L 379.834959 240.714785 
L 381.21734 240.998536 
L 382.599722 240.079 
L 383.982104 242.639069 
L 385.364485 243.82495 
L 386.746867 240.719655 
L 388.129248 243.187378 
L 390.894012 239.985221 
L 392.276393 240.858538 
L 393.658775 242.761878 
L 395.041156 239.486293 
L 396.423538 241.337604 
L 397.80592 240.943823 
L 399.188301 241.373342 
L 400.570683 240.078766 
L 401.953065 241.336969 
L 403.335446 241.192403 
L 404.717828 240.021876 
L 406.100209 241.892218 
L 407.482591 242.885583 
L 408.864973 243.033445 
L 410.247354 240.029946 
L 411.629736 242.442492 
L 413.012117 242.466653 
L 414.394499 242.196085 
L 415.776881 240.540982 
L 417.159262 243.25186 
L 418.541644 241.762704 
L 419.924026 242.877237 
L 421.306407 240.487352 
L 422.688789 241.47301 
L 424.07117 239.962527 
L 425.453552 241.26214 
L 426.835934 241.900576 
L 428.218315 241.923946 
L 429.600697 242.40545 
L 430.983078 242.572674 
L 432.36546 240.16578 
L 433.747842 242.7689 
L 435.130223 240.442579 
L 436.512605 240.865466 
L 437.894987 240.610971 
L 439.277368 241.097162 
L 440.65975 241.861855 
L 442.042131 241.442407 
L 443.424513 243.71902 
L 444.806895 242.510012 
L 446.189276 242.401796 
L 447.571658 240.36443 
L 448.954039 241.79053 
L 450.336421 244.474785 
L 451.718803 242.811165 
L 453.101184 240.26609 
L 454.483566 241.036916 
L 455.865948 241.580396 
L 457.248329 243.588475 
L 458.630711 243.296852 
L 460.013092 240.621635 
L 461.395474 240.916366 
L 462.777856 243.088786 
L 464.160237 240.963497 
L 465.542619 240.671576 
L 466.925001 243.678867 
L 468.307382 243.909726 
L 469.689764 245.238602 
L 470.19952 245.085575 
L 470.19952 245.085575 
" clip-path="url(#p473bdb278f)" style="fill: none; stroke: #333333; stroke-width: 1.5; stroke-linecap: square"/>
   </g>
   <g id="line2d_27">
    <path d="M 182.154388 306.794665 
L 236.067271 306.794665 
L 237.449652 194.21502 
L 238.832034 195.841746 
L 240.214415 202.89278 
L 241.596797 205.385019 
L 242.979179 210.804768 
L 244.36156 213.813041 
L 245.743942 210.242047 
L 247.126324 213.819343 
L 248.508705 223.251719 
L 249.891087 222.656822 
L 251.273468 224.22264 
L 252.65585 226.110268 
L 254.038232 230.539812 
L 255.420613 226.975476 
L 256.802995 230.148344 
L 258.185376 233.863988 
L 259.567758 237.115147 
L 260.95014 232.893328 
L 262.332521 238.568838 
L 263.714903 239.878001 
L 265.097285 239.601503 
L 266.479666 241.715755 
L 267.862048 242.701397 
L 270.626811 246.131562 
L 272.009193 244.691271 
L 273.391574 238.956994 
L 274.773956 246.641119 
L 276.156337 245.215733 
L 277.538719 241.941539 
L 278.921101 246.638643 
L 280.303482 244.772157 
L 281.685864 244.827531 
L 283.068246 247.432105 
L 284.450627 246.734261 
L 285.833009 244.613467 
L 287.21539 245.026784 
L 288.597772 246.309422 
L 289.980154 244.710329 
L 291.362535 242.002225 
L 292.744917 243.105862 
L 295.50968 241.698545 
L 296.892062 241.461608 
L 298.274443 240.972644 
L 299.656825 237.968035 
L 301.039207 240.302138 
L 302.421588 241.996994 
L 303.80397 239.502243 
L 305.186351 240.420636 
L 309.333496 240.640409 
L 310.715878 241.036597 
L 312.09826 240.665905 
L 313.480641 241.206346 
L 314.863023 240.185128 
L 316.245404 239.747818 
L 317.627786 239.83895 
L 319.010168 241.96957 
L 320.392549 241.025075 
L 321.774931 242.821746 
L 323.157312 240.104986 
L 324.539694 240.43082 
L 325.922076 242.062868 
L 327.304457 241.244206 
L 328.686839 240.609286 
L 330.069221 240.565626 
L 331.451602 243.402318 
L 332.833984 242.108191 
L 334.216365 242.747091 
L 335.598747 240.108783 
L 336.981129 242.273372 
L 338.36351 243.498889 
L 339.745892 242.040136 
L 341.128273 242.629393 
L 342.510655 242.734293 
L 343.893037 242.073577 
L 345.275418 242.932359 
L 346.6578 240.94335 
L 348.040182 241.298357 
L 349.422563 239.60894 
L 350.804945 241.143245 
L 352.187326 242.347036 
L 353.569708 241.2522 
L 354.95209 241.233664 
L 356.334471 242.793483 
L 357.716853 241.815815 
L 359.099234 242.190446 
L 360.481616 239.697696 
L 361.863998 240.828251 
L 363.246379 241.095673 
L 364.628761 244.487101 
L 366.011143 245.202839 
L 367.393524 246.559591 
L 368.775906 248.813388 
L 370.158287 249.692172 
L 371.540669 250.232779 
L 372.923051 252.879737 
L 374.305432 254.238487 
L 375.687814 254.912703 
L 377.070195 256.17531 
L 378.452577 256.616094 
L 379.834959 258.444911 
L 381.21734 259.217651 
L 382.599722 261.397492 
L 383.982104 262.230465 
L 385.364485 262.758791 
L 386.746867 264.999096 
L 388.129248 264.891085 
L 389.51163 266.679187 
L 390.894012 267.548441 
L 392.276393 268.234258 
L 393.658775 269.673097 
L 395.041156 271.381075 
L 396.423538 271.843401 
L 399.188301 274.53175 
L 400.570683 275.401469 
L 401.953065 276.481031 
L 403.335446 277.762414 
L 404.717828 278.367358 
L 408.864973 281.629825 
L 410.247354 281.778957 
L 411.629736 283.303478 
L 414.394499 285.096313 
L 415.776881 286.449617 
L 417.159262 286.867281 
L 418.541644 287.522556 
L 419.924026 288.521911 
L 421.306407 289.953478 
L 422.688789 290.621059 
L 424.07117 290.909229 
L 425.453552 291.862734 
L 426.835934 292.540715 
L 428.218315 293.412593 
L 429.600697 294.047712 
L 430.983078 295.508378 
L 432.36546 295.473813 
L 435.130223 297.354301 
L 436.512605 297.922683 
L 437.894987 298.929023 
L 439.277368 299.717932 
L 440.65975 300.256169 
L 442.042131 300.664658 
L 443.424513 301.28873 
L 444.806895 301.590006 
L 446.189276 302.164744 
L 448.954039 302.517551 
L 453.101184 303.833643 
L 454.483566 303.714164 
L 455.865948 304.13269 
L 457.248329 304.189602 
L 458.630711 304.640381 
L 461.395474 305.118833 
L 462.777856 305.203191 
L 464.160237 305.170671 
L 466.925001 305.574232 
L 468.307382 305.781972 
L 470.19952 305.8495 
L 470.19952 305.8495 
" clip-path="url(#p473bdb278f)" style="fill: none; stroke: #1f77b4; stroke-width: 1.5; stroke-linecap: square"/>
   </g>
   <g id="line2d_28">
    <path d="M 182.154388 306.794665 
L 236.067271 306.794665 
L 237.449652 25.972661 
L 238.832034 61.519539 
L 240.214415 86.249747 
L 241.596797 117.93303 
L 242.979179 142.46059 
L 244.36156 157.103149 
L 245.743942 180.300205 
L 247.126324 197.037401 
L 249.891087 224.901766 
L 251.273468 232.782954 
L 252.65585 243.959789 
L 254.038232 254.019071 
L 256.802995 262.7713 
L 258.185376 268.55656 
L 259.567758 269.04906 
L 260.95014 270.325691 
L 262.332521 273.121874 
L 263.714903 273.710607 
L 265.097285 272.012699 
L 266.479666 270.550401 
L 267.862048 271.553752 
L 269.244429 270.434659 
L 270.626811 267.367839 
L 272.009193 264.848433 
L 273.391574 265.951902 
L 274.773956 262.71843 
L 276.156337 258.149399 
L 277.538719 258.229846 
L 278.921101 251.615978 
L 281.685864 240.695263 
L 283.068246 235.609433 
L 284.450627 226.734239 
L 285.833009 221.967821 
L 287.21539 219.230726 
L 288.597772 215.267377 
L 289.980154 216.771367 
L 291.362535 216.942552 
L 292.744917 216.727474 
L 294.127298 213.866589 
L 295.50968 219.195075 
L 298.274443 228.653232 
L 299.656825 231.313091 
L 301.039207 236.429293 
L 302.421588 239.862934 
L 303.80397 242.719779 
L 305.186351 245.897029 
L 306.568733 246.974657 
L 307.951115 249.00103 
L 309.333496 250.59905 
L 310.715878 250.920906 
L 312.09826 252.43747 
L 313.480641 250.066591 
L 314.863023 250.010202 
L 317.627786 247.755167 
L 319.010168 249.599635 
L 320.392549 252.293539 
L 321.774931 257.611569 
L 323.157312 263.702863 
L 324.539694 270.34348 
L 325.922076 275.437811 
L 327.304457 278.1326 
L 328.686839 278.871092 
L 330.069221 278.528178 
L 331.451602 275.621072 
L 332.833984 273.194304 
L 334.216365 269.716534 
L 335.598747 265.674673 
L 336.981129 262.378799 
L 338.36351 259.817039 
L 339.745892 256.035503 
L 341.128273 254.490943 
L 342.510655 253.260842 
L 343.893037 254.477536 
L 345.275418 257.047219 
L 346.6578 259.285498 
L 348.040182 264.482945 
L 349.422563 270.234168 
L 350.804945 275.415387 
L 352.187326 281.425138 
L 354.95209 289.220463 
L 356.334471 292.4075 
L 357.716853 294.097543 
L 359.099234 295.11017 
L 360.481616 296.597619 
L 363.246379 297.674916 
L 364.628761 298.532533 
L 367.393524 299.911506 
L 370.158287 301.998471 
L 371.540669 302.962922 
L 372.923051 303.069437 
L 374.305432 302.422017 
L 375.687814 301.976418 
L 377.070195 301.326389 
L 378.452577 300.500864 
L 379.834959 300.045816 
L 381.21734 299.796673 
L 382.599722 299.167016 
L 385.364485 299.897229 
L 386.746867 300.459111 
L 390.894012 303.538178 
L 392.276393 304.491945 
L 393.658775 305.288751 
L 395.041156 305.810558 
L 396.423538 306.15946 
L 399.188301 306.53971 
L 404.717828 306.744279 
L 411.629736 306.791702 
L 464.160237 306.794665 
L 470.19952 306.794665 
L 470.19952 306.794665 
" clip-path="url(#p473bdb278f)" style="fill: none; stroke: #d62728; stroke-width: 1.5; stroke-linecap: square"/>
   </g>
   <g id="patch_6">
    <path d="M 264.406094 306.794665 
L 457.93952 306.794665 
" style="fill: none; stroke: #000000; stroke-width: 0.8; stroke-linejoin: miter; stroke-linecap: square"/>
   </g>
   <g id="legend_1">
    <g id="line2d_29">
     <path d="M 356.15952 30.856719 
L 370.15952 30.856719 
L 384.15952 30.856719 
" style="fill: none; stroke: #333333; stroke-width: 1.5; stroke-linecap: square"/>
    </g>
    <g id="text_21">
     <!-- $\phi=0.05$ -->
     <g transform="translate(395.35952 35.756719) scale(0.14 -0.14)">
      <defs>
       <path id="STIXNonUnicode-Regular-e1b1" d="M 2246 4333 
L 2246 2950 
Q 2995 2944 3398 2496 
Q 3802 2048 3802 1433 
Q 3802 819 3398 374 
Q 2995 -70 2246 -77 
L 2246 -1229 
L 1792 -1382 
L 1734 -1350 
L 1734 -77 
Q 986 -70 582 374 
Q 179 819 179 1434 
Q 179 2054 582 2499 
Q 986 2944 1734 2950 
L 1734 4192 
L 2202 4378 
L 2246 4333 
z
M 2240 2496 
L 2240 378 
Q 2758 384 3027 678 
Q 3296 973 3296 1446 
Q 3296 1894 3005 2188 
Q 2714 2483 2240 2496 
z
M 1741 378 
L 1741 2496 
Q 1222 2490 953 2202 
Q 685 1914 685 1446 
Q 685 973 953 678 
Q 1222 384 1741 378 
z
" transform="scale(0.015625)"/>
       <path id="OpenSans-3d" d="M 372 2681 
L 372 3109 
L 3278 3109 
L 3278 2681 
L 372 2681 
z
M 372 1403 
L 372 1831 
L 3278 1831 
L 3278 1403 
L 372 1403 
z
" transform="scale(0.015625)"/>
      </defs>
      <use xlink:href="#STIXNonUnicode-Regular-e1b1" transform="translate(0 0.484375)"/>
      <use xlink:href="#OpenSans-3d" transform="translate(81.682419 0.484375)"/>
      <use xlink:href="#OpenSans-30" transform="translate(158.342575 0.484375)"/>
      <use xlink:href="#OpenSans-2e" transform="translate(215.520309 0.484375)"/>
      <use xlink:href="#OpenSans-30" transform="translate(242.131638 0.484375)"/>
      <use xlink:href="#OpenSans-35" transform="translate(299.309372 0.484375)"/>
     </g>
    </g>
    <g id="line2d_30">
     <path d="M 356.15952 51.858906 
L 370.15952 51.858906 
L 384.15952 51.858906 
" style="fill: none; stroke: #1f77b4; stroke-width: 1.5; stroke-linecap: square"/>
    </g>
    <g id="text_22">
     <!-- $\phi=0.20$ -->
     <g transform="translate(395.35952 56.758906) scale(0.14 -0.14)">
      <use xlink:href="#STIXNonUnicode-Regular-e1b1" transform="translate(0 0.484375)"/>
      <use xlink:href="#OpenSans-3d" transform="translate(81.682419 0.484375)"/>
      <use xlink:href="#OpenSans-30" transform="translate(158.342575 0.484375)"/>
      <use xlink:href="#OpenSans-2e" transform="translate(215.520309 0.484375)"/>
      <use xlink:href="#OpenSans-32" transform="translate(240.131638 0.484375)"/>
      <use xlink:href="#OpenSans-30" transform="translate(297.309372 0.484375)"/>
     </g>
    </g>
    <g id="line2d_31">
     <path d="M 356.15952 72.861094 
L 370.15952 72.861094 
L 384.15952 72.861094 
" style="fill: none; stroke: #d62728; stroke-width: 1.5; stroke-linecap: square"/>
    </g>
    <g id="text_23">
     <!-- $\phi=0.49$ -->
     <g transform="translate(395.35952 77.761094) scale(0.14 -0.14)">
      <defs>
       <path id="OpenSans-39" d="M 3316 2619 
Q 3316 -63 1241 -63 
Q 878 -63 666 0 
L 666 447 
Q 916 366 1234 366 
Q 1984 366 2367 830 
Q 2750 1294 2784 2253 
L 2747 2253 
Q 2575 1994 2290 1858 
Q 2006 1722 1650 1722 
Q 1044 1722 687 2084 
Q 331 2447 331 3097 
Q 331 3809 729 4221 
Q 1128 4634 1778 4634 
Q 2244 4634 2592 4395 
Q 2941 4156 3128 3698 
Q 3316 3241 3316 2619 
z
M 1778 4191 
Q 1331 4191 1087 3903 
Q 844 3616 844 3103 
Q 844 2653 1069 2395 
Q 1294 2138 1753 2138 
Q 2038 2138 2277 2253 
Q 2516 2369 2653 2569 
Q 2791 2769 2791 2988 
Q 2791 3316 2662 3594 
Q 2534 3872 2304 4031 
Q 2075 4191 1778 4191 
z
" transform="scale(0.015625)"/>
      </defs>
      <use xlink:href="#STIXNonUnicode-Regular-e1b1" transform="translate(0 0.484375)"/>
      <use xlink:href="#OpenSans-3d" transform="translate(81.682419 0.484375)"/>
      <use xlink:href="#OpenSans-30" transform="translate(158.342575 0.484375)"/>
      <use xlink:href="#OpenSans-2e" transform="translate(215.520309 0.484375)"/>
      <use xlink:href="#OpenSans-34" transform="translate(240.131638 0.484375)"/>
      <use xlink:href="#OpenSans-39" transform="translate(296.309372 0.484375)"/>
     </g>
    </g>
   </g>
  </g>
  <g id="text_24">
   <!-- r -->
   <g transform="translate(231.741791 343.435145) scale(0.14 -0.14)">
    <use xlink:href="#OpenSans-72"/>
   </g>
  </g>
 </g>
 <defs>
  <clipPath id="p31d95b26ea">
   <rect x="50.942188" y="12.518906" width="193.533426" height="294.275759"/>
  </clipPath>
  <clipPath id="p473bdb278f">
   <rect x="264.406094" y="12.518906" width="193.533426" height="294.275759"/>
  </clipPath>
 </defs>
</svg>
