<?xml version="1.0" encoding="utf-8" standalone="no"?>
<!DOCTYPE svg PUBLIC "-//W3C//DTD SVG 1.1//EN"
  "http://www.w3.org/Graphics/SVG/1.1/DTD/svg11.dtd">
<svg xmlns:xlink="http://www.w3.org/1999/xlink" width="423.382187pt" height="318.516375pt" viewBox="0 0 423.382187 318.516375" xmlns="http://www.w3.org/2000/svg" version="1.1">
 <metadata>
  <rdf:RDF xmlns:dc="http://purl.org/dc/elements/1.1/" xmlns:cc="http://creativecommons.org/ns#" xmlns:rdf="http://www.w3.org/1999/02/22-rdf-syntax-ns#">
   <cc:Work>
    <dc:type rdf:resource="http://purl.org/dc/dcmitype/StillImage"/>
    <dc:date>2024-03-18T19:25:12.864942</dc:date>
    <dc:format>image/svg+xml</dc:format>
    <dc:creator>
     <cc:Agent>
      <dc:title>Matplotlib v3.8.3, https://matplotlib.org/</dc:title>
     </cc:Agent>
    </dc:creator>
   </cc:Work>
  </rdf:RDF>
 </metadata>
 <defs>
  <style type="text/css">*{stroke-linejoin: round; stroke-linecap: butt}</style>
 </defs>
 <g id="figure_1">
  <g id="patch_1">
   <path d="M 0 318.516375 
L 423.382187 318.516375 
L 423.382187 0 
L 0 0 
z
" style="fill: #ffffff"/>
  </g>
  <g id="axes_1">
   <g id="patch_2">
    <path d="M 59.062188 273.312 
L 416.182188 273.312 
L 416.182188 7.2 
L 59.062188 7.2 
z
" style="fill: #ffffff"/>
   </g>
   <g id="patch_3">
    <path d="M 75.294915 273.312 
L 86.116733 273.312 
L 86.116733 271.711326 
L 75.294915 271.711326 
z
" clip-path="url(#p014b35758e)" style="fill: #808080"/>
   </g>
   <g id="patch_4">
    <path d="M 86.116733 273.312 
L 96.938551 273.312 
L 96.938551 270.110653 
L 86.116733 270.110653 
z
" clip-path="url(#p014b35758e)" style="fill: #808080"/>
   </g>
   <g id="patch_5">
    <path d="M 96.938551 273.312 
L 107.760369 273.312 
L 107.760369 268.509979 
L 96.938551 268.509979 
z
" clip-path="url(#p014b35758e)" style="fill: #808080"/>
   </g>
   <g id="patch_6">
    <path d="M 107.760369 273.312 
L 118.582187 273.312 
L 118.582187 262.107284 
L 107.760369 262.107284 
z
" clip-path="url(#p014b35758e)" style="fill: #808080"/>
   </g>
   <g id="patch_7">
    <path d="M 118.582187 273.312 
L 129.404006 273.312 
L 129.404006 257.838821 
L 118.582187 257.838821 
z
" clip-path="url(#p014b35758e)" style="fill: #808080"/>
   </g>
   <g id="patch_8">
    <path d="M 129.404006 273.312 
L 140.225824 273.312 
L 140.225824 249.301895 
L 129.404006 249.301895 
z
" clip-path="url(#p014b35758e)" style="fill: #808080"/>
   </g>
   <g id="patch_9">
    <path d="M 140.225824 273.312 
L 151.047642 273.312 
L 151.047642 241.298526 
L 140.225824 241.298526 
z
" clip-path="url(#p014b35758e)" style="fill: #808080"/>
   </g>
   <g id="patch_10">
    <path d="M 151.047642 273.312 
L 161.86946 273.312 
L 161.86946 216.754863 
L 151.047642 216.754863 
z
" clip-path="url(#p014b35758e)" style="fill: #808080"/>
   </g>
   <g id="patch_11">
    <path d="M 161.86946 273.312 
L 172.691278 273.312 
L 172.691278 207.150821 
L 161.86946 207.150821 
z
" clip-path="url(#p014b35758e)" style="fill: #808080"/>
   </g>
   <g id="patch_12">
    <path d="M 172.691278 273.312 
L 183.513097 273.312 
L 183.513097 162.331958 
L 172.691278 162.331958 
z
" clip-path="url(#p014b35758e)" style="fill: #808080"/>
   </g>
   <g id="patch_13">
    <path d="M 183.513097 273.312 
L 194.334915 273.312 
L 194.334915 143.657432 
L 183.513097 143.657432 
z
" clip-path="url(#p014b35758e)" style="fill: #808080"/>
   </g>
   <g id="patch_14">
    <path d="M 194.334915 273.312 
L 205.156733 273.312 
L 205.156733 97.771453 
L 194.334915 97.771453 
z
" clip-path="url(#p014b35758e)" style="fill: #808080"/>
   </g>
   <g id="patch_15">
    <path d="M 205.156733 273.312 
L 215.978551 273.312 
L 215.978551 84.432505 
L 205.156733 84.432505 
z
" clip-path="url(#p014b35758e)" style="fill: #808080"/>
   </g>
   <g id="patch_16">
    <path d="M 215.978551 273.312 
L 226.800369 273.312 
L 226.800369 49.751242 
L 215.978551 49.751242 
z
" clip-path="url(#p014b35758e)" style="fill: #808080"/>
   </g>
   <g id="patch_17">
    <path d="M 226.800369 273.312 
L 237.622188 273.312 
L 237.622188 41.214316 
L 226.800369 41.214316 
z
" clip-path="url(#p014b35758e)" style="fill: #808080"/>
   </g>
   <g id="patch_18">
    <path d="M 237.622188 273.312 
L 248.444006 273.312 
L 248.444006 19.872 
L 237.622188 19.872 
z
" clip-path="url(#p014b35758e)" style="fill: #808080"/>
   </g>
   <g id="patch_19">
    <path d="M 248.444006 273.312 
L 259.265824 273.312 
L 259.265824 44.949221 
L 248.444006 44.949221 
z
" clip-path="url(#p014b35758e)" style="fill: #808080"/>
   </g>
   <g id="patch_20">
    <path d="M 259.265824 273.312 
L 270.087642 273.312 
L 270.087642 58.821726 
L 259.265824 58.821726 
z
" clip-path="url(#p014b35758e)" style="fill: #808080"/>
   </g>
   <g id="patch_21">
    <path d="M 270.087642 273.312 
L 280.90946 273.312 
L 280.90946 97.237895 
L 270.087642 97.237895 
z
" clip-path="url(#p014b35758e)" style="fill: #808080"/>
   </g>
   <g id="patch_22">
    <path d="M 280.90946 273.312 
L 291.731278 273.312 
L 291.731278 137.254737 
L 280.90946 137.254737 
z
" clip-path="url(#p014b35758e)" style="fill: #808080"/>
   </g>
   <g id="patch_23">
    <path d="M 291.731278 273.312 
L 302.553097 273.312 
L 302.553097 157.529937 
L 291.731278 157.529937 
z
" clip-path="url(#p014b35758e)" style="fill: #808080"/>
   </g>
   <g id="patch_24">
    <path d="M 302.553097 273.312 
L 313.374915 273.312 
L 313.374915 187.409179 
L 302.553097 187.409179 
z
" clip-path="url(#p014b35758e)" style="fill: #808080"/>
   </g>
   <g id="patch_25">
    <path d="M 313.374915 273.312 
L 324.196733 273.312 
L 324.196733 201.281684 
L 313.374915 201.281684 
z
" clip-path="url(#p014b35758e)" style="fill: #808080"/>
   </g>
   <g id="patch_26">
    <path d="M 324.196733 273.312 
L 335.018551 273.312 
L 335.018551 235.429389 
L 324.196733 235.429389 
z
" clip-path="url(#p014b35758e)" style="fill: #808080"/>
   </g>
   <g id="patch_27">
    <path d="M 335.018551 273.312 
L 345.840369 273.312 
L 345.840369 245.033432 
L 335.018551 245.033432 
z
" clip-path="url(#p014b35758e)" style="fill: #808080"/>
   </g>
   <g id="patch_28">
    <path d="M 345.840369 273.312 
L 356.662188 273.312 
L 356.662188 258.372379 
L 345.840369 258.372379 
z
" clip-path="url(#p014b35758e)" style="fill: #808080"/>
   </g>
   <g id="patch_29">
    <path d="M 356.662188 273.312 
L 367.484006 273.312 
L 367.484006 255.704589 
L 356.662188 255.704589 
z
" clip-path="url(#p014b35758e)" style="fill: #808080"/>
   </g>
   <g id="patch_30">
    <path d="M 367.484006 273.312 
L 378.305824 273.312 
L 378.305824 266.909305 
L 367.484006 266.909305 
z
" clip-path="url(#p014b35758e)" style="fill: #808080"/>
   </g>
   <g id="patch_31">
    <path d="M 378.305824 273.312 
L 389.127642 273.312 
L 389.127642 270.110653 
L 378.305824 270.110653 
z
" clip-path="url(#p014b35758e)" style="fill: #808080"/>
   </g>
   <g id="patch_32">
    <path d="M 389.127642 273.312 
L 399.94946 273.312 
L 399.94946 271.711326 
L 389.127642 271.711326 
z
" clip-path="url(#p014b35758e)" style="fill: #808080"/>
   </g>
   <g id="matplotlib.axis_1">
    <g id="xtick_1">
     <g id="line2d_1">
      <defs>
       <path id="m878e339d22" d="M 0 0 
L 0 4 
" style="stroke: #000000; stroke-width: 0.8"/>
      </defs>
      <g>
       <use xlink:href="#m878e339d22" x="97.80553" y="273.312" style="stroke: #000000; stroke-width: 0.8"/>
      </g>
     </g>
     <g id="text_1">
      <!-- $\mathdefault{-4}$ -->
      <g transform="translate(89.75553 289.949813) scale(0.14 -0.14)">
       <defs>
        <path id="OpenSans-2212" d="M 325 2041 
L 325 2472 
L 3328 2472 
L 3328 2041 
L 325 2041 
z
" transform="scale(0.015625)"/>
        <path id="OpenSans-34" d="M 3531 1050 
L 2853 1050 
L 2853 0 
L 2356 0 
L 2356 1050 
L 134 1050 
L 134 1503 
L 2303 4594 
L 2853 4594 
L 2853 1522 
L 3531 1522 
L 3531 1050 
z
M 2356 1522 
L 2356 3041 
Q 2356 3488 2388 4050 
L 2363 4050 
Q 2213 3750 2081 3553 
L 653 1522 
L 2356 1522 
z
" transform="scale(0.015625)"/>
       </defs>
       <use xlink:href="#OpenSans-2212" transform="translate(0 0.21875)"/>
       <use xlink:href="#OpenSans-34" transform="translate(57.177734 0.21875)"/>
      </g>
     </g>
    </g>
    <g id="xtick_2">
     <g id="line2d_2">
      <g>
       <use xlink:href="#m878e339d22" x="167.991907" y="273.312" style="stroke: #000000; stroke-width: 0.8"/>
      </g>
     </g>
     <g id="text_2">
      <!-- $\mathdefault{-2}$ -->
      <g transform="translate(159.941907 289.949813) scale(0.14 -0.14)">
       <defs>
        <path id="OpenSans-32" d="M 3316 0 
L 313 0 
L 313 447 
L 1516 1656 
Q 2066 2213 2241 2450 
Q 2416 2688 2503 2913 
Q 2591 3138 2591 3397 
Q 2591 3763 2369 3977 
Q 2147 4191 1753 4191 
Q 1469 4191 1214 4097 
Q 959 4003 647 3756 
L 372 4109 
Q 1003 4634 1747 4634 
Q 2391 4634 2756 4304 
Q 3122 3975 3122 3419 
Q 3122 2984 2878 2559 
Q 2634 2134 1966 1484 
L 966 506 
L 966 481 
L 3316 481 
L 3316 0 
z
" transform="scale(0.015625)"/>
       </defs>
       <use xlink:href="#OpenSans-2212" transform="translate(0 0.59375)"/>
       <use xlink:href="#OpenSans-32" transform="translate(57.177734 0.59375)"/>
      </g>
     </g>
    </g>
    <g id="xtick_3">
     <g id="line2d_3">
      <g>
       <use xlink:href="#m878e339d22" x="238.178285" y="273.312" style="stroke: #000000; stroke-width: 0.8"/>
      </g>
     </g>
     <g id="text_3">
      <!-- $\mathdefault{0}$ -->
      <g transform="translate(234.118285 289.949813) scale(0.14 -0.14)">
       <defs>
        <path id="OpenSans-30" d="M 3341 2291 
Q 3341 1106 2967 521 
Q 2594 -63 1825 -63 
Q 1088 -63 703 535 
Q 319 1134 319 2291 
Q 319 3484 691 4062 
Q 1063 4641 1825 4641 
Q 2569 4641 2955 4037 
Q 3341 3434 3341 2291 
z
M 844 2291 
Q 844 1294 1078 839 
Q 1313 384 1825 384 
Q 2344 384 2576 845 
Q 2809 1306 2809 2291 
Q 2809 3275 2576 3733 
Q 2344 4191 1825 4191 
Q 1313 4191 1078 3739 
Q 844 3288 844 2291 
z
" transform="scale(0.015625)"/>
       </defs>
       <use xlink:href="#OpenSans-30" transform="translate(0 0.484375)"/>
      </g>
     </g>
    </g>
    <g id="xtick_4">
     <g id="line2d_4">
      <g>
       <use xlink:href="#m878e339d22" x="308.364663" y="273.312" style="stroke: #000000; stroke-width: 0.8"/>
      </g>
     </g>
     <g id="text_4">
      <!-- $\mathdefault{2}$ -->
      <g transform="translate(304.304663 289.949813) scale(0.14 -0.14)">
       <use xlink:href="#OpenSans-32" transform="translate(0 0.59375)"/>
      </g>
     </g>
    </g>
    <g id="xtick_5">
     <g id="line2d_5">
      <g>
       <use xlink:href="#m878e339d22" x="378.551041" y="273.312" style="stroke: #000000; stroke-width: 0.8"/>
      </g>
     </g>
     <g id="text_5">
      <!-- $\mathdefault{4}$ -->
      <g transform="translate(374.491041 289.949813) scale(0.14 -0.14)">
       <use xlink:href="#OpenSans-34" transform="translate(0 0.21875)"/>
      </g>
     </g>
    </g>
    <g id="text_6">
     <!-- x -->
     <g transform="translate(233.954844 307.952) scale(0.14 -0.14)">
      <defs>
       <path id="OpenSans-78" d="M 1375 1753 
L 184 3425 
L 775 3425 
L 1678 2113 
L 2578 3425 
L 3163 3425 
L 1972 1753 
L 3225 0 
L 2638 0 
L 1678 1388 
L 709 0 
L 122 0 
L 1375 1753 
z
" transform="scale(0.015625)"/>
      </defs>
      <use xlink:href="#OpenSans-78"/>
     </g>
    </g>
   </g>
   <g id="matplotlib.axis_2">
    <g id="ytick_1">
     <g id="line2d_6">
      <defs>
       <path id="m88b81c5a6e" d="M 0 0 
L -4 0 
" style="stroke: #000000; stroke-width: 0.8"/>
      </defs>
      <g>
       <use xlink:href="#m88b81c5a6e" x="59.062188" y="273.312" style="stroke: #000000; stroke-width: 0.8"/>
      </g>
     </g>
     <g id="text_7">
      <!-- $\mathdefault{0.00}$ -->
      <g transform="translate(25.202188 278.630906) scale(0.14 -0.14)">
       <defs>
        <path id="OpenSans-2e" d="M 475 331 
Q 475 541 570 648 
Q 666 756 844 756 
Q 1025 756 1126 648 
Q 1228 541 1228 331 
Q 1228 128 1125 18 
Q 1022 -91 844 -91 
Q 684 -91 579 7 
Q 475 106 475 331 
z
" transform="scale(0.015625)"/>
       </defs>
       <use xlink:href="#OpenSans-30" transform="translate(0 0.484375)"/>
       <use xlink:href="#OpenSans-2e" transform="translate(57.177734 0.484375)"/>
       <use xlink:href="#OpenSans-30" transform="translate(83.789062 0.484375)"/>
       <use xlink:href="#OpenSans-30" transform="translate(140.966797 0.484375)"/>
      </g>
     </g>
    </g>
    <g id="ytick_2">
     <g id="line2d_7">
      <g>
       <use xlink:href="#m88b81c5a6e" x="59.062188" y="232.178188" style="stroke: #000000; stroke-width: 0.8"/>
      </g>
     </g>
     <g id="text_8">
      <!-- $\mathdefault{0.05}$ -->
      <g transform="translate(25.202188 237.497094) scale(0.14 -0.14)">
       <defs>
        <path id="OpenSans-35" d="M 1741 2791 
Q 2463 2791 2877 2433 
Q 3291 2075 3291 1453 
Q 3291 744 2839 340 
Q 2388 -63 1594 -63 
Q 822 -63 416 184 
L 416 684 
Q 634 544 959 464 
Q 1284 384 1600 384 
Q 2150 384 2454 643 
Q 2759 903 2759 1394 
Q 2759 2350 1588 2350 
Q 1291 2350 794 2259 
L 525 2431 
L 697 4569 
L 2969 4569 
L 2969 4091 
L 1141 4091 
L 1025 2719 
Q 1384 2791 1741 2791 
z
" transform="scale(0.015625)"/>
       </defs>
       <use xlink:href="#OpenSans-30" transform="translate(0 0.484375)"/>
       <use xlink:href="#OpenSans-2e" transform="translate(57.177734 0.484375)"/>
       <use xlink:href="#OpenSans-30" transform="translate(83.789062 0.484375)"/>
       <use xlink:href="#OpenSans-35" transform="translate(140.966797 0.484375)"/>
      </g>
     </g>
    </g>
    <g id="ytick_3">
     <g id="line2d_8">
      <g>
       <use xlink:href="#m88b81c5a6e" x="59.062188" y="191.044376" style="stroke: #000000; stroke-width: 0.8"/>
      </g>
     </g>
     <g id="text_9">
      <!-- $\mathdefault{0.10}$ -->
      <g transform="translate(25.202188 196.363282) scale(0.14 -0.14)">
       <defs>
        <path id="OpenSans-31" d="M 2234 0 
L 1728 0 
L 1728 3256 
Q 1728 3663 1753 4025 
Q 1688 3959 1606 3887 
Q 1525 3816 863 3278 
L 588 3634 
L 1797 4569 
L 2234 4569 
L 2234 0 
z
" transform="scale(0.015625)"/>
       </defs>
       <use xlink:href="#OpenSans-30" transform="translate(0 0.484375)"/>
       <use xlink:href="#OpenSans-2e" transform="translate(57.177734 0.484375)"/>
       <use xlink:href="#OpenSans-31" transform="translate(83.789062 0.484375)"/>
       <use xlink:href="#OpenSans-30" transform="translate(140.966797 0.484375)"/>
      </g>
     </g>
    </g>
    <g id="ytick_4">
     <g id="line2d_9">
      <g>
       <use xlink:href="#m88b81c5a6e" x="59.062188" y="149.910564" style="stroke: #000000; stroke-width: 0.8"/>
      </g>
     </g>
     <g id="text_10">
      <!-- $\mathdefault{0.15}$ -->
      <g transform="translate(25.202188 155.22947) scale(0.14 -0.14)">
       <use xlink:href="#OpenSans-30" transform="translate(0 0.484375)"/>
       <use xlink:href="#OpenSans-2e" transform="translate(57.177734 0.484375)"/>
       <use xlink:href="#OpenSans-31" transform="translate(83.789062 0.484375)"/>
       <use xlink:href="#OpenSans-35" transform="translate(140.966797 0.484375)"/>
      </g>
     </g>
    </g>
    <g id="ytick_5">
     <g id="line2d_10">
      <g>
       <use xlink:href="#m88b81c5a6e" x="59.062188" y="108.776752" style="stroke: #000000; stroke-width: 0.8"/>
      </g>
     </g>
     <g id="text_11">
      <!-- $\mathdefault{0.20}$ -->
      <g transform="translate(25.482188 114.095659) scale(0.14 -0.14)">
       <use xlink:href="#OpenSans-30" transform="translate(0 0.484375)"/>
       <use xlink:href="#OpenSans-2e" transform="translate(57.177734 0.484375)"/>
       <use xlink:href="#OpenSans-32" transform="translate(81.789062 0.484375)"/>
       <use xlink:href="#OpenSans-30" transform="translate(138.966797 0.484375)"/>
      </g>
     </g>
    </g>
    <g id="ytick_6">
     <g id="line2d_11">
      <g>
       <use xlink:href="#m88b81c5a6e" x="59.062188" y="67.64294" style="stroke: #000000; stroke-width: 0.8"/>
      </g>
     </g>
     <g id="text_12">
      <!-- $\mathdefault{0.25}$ -->
      <g transform="translate(25.482188 72.961847) scale(0.14 -0.14)">
       <use xlink:href="#OpenSans-30" transform="translate(0 0.484375)"/>
       <use xlink:href="#OpenSans-2e" transform="translate(57.177734 0.484375)"/>
       <use xlink:href="#OpenSans-32" transform="translate(81.789062 0.484375)"/>
       <use xlink:href="#OpenSans-35" transform="translate(138.966797 0.484375)"/>
      </g>
     </g>
    </g>
    <g id="ytick_7">
     <g id="line2d_12">
      <g>
       <use xlink:href="#m88b81c5a6e" x="59.062188" y="26.509128" style="stroke: #000000; stroke-width: 0.8"/>
      </g>
     </g>
     <g id="text_13">
      <!-- $\mathdefault{0.30}$ -->
      <g transform="translate(25.202188 31.828035) scale(0.14 -0.14)">
       <defs>
        <path id="OpenSans-33" d="M 3144 3494 
Q 3144 3056 2898 2778 
Q 2653 2500 2203 2406 
L 2203 2381 
Q 2753 2313 3018 2031 
Q 3284 1750 3284 1294 
Q 3284 641 2831 289 
Q 2378 -63 1544 -63 
Q 1181 -63 879 -8 
Q 578 47 294 184 
L 294 678 
Q 591 531 927 454 
Q 1263 378 1563 378 
Q 2747 378 2747 1306 
Q 2747 2138 1441 2138 
L 991 2138 
L 991 2584 
L 1447 2584 
Q 1981 2584 2293 2820 
Q 2606 3056 2606 3475 
Q 2606 3809 2376 4000 
Q 2147 4191 1753 4191 
Q 1453 4191 1187 4109 
Q 922 4028 581 3809 
L 319 4159 
Q 600 4381 967 4507 
Q 1334 4634 1741 4634 
Q 2406 4634 2775 4329 
Q 3144 4025 3144 3494 
z
" transform="scale(0.015625)"/>
       </defs>
       <use xlink:href="#OpenSans-30" transform="translate(0 0.484375)"/>
       <use xlink:href="#OpenSans-2e" transform="translate(57.177734 0.484375)"/>
       <use xlink:href="#OpenSans-33" transform="translate(83.789062 0.484375)"/>
       <use xlink:href="#OpenSans-30" transform="translate(140.966797 0.484375)"/>
      </g>
     </g>
    </g>
    <g id="text_14">
     <!-- p(x) -->
     <g transform="translate(17.837813 152.356156) rotate(-90) scale(0.14 -0.14)">
      <defs>
       <path id="OpenSans-70" d="M 2144 -63 
Q 1809 -63 1532 60 
Q 1256 184 1069 441 
L 1031 441 
Q 1069 141 1069 -128 
L 1069 -1538 
L 550 -1538 
L 550 3425 
L 972 3425 
L 1044 2956 
L 1069 2956 
Q 1269 3238 1534 3363 
Q 1800 3488 2144 3488 
Q 2825 3488 3195 3022 
Q 3566 2556 3566 1716 
Q 3566 872 3189 404 
Q 2813 -63 2144 -63 
z
M 2069 3047 
Q 1544 3047 1309 2756 
Q 1075 2466 1069 1831 
L 1069 1716 
Q 1069 994 1309 683 
Q 1550 372 2081 372 
Q 2525 372 2776 731 
Q 3028 1091 3028 1722 
Q 3028 2363 2776 2705 
Q 2525 3047 2069 3047 
z
" transform="scale(0.015625)"/>
       <path id="OpenSans-28" d="M 256 1753 
Q 256 2581 498 3303 
Q 741 4025 1197 4569 
L 1703 4569 
Q 1253 3966 1026 3244 
Q 800 2522 800 1759 
Q 800 1009 1031 293 
Q 1263 -422 1697 -1013 
L 1197 -1013 
Q 738 -481 497 228 
Q 256 938 256 1753 
z
" transform="scale(0.015625)"/>
       <path id="OpenSans-29" d="M 1638 1753 
Q 1638 931 1395 221 
Q 1153 -488 697 -1013 
L 197 -1013 
Q 631 -425 862 292 
Q 1094 1009 1094 1759 
Q 1094 2522 867 3244 
Q 641 3966 191 4569 
L 697 4569 
Q 1156 4022 1397 3298 
Q 1638 2575 1638 1753 
z
" transform="scale(0.015625)"/>
      </defs>
      <use xlink:href="#OpenSans-70"/>
      <use xlink:href="#OpenSans-28" x="61.279297"/>
      <use xlink:href="#OpenSans-78" x="90.869141"/>
      <use xlink:href="#OpenSans-29" x="143.261719"/>
     </g>
    </g>
   </g>
   <g id="line2d_13">
    <path d="M 75.294915 272.24779 
L 78.574254 271.992947 
L 81.853592 271.684201 
L 85.132931 271.31194 
L 88.41227 270.865252 
L 91.691609 270.331842 
L 94.970948 269.69796 
L 98.250287 268.948343 
L 101.529626 268.066196 
L 104.808964 267.033191 
L 108.088303 265.829507 
L 111.367642 264.433918 
L 114.646981 262.823924 
L 117.92632 260.975945 
L 121.205659 258.865568 
L 124.484997 256.467866 
L 127.764336 253.757775 
L 131.043675 250.710548 
L 134.323014 247.302268 
L 137.602353 243.510424 
L 140.881692 239.314546 
L 144.16103 234.696881 
L 147.440369 229.643108 
L 150.719708 224.143068 
L 153.999047 218.191494 
L 157.278386 211.788728 
L 160.557725 204.941388 
L 163.837064 197.662977 
L 167.116402 189.974399 
L 170.395741 181.904365 
L 173.67508 173.489655 
L 176.954419 164.775234 
L 180.233758 155.814184 
L 183.513097 146.667444 
L 186.792435 137.403358 
L 190.071774 128.097017 
L 193.351113 118.829389 
L 196.630452 109.686275 
L 199.909791 100.757067 
L 203.18913 92.133363 
L 206.468468 83.90745 
L 209.747807 76.170688 
L 213.027146 69.011848 
L 216.306485 62.515426 
L 219.585824 56.759989 
L 222.865163 51.816603 
L 226.144502 47.747369 
L 229.42384 44.604128 
L 232.703179 42.427363 
L 235.982518 41.24533 
L 239.261857 41.073446 
L 242.541196 41.913958 
L 245.820535 43.755892 
L 249.099873 46.575291 
L 252.379212 50.335734 
L 255.658551 54.989121 
L 258.93789 60.476693 
L 262.217229 66.730269 
L 265.496568 73.673655 
L 268.775907 81.224182 
L 272.055245 89.294342 
L 275.334584 97.793465 
L 278.613923 106.629392 
L 281.893262 115.710118 
L 285.172601 124.945338 
L 288.45194 134.247889 
L 291.731278 143.535034 
L 295.010617 152.729584 
L 298.289956 161.760823 
L 301.569295 170.565238 
L 304.848634 179.087043 
L 308.127973 187.278506 
L 311.407311 195.100072 
L 314.68665 202.520318 
L 317.965989 209.515731 
L 321.245328 216.070349 
L 324.524667 222.175285 
L 327.804006 227.82814 
L 331.083345 233.032356 
L 334.362683 237.796516 
L 337.642022 242.133611 
L 340.921361 246.060312 
L 344.2007 249.596245 
L 347.480039 252.763301 
L 350.759378 255.584989 
L 354.038716 258.085836 
L 357.318055 260.290851 
L 360.597394 262.225054 
L 363.876733 263.913071 
L 367.156072 265.378796 
L 370.435411 266.64512 
L 373.714749 267.733717 
L 376.994088 268.664898 
L 380.273427 269.457503 
L 383.552766 270.128851 
L 386.832105 270.69472 
L 390.111444 271.169371 
L 393.390783 271.565584 
L 396.670121 271.894731 
L 399.94946 272.166854 
" clip-path="url(#p014b35758e)" style="fill: none; stroke: #333333; stroke-width: 1.5; stroke-linecap: square"/>
   </g>
   <g id="patch_33">
    <path d="M 59.062188 273.312 
L 59.062188 7.2 
" style="fill: none; stroke: #000000; stroke-width: 0.8; stroke-linejoin: miter; stroke-linecap: square"/>
   </g>
   <g id="patch_34">
    <path d="M 59.062187 273.312 
L 416.182188 273.312 
" style="fill: none; stroke: #000000; stroke-width: 0.8; stroke-linejoin: miter; stroke-linecap: square"/>
   </g>
  </g>
 </g>
 <defs>
  <clipPath id="p014b35758e">
   <rect x="59.062188" y="7.2" width="357.12" height="266.112"/>
  </clipPath>
 </defs>
</svg>
